repId,repTypeId,workWeekId,externalId,repName,latitude,longitude,timeZoneId,isActivated,isDeleted,seConfigId,createdAt,updatedAt
1001,1041,1001,REP_1,Rep1,NULL,NULL,America/Los_Angeles,1,0,1,2018-01-01 12:00:01,2018-02-01 12:00:01
1002,1041,1001,REP_2,Rep2,NULL,NULL,America/Los_Angeles,1,0,1,2018-02-01 12:00:01,2018-02-01 12:00:01
1003,1041,1001,REP_3,Rep3,NULL,NULL,America/Los_Angeles,1,0,1,2018-02-01 12:00:01,2018-02-01 12:00:01
1004,1041,1001,REP_4,Rep4,NULL,NULL,America/Los_Angeles,1,0,1,2018-02-01 12:00:01,2018-02-01 12:00:01
1005,1041,1001,REP_5,Rep5,NULL,NULL,America/Los_Angeles,1,0,1,2018-02-01 12:00:01,2018-02-01 12:00:01
1006,1041,1001,REP_6,Rep6,NULL,NULL,America/Los_Angeles,1,0,1,2018-02-01 12:00:01,2018-02-01 12:00:01
1007,1041,1001,REP_7,Rep7,NULL,NULL,America/Los_Angeles,1,0,1,2018-02-01 12:00:01,2018-02-01 12:00:01
1008,1041,1001,REP_8,Rep8,NULL,NULL,America/Los_Angeles,1,0,1,2018-02-01 12:00:01,2018-02-01 12:00:01
1009,1041,1001,REP_9,Rep9,NULL,NULL,America/Los_Angeles,1,0,1,2018-02-01 12:00:01,2018-02-01 12:00:01
1010,1041,1001,REP_10,Rep10,NULL,NULL,America/Los_Angeles,1,0,1,2018-02-01 12:00:01,2018-02-01 12:00:01
