"repId","accountId","startDate","endDate","createdAt","updatedAt"
1013,1616,"2015-01-01","2100-12-31","2016-08-27 14:55:00","2016-08-27 14:55:00"
1094,1616,"2015-01-01","2100-12-31","2016-11-04 23:12:15","2016-11-04 23:12:15"
2956,1616,"2015-01-01","2100-12-31","2016-11-14 19:14:49","2016-11-14 19:14:49"
3477,1616,"2015-01-01","2100-12-31","2017-02-08 19:18:58","2017-02-08 19:18:58"
3478,1616,"2015-01-01","2100-12-31","2017-02-08 19:18:58","2017-02-08 19:18:58"
1307,1653,"2015-01-01","2100-12-31","2016-08-27 14:55:03","2016-08-27 14:55:03"
1070,1814,"2015-01-01","2100-12-31","2016-08-27 14:55:22","2016-08-27 14:55:22"
1928,1814,"2015-01-01","2100-12-31","2017-10-31 22:42:31","2017-10-31 22:42:31"
2673,1814,"2015-01-01","2100-12-31","2016-08-27 14:55:22","2016-08-27 14:55:22"
1662,2137,"2015-01-01","2100-12-31","2017-05-03 21:57:25","2017-05-03 21:57:25"
2956,2137,"2015-01-01","2100-12-31","2017-10-31 22:43:25","2017-10-31 22:43:25"
3477,2137,"2015-01-01","2100-12-31","2017-02-08 19:19:09","2017-02-08 19:19:09"
1532,2541,"2015-01-01","2100-12-31","2016-09-02 04:53:26","2016-09-02 04:53:26"
1730,2541,"2015-01-01","2100-12-31","2017-02-14 01:39:02","2017-02-14 01:39:02"
3468,2541,"2015-01-01","2100-12-31","2017-05-09 23:32:32","2017-05-09 23:32:32"
2956,4264,"2015-01-01","2100-12-31","2016-11-14 19:15:36","2016-11-14 19:15:36"
3477,4264,"2015-01-01","2100-12-31","2017-02-08 19:19:58","2017-02-08 19:19:58"
3478,4264,"2015-01-01","2100-12-31","2017-02-08 19:19:58","2017-02-08 19:19:58"
1013,5001,"2015-01-01","2100-12-31","2016-08-27 15:01:54","2016-08-27 15:01:54"
2956,5001,"2015-01-01","2100-12-31","2016-11-14 19:15:49","2016-11-14 19:15:49"
3477,5001,"2015-01-01","2100-12-31","2017-02-08 19:20:14","2017-02-08 19:20:14"
3478,5001,"2015-01-01","2100-12-31","2017-04-11 01:48:48","2017-04-11 01:48:48"
1007,6051,"2015-01-01","2100-12-31","2016-08-27 15:03:05","2016-08-27 15:03:05"
1096,6051,"2015-01-01","2100-12-31","2016-08-27 15:02:55","2016-08-27 15:02:55"
1386,6051,"2015-01-01","2100-12-31","2017-03-08 00:11:53","2017-03-08 00:11:53"
1621,6051,"2015-01-01","2100-12-31","2016-08-27 15:03:04","2016-08-27 15:03:04"
1814,6051,"2015-01-01","2100-12-31","2017-09-18 23:15:21","2017-09-18 23:15:21"
3438,6051,"2015-01-01","2100-12-31","2017-01-13 19:27:34","2017-01-13 19:27:34"
1007,6388,"2015-01-01","2100-12-31","2016-08-27 15:03:37","2016-08-27 15:03:37"
1621,6388,"2015-01-01","2100-12-31","2016-08-27 15:03:42","2016-08-27 15:03:42"
3438,6388,"2015-01-01","2100-12-31","2017-01-13 19:27:42","2017-01-13 19:27:42"
1928,7073,"2015-01-01","2100-12-31","2017-10-31 22:56:41","2017-10-31 22:56:41"
1968,9075,"2015-01-01","2100-12-31","2016-08-27 14:53:56","2016-08-27 14:53:56"
1992,9075,"2015-01-01","2100-12-31","2016-11-04 23:10:54","2016-11-04 23:10:54"
2057,9075,"2015-01-01","2100-12-31","2016-08-27 14:53:56","2016-08-27 14:53:56"
2078,9075,"2015-01-01","2100-12-31","2016-08-27 14:53:56","2016-08-27 14:53:56"
3040,9075,"2015-01-01","2100-12-31","2016-12-29 04:11:05","2016-12-29 04:11:05"
1967,9590,"2015-01-01","2100-12-31","2016-08-27 14:54:15","2016-08-27 14:54:15"
2011,9590,"2015-01-01","2100-12-31","2016-08-27 14:54:16","2016-08-27 14:54:16"
2078,9590,"2015-01-01","2100-12-31","2016-08-27 14:54:15","2016-08-27 14:54:15"
1967,15249,"2015-01-01","2100-12-31","2016-08-27 14:58:37","2016-08-27 14:58:37"
1985,15249,"2015-01-01","2100-12-31","2016-08-27 14:58:29","2016-08-27 14:58:29"
3184,15249,"2015-01-01","2100-12-31","2016-12-29 04:20:28","2016-12-29 04:20:28"
3261,15249,"2015-01-01","2100-12-31","2016-12-30 23:52:36","2016-12-30 23:52:36"
1967,16035,"2015-01-01","2100-12-31","2016-08-27 14:59:24","2016-08-27 14:59:24"
2011,16035,"2015-01-01","2100-12-31","2016-08-27 14:59:19","2016-08-27 14:59:19"
3184,16035,"2015-01-01","2100-12-31","2016-12-29 04:21:54","2016-12-29 04:21:54"
3261,16035,"2015-01-01","2100-12-31","2016-12-30 23:54:03","2016-12-30 23:54:03"
1967,23878,"2015-01-01","2100-12-31","2016-08-29 08:01:49","2016-08-29 08:01:49"
1985,23878,"2015-01-01","2100-12-31","2016-08-29 08:01:47","2016-08-29 08:01:47"
3184,23878,"2015-01-01","2100-12-31","2016-12-29 04:34:07","2016-12-29 04:34:07"
3261,23878,"2015-01-01","2100-12-31","2016-12-31 00:06:45","2016-12-31 00:06:45"
3483,24317,"2015-01-01","2100-12-31","2017-02-14 01:46:59","2017-02-14 01:46:59"
2668,31798,"2015-01-01","2100-12-31","2017-05-05 21:59:13","2017-05-05 21:59:13"
3300,31798,"2015-01-01","2100-12-31","2016-12-30 23:43:08","2016-12-30 23:43:08"
3491,31798,"2015-01-01","2100-12-31","2017-02-15 19:29:37","2017-02-15 19:29:37"
2084,32413,"2015-01-01","2100-12-31","2016-08-27 14:54:22","2016-08-27 14:54:22"
2617,32413,"2015-01-01","2100-12-31","2016-08-27 14:54:22","2016-08-27 14:54:22"
2746,32413,"2015-01-01","2100-12-31","2016-08-27 14:54:22","2016-08-27 14:54:22"
2064,32615,"2015-01-01","2100-12-31","2016-08-27 14:54:24","2016-08-27 14:54:24"
2357,32615,"2015-01-01","2100-12-31","2016-08-27 14:54:24","2016-08-27 14:54:24"
2464,32615,"2015-01-01","2100-12-31","2016-08-27 14:54:24","2016-08-27 14:54:24"
3027,32615,"2015-01-01","2100-12-31","2016-12-29 04:11:52","2016-12-29 04:11:52"
2635,34608,"2015-01-01","2100-12-31","2016-08-27 14:55:28","2016-08-27 14:55:28"
2651,34608,"2015-01-01","2100-12-31","2016-08-27 14:55:28","2016-08-27 14:55:28"
3074,34608,"2015-01-01","2100-12-31","2016-12-29 04:14:16","2016-12-29 04:14:16"
3300,34608,"2015-01-01","2100-12-31","2016-12-30 23:46:23","2016-12-30 23:46:23"
3491,34608,"2015-01-01","2100-12-31","2017-02-15 19:29:54","2017-02-15 19:29:54"
1621,35187,"2015-01-01","2100-12-31","2016-10-21 22:41:09","2016-10-21 22:41:09"
2206,35187,"2015-01-01","2100-12-31","2016-08-27 14:55:45","2016-08-27 14:55:45"
2209,35187,"2015-01-01","2100-12-31","2016-08-27 14:55:45","2016-08-27 14:55:45"
3438,35187,"2015-01-01","2100-12-31","2017-01-13 19:25:53","2017-01-13 19:25:53"
3459,35187,"2015-01-01","2100-12-31","2017-01-13 19:25:53","2017-01-13 19:25:53"
2084,35336,"2015-01-01","2100-12-31","2016-08-29 07:46:53","2016-08-29 07:46:53"
2617,35336,"2015-01-01","2100-12-31","2016-08-29 07:46:47","2016-08-29 07:46:47"
2735,35336,"2015-01-01","2100-12-31","2016-08-29 07:46:48","2016-08-29 07:46:48"
2746,35336,"2015-01-01","2100-12-31","2016-08-29 07:46:48","2016-08-29 07:46:48"
3381,35336,"2015-01-01","2100-12-31","2016-12-30 23:47:14","2016-12-30 23:47:14"
3669,35336,"2015-01-01","2100-12-31","2017-05-26 17:31:34","2017-05-26 17:31:34"
2652,36022,"2015-01-01","2100-12-31","2016-08-27 14:56:04","2016-08-27 14:56:04"
2786,36022,"2015-01-01","2100-12-31","2016-11-04 23:13:35","2016-11-04 23:13:35"
3348,36022,"2015-01-01","2100-12-31","2016-12-30 23:47:59","2016-12-30 23:47:59"
2668,36086,"2015-01-01","2100-12-31","2016-08-27 14:56:17","2016-08-27 14:56:17"
2801,36086,"2015-01-01","2100-12-31","2016-08-27 14:56:17","2016-08-27 14:56:17"
3300,36086,"2015-01-01","2100-12-31","2017-05-03 21:57:44","2017-05-03 21:57:44"
3491,36086,"2015-01-01","2100-12-31","2017-02-15 19:30:04","2017-02-15 19:30:04"
2635,37291,"2015-01-01","2100-12-31","2016-10-20 22:38:34","2016-10-20 22:38:34"
2651,37291,"2015-01-01","2100-12-31","2016-08-27 14:56:53","2016-08-27 14:56:53"
2635,37503,"2015-01-01","2100-12-31","2016-08-27 14:57:00","2016-08-27 14:57:00"
2651,37503,"2015-01-01","2100-12-31","2016-08-27 14:57:03","2016-08-27 14:57:03"
3074,37503,"2015-01-01","2100-12-31","2016-12-29 04:18:01","2016-12-29 04:18:01"
1370,37608,"2015-01-01","2100-12-31","2016-12-30 23:50:07","2016-12-30 23:50:07"
1881,37608,"2015-01-01","2100-12-31","2016-12-29 04:17:54","2016-12-29 04:17:54"
3489,37608,"2015-01-01","2100-12-31","2017-02-15 19:30:13","2017-02-15 19:30:13"
1158,39385,"2015-01-01","2100-12-31","2016-08-29 07:50:43","2016-08-29 07:50:43"
1370,39385,"2015-01-01","2100-12-31","2017-10-31 22:46:03","2017-10-31 22:46:03"
1881,39385,"2015-01-01","2100-12-31","2017-10-31 22:46:02","2017-10-31 22:46:02"
2897,39385,"2015-01-01","2100-12-31","2016-10-11 18:59:40","2016-10-11 18:59:40"
3489,39385,"2015-01-01","2100-12-31","2017-02-15 19:30:24","2017-02-15 19:30:24"
2064,40321,"2015-01-01","2100-12-31","2016-08-27 14:58:54","2016-08-27 14:58:54"
3027,40321,"2015-01-01","2100-12-31","2016-12-29 04:20:49","2016-12-29 04:20:49"
3250,40321,"2015-01-01","2100-12-31","2016-12-30 23:52:59","2016-12-30 23:52:59"
2097,40496,"2015-01-01","2100-12-31","2017-10-31 22:47:09","2017-10-31 22:47:09"
1318,40696,"2015-01-01","2100-12-31","2016-08-27 14:59:20","2016-08-27 14:59:20"
1438,40696,"2015-01-01","2100-12-31","2016-08-27 14:59:12","2016-08-27 14:59:12"
1501,40696,"2015-01-01","2100-12-31","2016-08-27 14:59:17","2016-08-27 14:59:17"
1787,40696,"2015-01-01","2100-12-31","2016-08-27 14:59:11","2016-08-27 14:59:11"
2084,41058,"2015-01-01","2100-12-31","2016-08-27 14:59:31","2016-08-27 14:59:31"
2617,41058,"2015-01-01","2100-12-31","2016-08-27 14:59:33","2016-08-27 14:59:33"
2735,41058,"2015-01-01","2100-12-31","2016-08-27 14:59:28","2016-08-27 14:59:28"
2746,41058,"2015-01-01","2100-12-31","2016-08-27 14:59:35","2016-08-27 14:59:35"
3381,41058,"2015-01-01","2100-12-31","2017-02-03 00:48:18","2017-02-03 00:48:18"
2623,41426,"2015-01-01","2100-12-31","2016-08-27 14:59:46","2016-08-27 14:59:46"
2635,41426,"2015-01-01","2100-12-31","2016-08-27 14:59:40","2016-08-27 14:59:40"
3300,41426,"2015-01-01","2100-12-31","2016-12-30 23:54:59","2016-12-30 23:54:59"
1760,41429,"2015-01-01","2100-12-31","2016-08-27 14:59:56","2016-08-27 14:59:56"
2619,42306,"2015-01-01","2100-12-31","2016-08-27 15:00:09","2016-08-27 15:00:09"
2723,42306,"2015-01-01","2100-12-31","2016-08-27 15:00:16","2016-08-27 15:00:16"
2770,42306,"2015-01-01","2100-12-31","2016-08-27 15:00:11","2016-08-27 15:00:11"
3135,42306,"2015-01-01","2100-12-31","2016-12-29 04:24:04","2016-12-29 04:24:04"
3365,42306,"2015-01-01","2100-12-31","2016-12-30 23:56:16","2016-12-30 23:56:16"
1118,42395,"2015-01-01","2100-12-31","2016-08-27 15:00:11","2016-08-27 15:00:11"
1669,42395,"2015-01-01","2100-12-31","2016-08-27 15:00:10","2016-08-27 15:00:10"
2902,42395,"2015-01-01","2100-12-31","2016-11-05 17:35:08","2016-11-05 17:35:08"
2735,42621,"2015-01-01","2100-12-31","2016-08-27 15:00:23","2016-08-27 15:00:23"
3381,42621,"2015-01-01","2100-12-31","2016-12-30 23:56:47","2016-12-30 23:56:47"
3669,42621,"2015-01-01","2100-12-31","2017-05-26 17:31:37","2017-05-26 17:31:37"
2651,42644,"2015-01-01","2100-12-31","2016-08-27 15:00:32","2016-08-27 15:00:32"
2668,42696,"2015-01-01","2100-12-31","2016-08-27 15:00:11","2016-08-27 15:00:11"
2704,42696,"2015-01-01","2100-12-31","2016-08-27 15:00:17","2016-08-27 15:00:17"
3074,42696,"2015-01-01","2100-12-31","2016-12-29 04:24:20","2016-12-29 04:24:20"
3300,42696,"2015-01-01","2100-12-31","2016-12-30 23:56:34","2016-12-30 23:56:34"
3491,42696,"2015-01-01","2100-12-31","2017-02-15 19:30:45","2017-02-15 19:30:45"
2635,42727,"2015-01-01","2100-12-31","2016-08-27 15:00:18","2016-08-27 15:00:18"
2651,42727,"2015-01-01","2100-12-31","2016-08-27 15:00:08","2016-08-27 15:00:08"
3074,42727,"2015-01-01","2100-12-31","2016-12-29 04:24:22","2016-12-29 04:24:22"
3300,42727,"2015-01-01","2100-12-31","2016-12-30 23:56:35","2016-12-30 23:56:35"
3491,42727,"2015-01-01","2100-12-31","2017-02-15 19:30:45","2017-02-15 19:30:45"
2084,42914,"2015-01-01","2100-12-31","2016-08-27 15:00:18","2016-08-27 15:00:18"
2617,42914,"2015-01-01","2100-12-31","2017-05-03 22:01:31","2017-05-03 22:01:31"
2735,42914,"2015-01-01","2100-12-31","2016-08-27 15:00:23","2016-08-27 15:00:23"
2746,42914,"2015-01-01","2100-12-31","2016-08-27 15:00:24","2016-08-27 15:00:24"
3669,42914,"2015-01-01","2100-12-31","2017-11-01 22:10:11","2017-11-01 22:10:11"
2623,43258,"2015-01-01","2100-12-31","2016-08-29 16:55:01","2016-08-29 16:55:01"
2635,43258,"2015-01-01","2100-12-31","2016-08-29 16:56:06","2016-08-29 16:56:06"
1621,43383,"2015-01-01","2100-12-31","2017-10-24 21:43:57","2017-10-24 21:43:57"
2206,43383,"2015-01-01","2100-12-31","2016-11-05 22:36:58","2016-11-05 22:36:58"
3630,43383,"2015-01-01","2100-12-31","2017-04-13 17:32:45","2017-04-13 17:32:45"
2635,43402,"2015-01-01","2100-12-31","2016-08-27 15:00:34","2016-08-27 15:00:34"
2651,43402,"2015-01-01","2100-12-31","2016-08-27 15:00:38","2016-08-27 15:00:38"
3074,43402,"2015-01-01","2100-12-31","2016-12-29 04:25:00","2016-12-29 04:25:00"
3300,43402,"2015-01-01","2100-12-31","2016-12-30 23:57:19","2016-12-30 23:57:19"
3491,43402,"2015-01-01","2100-12-31","2017-02-15 19:30:48","2017-02-15 19:30:48"
2668,43823,"2015-01-01","2100-12-31","2016-08-27 15:00:42","2016-08-27 15:00:42"
2801,43823,"2015-01-01","2100-12-31","2016-08-27 15:00:43","2016-08-27 15:00:43"
3491,43823,"2015-01-01","2100-12-31","2017-02-15 19:30:52","2017-02-15 19:30:52"
2704,44031,"2015-01-01","2100-12-31","2017-05-05 22:05:38","2017-05-05 22:05:38"
2840,44031,"2015-01-01","2100-12-31","2016-08-27 15:00:43","2016-08-27 15:00:43"
3074,44031,"2015-01-01","2100-12-31","2016-12-29 04:25:49","2016-12-29 04:25:49"
3300,44031,"2015-01-01","2100-12-31","2016-12-30 23:58:08","2016-12-30 23:58:08"
3491,44031,"2015-01-01","2100-12-31","2017-02-15 19:30:54","2017-02-15 19:30:54"
2084,44207,"2015-01-01","2100-12-31","2016-08-27 15:00:52","2016-08-27 15:00:52"
2617,44207,"2015-01-01","2100-12-31","2016-08-27 15:00:52","2016-08-27 15:00:52"
2735,44207,"2015-01-01","2100-12-31","2016-08-27 15:00:48","2016-08-27 15:00:48"
2746,44207,"2015-01-01","2100-12-31","2016-08-27 15:00:57","2016-08-27 15:00:57"
3381,44207,"2015-01-01","2100-12-31","2016-12-30 23:58:18","2016-12-30 23:58:18"
3669,44207,"2015-01-01","2100-12-31","2017-05-26 17:31:39","2017-05-26 17:31:39"
2082,44251,"2015-01-01","2100-12-31","2016-08-27 15:00:50","2016-08-27 15:00:50"
1172,45945,"2015-01-01","2100-12-31","2016-08-29 16:58:23","2016-08-29 16:58:23"
1478,45945,"2015-01-01","2100-12-31","2016-08-29 16:58:30","2016-08-29 16:58:30"
1803,45945,"2015-01-01","2100-12-31","2016-08-29 16:57:38","2016-08-29 16:57:38"
3530,45945,"2015-01-01","2100-12-31","2017-05-04 22:24:53","2017-05-04 22:24:53"
3696,45945,"2015-01-01","2100-12-31","2017-07-17 17:16:58","2017-07-17 17:16:58"
2084,46422,"2015-01-01","2100-12-31","2016-08-27 15:01:44","2016-08-27 15:01:44"
2617,46422,"2015-01-01","2100-12-31","2016-08-27 15:01:32","2016-08-27 15:01:32"
2735,46422,"2015-01-01","2100-12-31","2016-08-27 15:01:43","2016-08-27 15:01:43"
2746,46422,"2015-01-01","2100-12-31","2016-08-27 15:01:39","2016-08-27 15:01:39"
3381,46422,"2015-01-01","2100-12-31","2016-12-31 00:00:50","2016-12-31 00:00:50"
3578,46422,"2015-01-01","2100-12-31","2017-05-12 00:05:42","2017-05-12 00:05:42"
3669,46422,"2015-01-01","2100-12-31","2017-05-26 17:31:39","2017-05-26 17:31:39"
2079,46745,"2015-01-01","2100-12-31","2016-08-27 15:01:51","2016-08-27 15:01:51"
2365,46745,"2015-01-01","2100-12-31","2016-08-27 15:01:47","2016-08-27 15:01:47"
2447,46745,"2015-01-01","2100-12-31","2016-11-04 23:20:37","2016-11-04 23:20:37"
3073,46745,"2015-01-01","2100-12-31","2016-12-29 04:28:48","2016-12-29 04:28:48"
3298,46745,"2015-01-01","2100-12-31","2016-12-31 00:01:12","2016-12-31 00:01:12"
3564,46745,"2015-01-01","2100-12-31","2017-02-16 00:10:20","2017-02-16 00:10:20"
1110,47092,"2015-01-01","2100-12-31","2016-11-04 23:20:42","2016-11-04 23:20:42"
2079,47092,"2015-01-01","2100-12-31","2016-08-27 15:02:01","2016-08-27 15:02:01"
2365,47092,"2015-01-01","2100-12-31","2016-08-27 15:01:57","2016-08-27 15:01:57"
2447,47092,"2015-01-01","2100-12-31","2016-08-27 15:01:52","2016-08-27 15:01:52"
3073,47092,"2015-01-01","2100-12-31","2016-12-29 04:28:57","2016-12-29 04:28:57"
3298,47092,"2015-01-01","2100-12-31","2016-12-31 00:01:23","2016-12-31 00:01:23"
1002,47371,"2015-01-01","2100-12-31","2017-05-12 00:06:20","2017-05-12 00:06:20"
1307,47371,"2015-01-01","2100-12-31","2017-10-21 04:00:16","2017-10-21 04:00:16"
2084,48200,"2015-01-01","2100-12-31","2016-08-29 07:57:47","2016-08-29 07:57:47"
2617,48200,"2015-01-01","2100-12-31","2016-08-29 07:57:55","2016-08-29 07:57:55"
2735,48200,"2015-01-01","2100-12-31","2017-10-18 23:18:57","2017-10-18 23:18:57"
2746,48200,"2015-01-01","2100-12-31","2016-08-29 07:57:57","2016-08-29 07:57:57"
3381,48200,"2015-01-01","2100-12-31","2016-12-31 00:02:54","2016-12-31 00:02:54"
3669,48200,"2015-01-01","2100-12-31","2017-05-26 17:31:40","2017-05-26 17:31:40"
2084,48499,"2015-01-01","2100-12-31","2016-08-29 07:58:09","2016-08-29 07:58:09"
2617,48499,"2015-01-01","2100-12-31","2016-08-29 07:58:07","2016-08-29 07:58:07"
2735,48499,"2015-01-01","2100-12-31","2016-08-29 07:57:57","2016-08-29 07:57:57"
2746,48499,"2015-01-01","2100-12-31","2016-08-29 07:58:17","2016-08-29 07:58:17"
3381,48499,"2015-01-01","2100-12-31","2016-12-31 00:03:14","2016-12-31 00:03:14"
3669,48499,"2015-01-01","2100-12-31","2017-05-26 17:31:40","2017-05-26 17:31:40"
2774,48613,"2015-01-01","2100-12-31","2016-08-27 15:02:28","2016-08-27 15:02:28"
3129,48613,"2015-01-01","2100-12-31","2016-12-29 04:31:11","2016-12-29 04:31:11"
2623,48806,"2015-01-01","2100-12-31","2016-08-27 15:02:32","2016-08-27 15:02:32"
2635,48806,"2015-01-01","2100-12-31","2016-08-27 15:02:26","2016-08-27 15:02:26"
2651,48806,"2015-01-01","2100-12-31","2016-08-27 15:02:37","2016-08-27 15:02:37"
3074,48806,"2015-01-01","2100-12-31","2016-12-29 04:31:02","2016-12-29 04:31:02"
3300,48806,"2015-01-01","2100-12-31","2016-12-31 00:03:31","2016-12-31 00:03:31"
3491,48806,"2015-01-01","2100-12-31","2017-02-15 19:31:23","2017-02-15 19:31:23"
2623,48851,"2015-01-01","2100-12-31","2016-08-27 15:02:24","2016-08-27 15:02:24"
2635,48851,"2015-01-01","2100-12-31","2016-08-27 15:02:31","2016-08-27 15:02:31"
3300,48851,"2015-01-01","2100-12-31","2016-12-31 00:03:36","2016-12-31 00:03:36"
3491,48851,"2015-01-01","2100-12-31","2017-02-15 19:31:24","2017-02-15 19:31:24"
2623,49103,"2015-01-01","2100-12-31","2016-08-29 17:01:25","2016-08-29 17:01:25"
2635,49103,"2015-01-01","2100-12-31","2016-08-29 17:00:11","2016-08-29 17:00:11"
2668,49103,"2015-01-01","2100-12-31","2016-08-29 17:01:32","2016-08-29 17:01:32"
3300,49103,"2015-01-01","2100-12-31","2016-12-31 00:04:09","2016-12-31 00:04:09"
3491,49103,"2015-01-01","2100-12-31","2017-02-15 19:31:27","2017-02-15 19:31:27"
2124,49495,"2015-01-01","2100-12-31","2016-08-27 15:02:38","2016-08-27 15:02:38"
2617,49495,"2015-01-01","2100-12-31","2016-08-27 15:02:48","2016-08-27 15:02:48"
2735,49495,"2015-01-01","2100-12-31","2016-08-27 15:02:43","2016-08-27 15:02:43"
2746,49495,"2015-01-01","2100-12-31","2016-08-27 15:02:45","2016-08-27 15:02:45"
3669,49495,"2015-01-01","2100-12-31","2017-05-26 17:31:41","2017-05-26 17:31:41"
1151,49641,"2015-01-01","2100-12-31","2017-02-01 01:47:13","2017-02-01 01:47:13"
2599,49641,"2015-01-01","2100-12-31","2016-08-29 17:01:53","2016-08-29 17:01:53"
2084,50788,"2015-01-01","2100-12-31","2016-08-27 15:03:13","2016-08-27 15:03:13"
2735,50788,"2015-01-01","2100-12-31","2016-08-27 15:03:18","2016-08-27 15:03:18"
2746,50788,"2015-01-01","2100-12-31","2016-08-27 15:03:20","2016-08-27 15:03:20"
2668,51516,"2015-01-01","2100-12-31","2016-08-27 15:03:53","2016-08-27 15:03:53"
2801,51516,"2015-01-01","2100-12-31","2016-08-27 15:04:00","2016-08-27 15:04:00"
3300,51516,"2015-01-01","2100-12-31","2016-12-31 00:06:47","2016-12-31 00:06:47"
3491,51516,"2015-01-01","2100-12-31","2017-02-15 19:31:39","2017-02-15 19:31:39"
2635,51989,"2015-01-01","2100-12-31","2016-08-27 15:04:08","2016-08-27 15:04:08"
2651,51989,"2015-01-01","2100-12-31","2016-08-27 15:04:12","2016-08-27 15:04:12"
3074,51989,"2015-01-01","2100-12-31","2017-11-02 22:26:04","2017-11-02 22:26:04"
1386,52004,"2015-01-01","2100-12-31","2017-03-08 00:12:35","2017-03-08 00:12:35"
2206,52004,"2015-01-01","2100-12-31","2017-10-25 23:16:07","2017-10-25 23:16:07"
2209,52004,"2015-01-01","2100-12-31","2017-11-03 21:43:33","2017-11-03 21:43:33"
2084,52072,"2015-01-01","2100-12-31","2016-08-29 08:01:51","2016-08-29 08:01:51"
2617,52072,"2015-01-01","2100-12-31","2016-08-29 08:02:06","2016-08-29 08:02:06"
2735,52072,"2015-01-01","2100-12-31","2016-08-29 08:01:54","2016-08-29 08:01:54"
2746,52072,"2015-01-01","2100-12-31","2016-08-29 08:02:10","2016-08-29 08:02:10"
3669,52072,"2015-01-01","2100-12-31","2017-05-26 17:31:42","2017-05-26 17:31:42"
1151,53019,"2015-01-01","2100-12-31","2017-01-31 19:41:54","2017-01-31 19:41:54"
2084,53021,"2015-01-01","2100-12-31","2016-08-29 08:02:53","2016-08-29 08:02:53"
2617,53021,"2015-01-01","2100-12-31","2016-08-29 08:02:55","2016-08-29 08:02:55"
2735,53021,"2015-01-01","2100-12-31","2016-08-29 08:02:36","2016-08-29 08:02:36"
2746,53021,"2015-01-01","2100-12-31","2016-08-29 08:02:58","2016-08-29 08:02:58"
3381,53021,"2015-01-01","2100-12-31","2016-12-31 00:08:25","2016-12-31 00:08:25"
3669,53021,"2015-01-01","2100-12-31","2017-05-26 17:31:42","2017-05-26 17:31:42"
2623,53050,"2015-01-01","2100-12-31","2016-08-27 15:05:12","2016-08-27 15:05:12"
2651,53050,"2015-01-01","2100-12-31","2016-08-27 15:05:09","2016-08-27 15:05:09"
3300,53050,"2015-01-01","2100-12-31","2016-12-31 00:07:56","2016-12-31 00:07:56"
3491,53050,"2015-01-01","2100-12-31","2017-02-15 19:31:45","2017-02-15 19:31:45"
2084,53255,"2015-01-01","2100-12-31","2016-08-27 15:05:37","2016-08-27 15:05:37"
2617,53255,"2015-01-01","2100-12-31","2016-08-27 15:05:32","2016-08-27 15:05:32"
2735,53255,"2015-01-01","2100-12-31","2016-08-27 15:05:41","2016-08-27 15:05:41"
3381,53255,"2015-01-01","2100-12-31","2016-12-31 00:08:49","2016-12-31 00:08:49"
3669,53255,"2015-01-01","2100-12-31","2017-05-26 17:31:42","2017-05-26 17:31:42"
2085,53758,"2015-01-01","2100-12-31","2016-08-27 15:05:47","2016-08-27 15:05:47"
2619,53758,"2015-01-01","2100-12-31","2016-08-27 15:05:50","2016-08-27 15:05:50"
2723,53758,"2015-01-01","2100-12-31","2016-08-27 15:05:50","2016-08-27 15:05:50"
3135,53758,"2015-01-01","2100-12-31","2016-12-29 04:36:44","2016-12-29 04:36:44"
3365,53758,"2015-01-01","2100-12-31","2016-12-31 00:09:27","2016-12-31 00:09:27"
2124,53897,"2015-01-01","2100-12-31","2016-08-27 15:05:46","2016-08-27 15:05:46"
2617,53897,"2015-01-01","2100-12-31","2016-11-04 23:25:51","2016-11-04 23:25:51"
2735,53897,"2015-01-01","2100-12-31","2016-08-27 15:05:58","2016-08-27 15:05:58"
2746,53897,"2015-01-01","2100-12-31","2016-08-27 15:05:51","2016-08-27 15:05:51"
3669,53897,"2015-01-01","2100-12-31","2017-05-26 17:31:42","2017-05-26 17:31:42"
1110,54152,"2015-01-01","2100-12-31","2016-08-27 15:05:55","2016-08-27 15:05:55"
2079,54152,"2015-01-01","2100-12-31","2016-08-27 15:06:00","2016-08-27 15:06:00"
2314,54152,"2015-01-01","2100-12-31","2016-08-27 15:05:56","2016-08-27 15:05:56"
2447,54152,"2015-01-01","2100-12-31","2016-08-27 15:06:01","2016-08-27 15:06:01"
3073,54152,"2015-01-01","2100-12-31","2016-12-29 04:36:46","2016-12-29 04:36:46"
3298,54152,"2015-01-01","2100-12-31","2016-12-31 00:09:30","2016-12-31 00:09:30"
2668,54538,"2015-01-01","2100-12-31","2017-05-05 22:11:09","2017-05-05 22:11:09"
2801,54538,"2015-01-01","2100-12-31","2016-08-27 15:06:11","2016-08-27 15:06:11"
3491,54538,"2015-01-01","2100-12-31","2017-02-15 19:31:56","2017-02-15 19:31:56"
2088,54724,"2015-01-01","2100-12-31","2016-08-27 15:06:13","2016-08-27 15:06:13"
3332,54724,"2015-01-01","2100-12-31","2016-12-31 00:10:01","2016-12-31 00:10:01"
2623,54735,"2015-01-01","2100-12-31","2016-08-27 15:06:28","2016-08-27 15:06:28"
2635,54735,"2015-01-01","2100-12-31","2016-08-27 15:06:24","2016-08-27 15:06:24"
2651,54735,"2015-01-01","2100-12-31","2016-08-27 15:06:15","2016-08-27 15:06:15"
3074,54735,"2015-01-01","2100-12-31","2016-12-29 04:37:48","2016-12-29 04:37:48"
3300,54735,"2015-01-01","2100-12-31","2016-12-31 00:10:34","2016-12-31 00:10:34"
3491,54735,"2015-01-01","2100-12-31","2017-02-15 19:31:57","2017-02-15 19:31:57"
2124,54776,"2015-01-01","2100-12-31","2016-08-29 08:04:03","2016-08-29 08:04:03"
2617,54776,"2015-01-01","2100-12-31","2016-08-29 08:03:45","2016-08-29 08:03:45"
2735,54776,"2015-01-01","2100-12-31","2016-08-29 08:03:58","2016-08-29 08:03:58"
2746,54776,"2015-01-01","2100-12-31","2016-08-29 08:03:47","2016-08-29 08:03:47"
3381,54776,"2015-01-01","2100-12-31","2016-12-31 00:10:11","2016-12-31 00:10:11"
3669,54776,"2015-01-01","2100-12-31","2017-05-26 17:31:43","2017-05-26 17:31:43"
2704,55089,"2015-01-01","2100-12-31","2016-08-27 15:06:23","2016-08-27 15:06:23"
2840,55089,"2015-01-01","2100-12-31","2017-10-30 21:09:46","2017-10-30 21:09:46"
3074,55089,"2015-01-01","2100-12-31","2016-12-29 04:37:51","2016-12-29 04:37:51"
3300,55089,"2015-01-01","2100-12-31","2016-12-31 00:10:36","2016-12-31 00:10:36"
3491,55089,"2015-01-01","2100-12-31","2017-02-15 19:31:58","2017-02-15 19:31:58"
1311,55170,"2015-01-01","2100-12-31","2016-12-06 00:06:29","2016-12-06 00:06:29"
1383,55170,"2015-01-01","2100-12-31","2016-08-27 15:06:42","2016-08-27 15:06:42"
1620,55170,"2015-01-01","2100-12-31","2016-08-27 15:06:34","2016-08-27 15:06:34"
1151,55469,"2015-01-01","2100-12-31","2017-01-31 19:43:49","2017-01-31 19:43:49"
2668,55605,"2015-01-01","2100-12-31","2016-11-04 23:27:03","2016-11-04 23:27:03"
2704,55605,"2015-01-01","2100-12-31","2016-08-27 15:06:33","2016-08-27 15:06:33"
2840,55605,"2015-01-01","2100-12-31","2016-11-04 23:27:11","2016-11-04 23:27:11"
3300,55605,"2015-01-01","2100-12-31","2016-12-31 00:11:03","2016-12-31 00:11:03"
3491,55605,"2015-01-01","2100-12-31","2017-02-15 19:32:00","2017-02-15 19:32:00"
2084,55720,"2015-01-01","2100-12-31","2016-08-27 15:06:28","2016-08-27 15:06:28"
2735,55720,"2015-01-01","2100-12-31","2017-10-18 23:26:32","2017-10-18 23:26:32"
2746,55720,"2015-01-01","2100-12-31","2017-05-02 22:12:20","2017-05-02 22:12:20"
1151,56139,"2015-01-01","2100-12-31","2017-01-31 19:44:26","2017-01-31 19:44:26"
2599,56139,"2015-01-01","2100-12-31","2016-08-27 15:06:49","2016-08-27 15:06:49"
2705,56139,"2015-01-01","2100-12-31","2016-08-27 15:06:49","2016-08-27 15:06:49"
2083,56174,"2015-01-01","2100-12-31","2016-08-29 08:05:08","2016-08-29 08:05:08"
2643,56174,"2015-01-01","2100-12-31","2017-10-16 23:09:44","2017-10-16 23:09:44"
2623,56289,"2015-01-01","2100-12-31","2016-08-27 15:07:02","2016-08-27 15:07:02"
2635,56289,"2015-01-01","2100-12-31","2016-10-20 22:46:53","2016-10-20 22:46:53"
3300,56289,"2015-01-01","2100-12-31","2016-12-31 00:11:54","2016-12-31 00:11:54"
1151,56343,"2015-01-01","2100-12-31","2017-01-31 19:45:04","2017-01-31 19:45:04"
2599,56343,"2015-01-01","2100-12-31","2017-05-12 00:14:58","2017-05-12 00:14:58"
2084,56388,"2015-01-01","2100-12-31","2016-08-27 15:07:09","2016-08-27 15:07:09"
2617,56388,"2015-01-01","2100-12-31","2017-10-24 21:59:34","2017-10-24 21:59:34"
2735,56388,"2015-01-01","2100-12-31","2017-10-21 21:15:55","2017-10-21 21:15:55"
2746,56388,"2015-01-01","2100-12-31","2016-08-27 15:07:09","2016-08-27 15:07:09"
3669,56388,"2015-01-01","2100-12-31","2017-05-26 17:31:43","2017-05-26 17:31:43"
2222,57493,"2015-01-01","2100-12-31","2016-08-29 07:46:27","2016-08-29 07:46:27"
2623,59595,"2015-01-01","2100-12-31","2016-08-27 14:55:24","2016-08-27 14:55:24"
2635,59595,"2015-01-01","2100-12-31","2016-08-27 14:55:24","2016-08-27 14:55:24"
2651,59595,"2015-01-01","2100-12-31","2016-08-27 14:55:24","2016-08-27 14:55:24"
3074,59595,"2015-01-01","2100-12-31","2017-11-02 22:12:25","2017-11-02 22:12:25"
2617,60033,"2015-01-01","2100-12-31","2016-08-27 14:55:58","2016-08-27 14:55:58"
2735,60033,"2015-01-01","2100-12-31","2016-08-27 14:55:59","2016-08-27 14:55:59"
2746,60033,"2015-01-01","2100-12-31","2016-08-27 14:55:58","2016-08-27 14:55:58"
3381,60033,"2015-01-01","2100-12-31","2016-12-30 23:47:46","2016-12-30 23:47:46"
3669,60033,"2015-01-01","2100-12-31","2017-05-26 17:31:35","2017-05-26 17:31:35"
2124,60573,"2015-01-01","2100-12-31","2016-08-27 14:56:42","2016-08-27 14:56:42"
2617,60573,"2015-01-01","2100-12-31","2016-08-27 14:56:43","2016-08-27 14:56:43"
2735,60573,"2015-01-01","2100-12-31","2016-08-27 14:56:42","2016-08-27 14:56:42"
2746,60573,"2015-01-01","2100-12-31","2016-08-27 14:56:41","2016-08-27 14:56:41"
3381,60573,"2015-01-01","2100-12-31","2016-12-30 23:49:28","2016-12-30 23:49:28"
3669,60573,"2015-01-01","2100-12-31","2017-05-26 17:31:35","2017-05-26 17:31:35"
2623,62947,"2015-01-01","2100-12-31","2016-08-27 15:00:15","2016-08-27 15:00:15"
2635,62947,"2015-01-01","2100-12-31","2016-08-27 15:00:17","2016-08-27 15:00:17"
3300,62947,"2015-01-01","2100-12-31","2016-12-30 23:56:31","2016-12-30 23:56:31"
3491,62947,"2015-01-01","2100-12-31","2017-02-15 19:30:45","2017-02-15 19:30:45"
2668,63190,"2015-01-01","2100-12-31","2016-08-29 16:55:53","2016-08-29 16:55:53"
2801,63190,"2015-01-01","2100-12-31","2016-08-29 16:55:40","2016-08-29 16:55:40"
3074,63190,"2015-01-01","2100-12-31","2016-12-29 04:24:49","2016-12-29 04:24:49"
3300,63190,"2015-01-01","2100-12-31","2016-12-30 23:57:07","2016-12-30 23:57:07"
3491,63190,"2015-01-01","2100-12-31","2017-02-15 19:30:48","2017-02-15 19:30:48"
2840,63337,"2015-01-01","2100-12-31","2017-11-02 22:19:24","2017-11-02 22:19:24"
3074,63337,"2015-01-01","2100-12-31","2016-12-29 04:25:00","2016-12-29 04:25:00"
3300,63337,"2015-01-01","2100-12-31","2016-12-30 23:57:18","2016-12-30 23:57:18"
2089,64636,"2015-01-01","2100-12-31","2016-08-29 07:56:33","2016-08-29 07:56:33"
2776,64636,"2015-01-01","2100-12-31","2017-11-02 22:21:27","2017-11-02 22:21:27"
2807,64636,"2015-01-01","2100-12-31","2016-08-29 07:56:44","2016-08-29 07:56:44"
3080,64636,"2015-01-01","2100-12-31","2016-12-29 04:28:31","2016-12-29 04:28:31"
3410,64636,"2015-01-01","2100-12-31","2016-12-31 00:00:51","2016-12-31 00:00:51"
3524,64636,"2015-01-01","2100-12-31","2017-02-16 00:10:10","2017-02-16 00:10:10"
2084,66048,"2015-01-01","2100-12-31","2016-11-04 23:22:24","2016-11-04 23:22:24"
2617,66048,"2015-01-01","2100-12-31","2016-08-27 15:02:33","2016-08-27 15:02:33"
2735,66048,"2015-01-01","2100-12-31","2016-08-27 15:02:29","2016-08-27 15:02:29"
2746,66048,"2015-01-01","2100-12-31","2016-08-27 15:02:41","2016-08-27 15:02:41"
3381,66048,"2015-01-01","2100-12-31","2016-12-31 00:03:56","2016-12-31 00:03:56"
3669,66048,"2015-01-01","2100-12-31","2017-05-26 17:31:41","2017-05-26 17:31:41"
2084,66385,"2015-01-01","2100-12-31","2016-11-04 23:22:50","2016-11-04 23:22:50"
2617,66385,"2015-01-01","2100-12-31","2016-08-29 07:59:00","2016-08-29 07:59:00"
2735,66385,"2015-01-01","2100-12-31","2016-08-29 07:59:12","2016-08-29 07:59:12"
2746,66385,"2015-01-01","2100-12-31","2016-08-29 07:59:01","2016-08-29 07:59:01"
3300,66687,"2015-01-01","2100-12-31","2016-12-31 00:05:28","2016-12-31 00:05:28"
3491,66687,"2015-01-01","2100-12-31","2017-04-27 23:37:46","2017-04-27 23:37:46"
2623,67351,"2015-01-01","2100-12-31","2016-08-27 15:03:52","2016-08-27 15:03:52"
2635,67351,"2015-01-01","2100-12-31","2016-08-27 15:03:42","2016-08-27 15:03:42"
3300,67351,"2015-01-01","2100-12-31","2016-12-31 00:06:21","2016-12-31 00:06:21"
3491,67351,"2015-01-01","2100-12-31","2017-02-15 19:31:37","2017-02-15 19:31:37"
1506,71561,"2015-01-01","2100-12-31","2016-12-29 04:36:14","2016-12-29 04:36:14"
3399,71561,"2015-01-01","2100-12-31","2016-12-31 00:08:58","2016-12-31 00:08:58"
2786,71595,"2015-01-01","2100-12-31","2016-08-27 15:05:26","2016-08-27 15:05:26"
2930,71595,"2015-01-01","2100-12-31","2016-11-09 23:44:10","2016-11-09 23:44:10"
3117,71595,"2015-01-01","2100-12-31","2016-12-29 04:35:54","2016-12-29 04:35:54"
3645,71595,"2015-01-01","2100-12-31","2017-04-13 17:33:24","2017-04-13 17:33:24"
1817,74373,"2015-01-01","2100-12-31","2016-11-04 23:27:57","2016-11-04 23:27:57"
2870,74373,"2015-01-01","2100-12-31","2016-11-04 23:28:09","2016-11-04 23:28:09"
1151,76885,"2015-01-01","2100-12-31","2017-02-01 01:55:09","2017-02-01 01:55:09"
1151,78739,"2015-01-01","2100-12-31","2017-01-31 19:45:38","2017-01-31 19:45:38"
2599,78739,"2015-01-01","2100-12-31","2017-05-10 23:54:09","2017-05-10 23:54:09"
2705,78739,"2015-01-01","2100-12-31","2017-05-06 23:21:28","2017-05-06 23:21:28"
2041,85992,"2015-01-01","2100-12-31","2016-08-29 07:44:30","2016-08-29 07:44:30"
3236,85992,"2015-01-01","2100-12-31","2016-12-30 23:43:36","2016-12-30 23:43:36"
2239,92299,"2015-01-01","2100-12-31","2016-08-29 07:46:53","2016-08-29 07:46:53"
3394,92299,"2015-01-01","2100-12-31","2016-12-30 23:47:22","2016-12-30 23:47:22"
2016,155490,"2015-01-01","2100-12-31","2017-09-04 23:05:50","2017-09-04 23:05:50"
3235,155490,"2015-01-01","2100-12-31","2016-12-31 00:07:55","2016-12-31 00:07:55"
2888,173020,"2015-01-01","2100-12-31","2016-09-27 14:40:32","2016-09-27 14:40:32"
2927,173020,"2015-01-01","2100-12-31","2016-11-08 16:29:40","2016-11-08 16:29:40"
3038,173020,"2015-01-01","2100-12-31","2016-12-29 04:19:44","2016-12-29 04:19:44"
3189,173020,"2015-01-01","2100-12-31","2016-12-29 04:19:44","2016-12-29 04:19:44"
3073,173555,"2015-01-01","2100-12-31","2016-12-29 04:20:04","2016-12-29 04:20:04"
3298,173555,"2015-01-01","2100-12-31","2016-12-30 23:52:13","2016-12-30 23:52:13"
3564,173555,"2015-01-01","2100-12-31","2017-02-16 00:05:16","2017-02-16 00:05:16"
2635,174753,"2015-01-01","2100-12-31","2016-10-20 22:39:49","2016-10-20 22:39:49"
2651,174753,"2015-01-01","2100-12-31","2016-08-29 16:52:00","2016-08-29 16:52:00"
3300,174753,"2015-01-01","2100-12-31","2016-12-30 23:53:24","2016-12-30 23:53:24"
2384,177895,"2015-01-01","2100-12-31","2016-08-27 14:59:58","2016-08-27 14:59:58"
2389,177895,"2015-01-01","2100-12-31","2016-08-27 15:00:03","2016-08-27 15:00:03"
3279,177895,"2015-01-01","2100-12-31","2016-12-30 23:55:33","2016-12-30 23:55:33"
3281,177895,"2015-01-01","2100-12-31","2016-12-30 23:55:33","2016-12-30 23:55:33"
2298,178020,"2015-01-01","2100-12-31","2016-08-27 14:59:52","2016-08-27 14:59:52"
2389,178020,"2015-01-01","2100-12-31","2016-08-27 14:59:56","2016-08-27 14:59:56"
3281,178020,"2015-01-01","2100-12-31","2016-12-30 23:55:47","2016-12-30 23:55:47"
2300,194695,"2015-01-01","2100-12-31","2017-04-27 23:40:16","2017-04-27 23:40:16"
3373,194695,"2015-01-01","2100-12-31","2016-12-31 00:09:51","2016-12-31 00:09:51"
3395,194695,"2015-01-01","2100-12-31","2016-12-31 00:09:51","2016-12-31 00:09:51"
2290,195883,"2015-01-01","2100-12-31","2016-08-27 15:06:16","2016-08-27 15:06:16"
2448,195883,"2015-01-01","2100-12-31","2016-08-27 15:06:21","2016-08-27 15:06:21"
3077,195883,"2015-01-01","2100-12-31","2017-04-04 22:17:33","2017-04-04 22:17:33"
2635,204979,"2015-01-01","2100-12-31","2016-10-20 22:43:50","2016-10-20 22:43:50"
2651,204979,"2015-01-01","2100-12-31","2017-11-03 21:41:55","2017-11-03 21:41:55"
3300,204979,"2015-01-01","2100-12-31","2016-12-31 00:04:52","2016-12-31 00:04:52"
2623,205798,"2015-01-01","2100-12-31","2016-08-27 14:53:53","2016-08-27 14:53:53"
3300,205798,"2015-01-01","2100-12-31","2016-12-30 23:43:00","2016-12-30 23:43:00"
2514,205980,"2015-01-01","2100-12-31","2016-08-27 14:53:56","2016-08-27 14:53:56"
2996,205980,"2015-01-01","2100-12-31","2016-12-29 04:11:05","2016-12-29 04:11:05"
3380,205980,"2015-01-01","2100-12-31","2016-12-30 23:43:04","2016-12-30 23:43:04"
2514,206561,"2015-01-01","2100-12-31","2016-08-27 14:54:04","2016-08-27 14:54:04"
2582,206561,"2015-01-01","2100-12-31","2017-05-06 23:11:50","2017-05-06 23:11:50"
2754,206561,"2015-01-01","2100-12-31","2016-08-27 14:54:04","2016-08-27 14:54:04"
2996,206561,"2015-01-01","2100-12-31","2016-12-29 04:11:17","2016-12-29 04:11:17"
3150,206561,"2015-01-01","2100-12-31","2016-12-29 04:11:17","2016-12-29 04:11:17"
2733,208819,"2015-01-01","2100-12-31","2016-08-27 14:54:22","2016-08-27 14:54:22"
2806,208819,"2015-01-01","2100-12-31","2016-08-27 14:54:22","2016-08-27 14:54:22"
3141,208819,"2015-01-01","2100-12-31","2016-12-29 04:11:49","2016-12-29 04:11:49"
2529,210216,"2015-01-01","2100-12-31","2016-08-27 14:54:42","2016-08-27 14:54:42"
2683,210216,"2015-01-01","2100-12-31","2016-08-27 14:54:42","2016-08-27 14:54:42"
2830,210216,"2015-01-01","2100-12-31","2016-08-27 14:54:42","2016-08-27 14:54:42"
3137,210216,"2015-01-01","2100-12-31","2016-12-29 04:12:35","2016-12-29 04:12:35"
3174,210216,"2015-01-01","2100-12-31","2017-05-06 23:12:17","2017-05-06 23:12:17"
2655,210649,"2015-01-01","2100-12-31","2017-01-31 19:28:18","2017-01-31 19:28:18"
2733,210649,"2015-01-01","2100-12-31","2016-08-27 14:54:51","2016-08-27 14:54:51"
2806,210649,"2015-01-01","2100-12-31","2016-08-27 14:54:51","2016-08-27 14:54:51"
3141,210649,"2015-01-01","2100-12-31","2016-12-29 04:12:52","2016-12-29 04:12:52"
2582,211099,"2015-01-01","2100-12-31","2016-08-27 14:54:58","2016-08-27 14:54:58"
2733,211099,"2015-01-01","2100-12-31","2016-08-27 14:54:58","2016-08-27 14:54:58"
2806,211099,"2015-01-01","2100-12-31","2016-08-27 14:54:59","2016-08-27 14:54:59"
3141,211099,"2015-01-01","2100-12-31","2016-12-29 04:13:10","2016-12-29 04:13:10"
2655,211283,"2015-01-01","2100-12-31","2017-02-01 01:32:32","2017-02-01 01:32:32"
2733,212191,"2015-01-01","2100-12-31","2016-08-27 14:55:19","2016-08-27 14:55:19"
2806,212191,"2015-01-01","2100-12-31","2016-08-27 14:55:19","2016-08-27 14:55:19"
3141,212191,"2015-01-01","2100-12-31","2016-12-29 04:13:53","2016-12-29 04:13:53"
1506,212967,"2015-01-01","2100-12-31","2016-12-29 04:14:26","2016-12-29 04:14:26"
3399,212967,"2015-01-01","2100-12-31","2016-12-30 23:46:33","2016-12-30 23:46:33"
2617,214396,"2015-01-01","2100-12-31","2016-08-27 14:55:55","2016-08-27 14:55:55"
2735,214396,"2015-01-01","2100-12-31","2016-08-27 14:55:53","2016-08-27 14:55:53"
3381,214396,"2015-01-01","2100-12-31","2016-12-30 23:47:33","2016-12-30 23:47:33"
3669,214396,"2015-01-01","2100-12-31","2017-05-26 17:31:35","2017-05-26 17:31:35"
2733,214686,"2015-01-01","2100-12-31","2016-08-29 07:47:03","2016-08-29 07:47:03"
2806,214686,"2015-01-01","2100-12-31","2016-08-29 07:47:03","2016-08-29 07:47:03"
3141,214686,"2015-01-01","2100-12-31","2016-12-29 04:15:36","2016-12-29 04:15:36"
2733,215715,"2015-01-01","2100-12-31","2016-08-27 14:56:21","2016-08-27 14:56:21"
2806,215715,"2015-01-01","2100-12-31","2016-08-27 14:56:20","2016-08-27 14:56:20"
3141,215715,"2015-01-01","2100-12-31","2016-12-29 04:16:21","2016-12-29 04:16:21"
3235,215715,"2015-01-01","2100-12-31","2017-09-27 00:25:27","2017-09-27 00:25:27"
1457,216096,"2015-01-01","2100-12-31","2016-08-27 14:56:27","2016-08-27 14:56:27"
2652,216096,"2015-01-01","2100-12-31","2016-08-27 14:56:28","2016-08-27 14:56:28"
3117,216096,"2015-01-01","2100-12-31","2016-12-29 04:16:38","2016-12-29 04:16:38"
3399,216096,"2015-01-01","2100-12-31","2016-12-30 23:48:49","2016-12-30 23:48:49"
2623,216810,"2015-01-01","2100-12-31","2016-08-27 14:56:39","2016-08-27 14:56:39"
2651,216810,"2015-01-01","2100-12-31","2016-08-27 14:56:40","2016-08-27 14:56:40"
3074,216810,"2015-01-01","2100-12-31","2016-12-29 04:17:08","2016-12-29 04:17:08"
3300,216810,"2015-01-01","2100-12-31","2016-12-30 23:49:20","2016-12-30 23:49:20"
2703,217964,"2015-01-01","2100-12-31","2016-08-27 14:57:01","2016-08-27 14:57:01"
2839,217964,"2015-01-01","2100-12-31","2016-08-27 14:56:59","2016-08-27 14:56:59"
3124,217964,"2015-01-01","2100-12-31","2016-12-29 04:17:55","2016-12-29 04:17:55"
3174,217964,"2015-01-01","2100-12-31","2016-12-29 04:17:55","2016-12-29 04:17:55"
2635,219436,"2015-01-01","2100-12-31","2017-04-21 23:59:00","2017-04-21 23:59:00"
3300,219436,"2015-01-01","2100-12-31","2016-12-30 23:51:09","2016-12-30 23:51:09"
2806,219491,"2015-01-01","2100-12-31","2016-08-27 14:57:27","2016-08-27 14:57:27"
3141,219491,"2015-01-01","2100-12-31","2016-12-29 04:19:00","2016-12-29 04:19:00"
2623,219664,"2015-01-01","2100-12-31","2016-08-29 16:43:20","2016-08-29 16:43:20"
2635,219664,"2015-01-01","2100-12-31","2017-04-21 23:59:09","2017-04-21 23:59:09"
3074,219664,"2015-01-01","2100-12-31","2016-12-29 04:19:07","2016-12-29 04:19:07"
3300,219664,"2015-01-01","2100-12-31","2016-12-30 23:51:17","2016-12-30 23:51:17"
2846,220189,"2015-01-01","2100-12-31","2016-08-27 14:57:46","2016-08-27 14:57:46"
2978,220189,"2015-01-01","2100-12-31","2016-12-22 22:59:47","2016-12-22 22:59:47"
3097,220189,"2015-01-01","2100-12-31","2016-12-29 04:19:29","2016-12-29 04:19:29"
2733,221364,"2015-01-01","2100-12-31","2016-08-27 14:58:16","2016-08-27 14:58:16"
2806,221364,"2015-01-01","2100-12-31","2016-08-27 14:58:18","2016-08-27 14:58:18"
3074,222228,"2015-01-01","2100-12-31","2016-12-29 04:20:41","2016-12-29 04:20:41"
3300,222228,"2015-01-01","2100-12-31","2016-12-30 23:52:50","2016-12-30 23:52:50"
2514,222934,"2015-01-01","2100-12-31","2016-10-19 22:45:20","2016-10-19 22:45:20"
2560,222934,"2015-01-01","2100-12-31","2016-08-27 14:59:05","2016-08-27 14:59:05"
2569,222934,"2015-01-01","2100-12-31","2016-08-27 14:58:59","2016-08-27 14:58:59"
2874,222934,"2015-01-01","2100-12-31","2016-08-31 21:28:46","2016-08-31 21:28:46"
2996,222934,"2015-01-01","2100-12-31","2016-12-29 04:21:09","2016-12-29 04:21:09"
3380,222934,"2015-01-01","2100-12-31","2016-12-30 23:53:18","2016-12-30 23:53:18"
3236,223588,"2015-01-01","2100-12-31","2016-12-30 23:53:47","2016-12-30 23:53:47"
3382,223588,"2015-01-01","2100-12-31","2016-12-30 23:53:47","2016-12-30 23:53:47"
1589,224533,"2015-01-01","2100-12-31","2016-12-30 23:54:35","2016-12-30 23:54:35"
2838,224533,"2015-01-01","2100-12-31","2016-08-27 14:59:25","2016-08-27 14:59:25"
3048,224533,"2015-01-01","2100-12-31","2016-12-29 04:22:25","2016-12-29 04:22:25"
2623,226310,"2015-01-01","2100-12-31","2016-08-29 16:54:24","2016-08-29 16:54:24"
2635,226310,"2015-01-01","2100-12-31","2016-08-29 16:55:26","2016-08-29 16:55:26"
2651,226310,"2015-01-01","2100-12-31","2016-08-29 16:54:42","2016-08-29 16:54:42"
3074,226310,"2015-01-01","2100-12-31","2016-12-29 04:24:12","2016-12-29 04:24:12"
3300,226310,"2015-01-01","2100-12-31","2017-05-03 22:01:16","2017-05-03 22:01:16"
3491,226310,"2015-01-01","2100-12-31","2017-02-15 19:30:45","2017-02-15 19:30:45"
2617,226388,"2015-01-01","2100-12-31","2016-08-29 07:53:14","2016-08-29 07:53:14"
2746,226388,"2015-01-01","2100-12-31","2016-08-29 07:53:17","2016-08-29 07:53:17"
3381,226388,"2015-01-01","2100-12-31","2016-12-30 23:56:29","2016-12-30 23:56:29"
3669,226388,"2015-01-01","2100-12-31","2017-05-26 17:31:37","2017-05-26 17:31:37"
2623,226481,"2015-01-01","2100-12-31","2016-08-27 15:00:16","2016-08-27 15:00:16"
2635,226481,"2015-01-01","2100-12-31","2016-08-27 15:00:20","2016-08-27 15:00:20"
2651,226481,"2015-01-01","2100-12-31","2016-08-27 15:00:24","2016-08-27 15:00:24"
3074,226481,"2015-01-01","2100-12-31","2016-12-29 04:24:21","2016-12-29 04:24:21"
3300,226481,"2015-01-01","2100-12-31","2016-12-30 23:56:35","2016-12-30 23:56:35"
3491,226481,"2015-01-01","2100-12-31","2017-02-15 19:30:45","2017-02-15 19:30:45"
2514,226531,"2015-01-01","2100-12-31","2016-08-27 15:00:15","2016-08-27 15:00:15"
2560,226531,"2015-01-01","2100-12-31","2016-08-27 15:00:13","2016-08-27 15:00:13"
2569,226531,"2015-01-01","2100-12-31","2016-08-27 15:00:09","2016-08-27 15:00:09"
2874,226531,"2015-01-01","2100-12-31","2016-08-31 21:30:59","2016-08-31 21:30:59"
2996,226531,"2015-01-01","2100-12-31","2016-12-29 04:24:24","2016-12-29 04:24:24"
3380,226531,"2015-01-01","2100-12-31","2016-12-30 23:56:38","2016-12-30 23:56:38"
2668,226587,"2015-01-01","2100-12-31","2016-11-04 23:18:24","2016-11-04 23:18:24"
2704,226587,"2015-01-01","2100-12-31","2016-08-27 15:00:10","2016-08-27 15:00:10"
2840,226587,"2015-01-01","2100-12-31","2016-11-04 23:18:24","2016-11-04 23:18:24"
3300,226587,"2015-01-01","2100-12-31","2016-12-30 23:56:41","2016-12-30 23:56:41"
3491,226587,"2015-01-01","2100-12-31","2017-02-15 19:30:46","2017-02-15 19:30:46"
2617,226669,"2015-01-01","2100-12-31","2016-08-27 15:00:26","2016-08-27 15:00:26"
2735,226669,"2015-01-01","2100-12-31","2016-08-27 15:00:21","2016-08-27 15:00:21"
2746,226669,"2015-01-01","2100-12-31","2016-08-27 15:00:30","2016-08-27 15:00:30"
3491,226669,"2015-01-01","2100-12-31","2017-04-27 23:33:12","2017-04-27 23:33:12"
3613,226669,"2015-01-01","2100-12-31","2017-03-04 19:49:39","2017-03-04 19:49:39"
3669,226669,"2015-01-01","2100-12-31","2017-05-26 17:31:37","2017-05-26 17:31:37"
2655,226737,"2015-01-01","2100-12-31","2017-01-31 19:34:45","2017-01-31 19:34:45"
2733,226737,"2015-01-01","2100-12-31","2016-08-27 15:00:25","2016-08-27 15:00:25"
2806,226737,"2015-01-01","2100-12-31","2016-08-27 15:00:24","2016-08-27 15:00:24"
3141,226737,"2015-01-01","2100-12-31","2016-12-29 04:24:33","2016-12-29 04:24:33"
2623,226858,"2015-01-01","2100-12-31","2016-08-29 16:55:30","2016-08-29 16:55:30"
2635,226858,"2015-01-01","2100-12-31","2016-08-29 16:55:37","2016-08-29 16:55:37"
3300,226858,"2015-01-01","2100-12-31","2016-12-30 23:56:54","2016-12-30 23:56:54"
2645,226945,"2015-01-01","2100-12-31","2016-08-27 15:00:29","2016-08-27 15:00:29"
2702,226945,"2015-01-01","2100-12-31","2016-08-27 15:00:26","2016-08-27 15:00:26"
2833,226945,"2015-01-01","2100-12-31","2016-08-27 15:00:28","2016-08-27 15:00:28"
3370,226945,"2015-01-01","2100-12-31","2016-12-30 23:56:58","2016-12-30 23:56:58"
2733,227000,"2015-01-01","2100-12-31","2016-08-29 07:53:35","2016-08-29 07:53:35"
2806,227000,"2015-01-01","2100-12-31","2016-08-29 07:53:31","2016-08-29 07:53:31"
3141,227000,"2015-01-01","2100-12-31","2016-12-29 04:24:44","2016-12-29 04:24:44"
2617,227117,"2015-01-01","2100-12-31","2016-08-27 15:00:32","2016-08-27 15:00:32"
2746,227117,"2015-01-01","2100-12-31","2016-08-27 15:00:27","2016-08-27 15:00:27"
3491,227117,"2015-01-01","2100-12-31","2017-02-15 19:30:48","2017-02-15 19:30:48"
3613,227117,"2015-01-01","2100-12-31","2017-03-04 19:49:42","2017-03-04 19:49:42"
3669,227117,"2015-01-01","2100-12-31","2017-05-26 17:31:38","2017-05-26 17:31:38"
2645,227136,"2015-01-01","2100-12-31","2016-08-27 15:00:28","2016-08-27 15:00:28"
2702,227136,"2015-01-01","2100-12-31","2016-08-27 15:00:29","2016-08-27 15:00:29"
2833,227136,"2015-01-01","2100-12-31","2016-08-27 15:00:23","2016-08-27 15:00:23"
3370,227136,"2015-01-01","2100-12-31","2016-12-30 23:57:07","2016-12-30 23:57:07"
2623,227198,"2015-01-01","2100-12-31","2016-08-29 16:55:54","2016-08-29 16:55:54"
2635,227198,"2015-01-01","2100-12-31","2016-08-29 16:55:06","2016-08-29 16:55:06"
2651,227198,"2015-01-01","2100-12-31","2016-08-29 16:55:49","2016-08-29 16:55:49"
3074,227198,"2015-01-01","2100-12-31","2016-12-29 04:24:52","2016-12-29 04:24:52"
3300,227198,"2015-01-01","2100-12-31","2016-12-30 23:57:09","2016-12-30 23:57:09"
3536,227198,"2015-01-01","2100-12-31","2017-02-16 00:07:59","2017-02-16 00:07:59"
2514,227301,"2015-01-01","2100-12-31","2016-08-29 16:55:59","2016-08-29 16:55:59"
2560,227301,"2015-01-01","2100-12-31","2016-08-29 16:55:17","2016-08-29 16:55:17"
2582,227301,"2015-01-01","2100-12-31","2016-08-29 16:55:45","2016-08-29 16:55:45"
2754,227301,"2015-01-01","2100-12-31","2016-08-29 16:55:58","2016-08-29 16:55:58"
2996,227301,"2015-01-01","2100-12-31","2016-12-29 04:24:57","2016-12-29 04:24:57"
3150,227301,"2015-01-01","2100-12-31","2016-12-29 04:24:57","2016-12-29 04:24:57"
2529,227520,"2015-01-01","2100-12-31","2016-08-27 15:00:39","2016-08-27 15:00:39"
2683,227520,"2015-01-01","2100-12-31","2016-08-27 15:00:30","2016-08-27 15:00:30"
2830,227520,"2015-01-01","2100-12-31","2016-08-27 15:00:34","2016-08-27 15:00:34"
3137,227520,"2015-01-01","2100-12-31","2016-12-29 04:25:04","2016-12-29 04:25:04"
3174,227520,"2015-01-01","2100-12-31","2016-12-29 04:25:04","2016-12-29 04:25:04"
2655,227564,"2015-01-01","2100-12-31","2017-01-31 19:35:05","2017-01-31 19:35:05"
2733,227564,"2015-01-01","2100-12-31","2016-08-29 16:55:15","2016-08-29 16:55:15"
2806,227564,"2015-01-01","2100-12-31","2016-08-29 16:55:37","2016-08-29 16:55:37"
3141,227564,"2015-01-01","2100-12-31","2016-12-29 04:25:05","2016-12-29 04:25:05"
2733,227604,"2015-01-01","2100-12-31","2016-08-29 07:53:41","2016-08-29 07:53:41"
2806,227604,"2015-01-01","2100-12-31","2016-08-29 07:53:36","2016-08-29 07:53:36"
3141,227604,"2015-01-01","2100-12-31","2016-12-29 04:25:06","2016-12-29 04:25:06"
2655,227741,"2015-01-01","2100-12-31","2017-02-01 01:41:27","2017-02-01 01:41:27"
2733,227741,"2015-01-01","2100-12-31","2016-08-29 16:55:23","2016-08-29 16:55:23"
2806,227741,"2015-01-01","2100-12-31","2016-08-29 16:55:03","2016-08-29 16:55:03"
3141,227741,"2015-01-01","2100-12-31","2016-12-29 04:25:11","2016-12-29 04:25:11"
2124,227747,"2015-01-01","2100-12-31","2016-11-04 23:18:51","2016-11-04 23:18:51"
2617,227747,"2015-01-01","2100-12-31","2016-08-27 15:00:36","2016-08-27 15:00:36"
2735,227747,"2015-01-01","2100-12-31","2016-08-27 15:00:31","2016-08-27 15:00:31"
2746,227747,"2015-01-01","2100-12-31","2016-08-27 15:00:40","2016-08-27 15:00:40"
3669,227747,"2015-01-01","2100-12-31","2017-05-26 17:31:38","2017-05-26 17:31:38"
2623,227947,"2015-01-01","2100-12-31","2016-08-29 07:53:37","2016-08-29 07:53:37"
2635,227947,"2015-01-01","2100-12-31","2016-08-29 07:53:49","2016-08-29 07:53:49"
3074,227947,"2015-01-01","2100-12-31","2016-12-29 04:25:19","2016-12-29 04:25:19"
3300,227947,"2015-01-01","2100-12-31","2016-12-30 23:57:38","2016-12-30 23:57:38"
2623,228078,"2015-01-01","2100-12-31","2016-08-27 15:00:37","2016-08-27 15:00:37"
2635,228078,"2015-01-01","2100-12-31","2016-08-27 15:00:39","2016-08-27 15:00:39"
2668,228078,"2015-01-01","2100-12-31","2016-08-27 15:00:36","2016-08-27 15:00:36"
2704,228078,"2015-01-01","2100-12-31","2016-08-27 15:00:44","2016-08-27 15:00:44"
3300,228078,"2015-01-01","2100-12-31","2016-12-30 23:57:43","2016-12-30 23:57:43"
3491,228078,"2015-01-01","2100-12-31","2017-02-15 19:30:51","2017-02-15 19:30:51"
2582,228103,"2015-01-01","2100-12-31","2017-05-06 23:16:27","2017-05-06 23:16:27"
2733,228103,"2015-01-01","2100-12-31","2016-08-27 15:00:38","2016-08-27 15:00:38"
2806,228103,"2015-01-01","2100-12-31","2016-08-27 15:00:37","2016-08-27 15:00:37"
3141,228103,"2015-01-01","2100-12-31","2016-12-29 04:25:25","2016-12-29 04:25:25"
2623,228198,"2015-01-01","2100-12-31","2016-08-29 07:53:50","2016-08-29 07:53:50"
2635,228198,"2015-01-01","2100-12-31","2016-08-29 07:53:57","2016-08-29 07:53:57"
3074,228198,"2015-01-01","2100-12-31","2016-12-29 04:25:28","2016-12-29 04:25:28"
3491,228198,"2015-01-01","2100-12-31","2017-02-15 19:30:51","2017-02-15 19:30:51"
2840,228313,"2015-01-01","2100-12-31","2017-10-30 21:06:43","2017-10-30 21:06:43"
2514,228475,"2015-01-01","2100-12-31","2017-04-22 00:04:42","2017-04-22 00:04:42"
2996,228475,"2015-01-01","2100-12-31","2016-12-29 04:25:40","2016-12-29 04:25:40"
2582,228849,"2015-01-01","2100-12-31","2016-08-27 15:00:47","2016-08-27 15:00:47"
2733,228849,"2015-01-01","2100-12-31","2016-08-27 15:00:42","2016-08-27 15:00:42"
2806,228849,"2015-01-01","2100-12-31","2016-08-27 15:00:48","2016-08-27 15:00:48"
3141,228849,"2015-01-01","2100-12-31","2016-12-29 04:25:52","2016-12-29 04:25:52"
2655,229209,"2015-01-01","2100-12-31","2017-10-04 00:24:05","2017-10-04 00:24:05"
2733,229209,"2015-01-01","2100-12-31","2016-11-04 23:19:12","2016-11-04 23:19:12"
3141,229209,"2015-01-01","2100-12-31","2016-12-29 04:26:06","2016-12-29 04:26:06"
2623,230094,"2015-01-01","2100-12-31","2017-05-09 23:35:43","2017-05-09 23:35:43"
2635,230094,"2015-01-01","2100-12-31","2017-05-09 23:35:44","2017-05-09 23:35:44"
3300,230094,"2015-01-01","2100-12-31","2017-10-31 22:50:25","2017-10-31 22:50:25"
2735,230497,"2015-01-01","2100-12-31","2016-08-27 15:01:01","2016-08-27 15:01:01"
2746,230497,"2015-01-01","2100-12-31","2016-08-27 15:01:12","2016-08-27 15:01:12"
3669,230497,"2015-01-01","2100-12-31","2017-05-26 17:31:39","2017-05-26 17:31:39"
2668,231095,"2015-01-01","2100-12-31","2017-05-05 22:06:14","2017-05-05 22:06:14"
3300,231095,"2015-01-01","2100-12-31","2016-12-30 23:59:40","2016-12-30 23:59:40"
2733,231757,"2015-01-01","2100-12-31","2016-08-29 16:58:16","2016-08-29 16:58:16"
2806,231757,"2015-01-01","2100-12-31","2016-08-29 16:57:25","2016-08-29 16:57:25"
3141,231757,"2015-01-01","2100-12-31","2016-12-29 04:27:42","2016-12-29 04:27:42"
1202,233628,"2015-01-01","2100-12-31","2017-11-03 21:39:40","2017-11-03 21:39:40"
2529,234669,"2015-01-01","2100-12-31","2016-08-27 15:02:01","2016-08-27 15:02:01"
2683,234669,"2015-01-01","2100-12-31","2016-08-27 15:02:08","2016-08-27 15:02:08"
2830,234669,"2015-01-01","2100-12-31","2016-08-27 15:01:58","2016-08-27 15:01:58"
3137,234669,"2015-01-01","2100-12-31","2016-12-29 04:29:39","2016-12-29 04:29:39"
3174,234669,"2015-01-01","2100-12-31","2016-12-29 04:29:39","2016-12-29 04:29:39"
2623,235040,"2015-01-01","2100-12-31","2016-08-29 16:59:43","2016-08-29 16:59:43"
2635,235040,"2015-01-01","2100-12-31","2017-10-24 21:48:29","2017-10-24 21:48:29"
3300,235040,"2015-01-01","2100-12-31","2016-12-31 00:02:19","2016-12-31 00:02:19"
2617,235471,"2015-01-01","2100-12-31","2016-08-29 07:57:46","2016-08-29 07:57:46"
2746,235471,"2015-01-01","2100-12-31","2016-08-29 07:57:44","2016-08-29 07:57:44"
3381,235471,"2015-01-01","2100-12-31","2016-12-31 00:02:37","2016-12-31 00:02:37"
3669,235471,"2015-01-01","2100-12-31","2017-05-26 17:31:40","2017-05-26 17:31:40"
2514,235655,"2015-01-01","2100-12-31","2016-08-29 16:59:55","2016-08-29 16:59:55"
2560,235655,"2015-01-01","2100-12-31","2016-08-29 16:59:43","2016-08-29 16:59:43"
2754,235655,"2015-01-01","2100-12-31","2016-08-29 16:59:10","2016-08-29 16:59:10"
2996,235655,"2015-01-01","2100-12-31","2016-12-29 04:30:18","2016-12-29 04:30:18"
3380,235655,"2015-01-01","2100-12-31","2016-12-31 00:02:45","2016-12-31 00:02:45"
2617,236296,"2015-01-01","2100-12-31","2016-08-29 07:57:55","2016-08-29 07:57:55"
2746,236296,"2015-01-01","2100-12-31","2016-08-29 07:58:05","2016-08-29 07:58:05"
3381,236296,"2015-01-01","2100-12-31","2016-12-31 00:03:12","2016-12-31 00:03:12"
3669,236296,"2015-01-01","2100-12-31","2017-05-26 17:31:40","2017-05-26 17:31:40"
2560,236950,"2015-01-01","2100-12-31","2016-08-27 15:02:27","2016-08-27 15:02:27"
2748,236950,"2015-01-01","2100-12-31","2016-08-27 15:02:31","2016-08-27 15:02:31"
2754,236950,"2015-01-01","2100-12-31","2016-08-27 15:02:33","2016-08-27 15:02:33"
2996,236950,"2015-01-01","2100-12-31","2016-12-29 04:31:05","2016-12-29 04:31:05"
3150,236950,"2015-01-01","2100-12-31","2016-12-29 04:31:05","2016-12-29 04:31:05"
2733,237965,"2015-01-01","2100-12-31","2016-08-29 07:58:12","2016-08-29 07:58:12"
2806,237965,"2015-01-01","2100-12-31","2016-08-29 07:58:45","2016-08-29 07:58:45"
2704,238979,"2015-01-01","2100-12-31","2016-08-27 15:03:04","2016-08-27 15:03:04"
2840,238979,"2015-01-01","2100-12-31","2016-08-27 15:03:09","2016-08-27 15:03:09"
3300,238979,"2015-01-01","2100-12-31","2016-12-31 00:04:47","2016-12-31 00:04:47"
2084,239172,"2015-01-01","2100-12-31","2017-05-02 22:09:18","2017-05-02 22:09:18"
2617,239172,"2015-01-01","2100-12-31","2016-08-27 15:03:04","2016-08-27 15:03:04"
2655,239172,"2015-01-01","2100-12-31","2017-10-16 23:07:47","2017-10-16 23:07:47"
2735,239172,"2015-01-01","2100-12-31","2016-08-27 15:02:58","2016-08-27 15:02:58"
2746,239172,"2015-01-01","2100-12-31","2016-08-27 15:02:54","2016-08-27 15:02:54"
3669,239172,"2015-01-01","2100-12-31","2017-05-26 17:31:41","2017-05-26 17:31:41"
2600,239344,"2015-01-01","2100-12-31","2016-08-29 08:00:37","2016-08-29 08:00:37"
3477,239589,"2015-01-01","2100-12-31","2017-02-08 19:20:34","2017-02-08 19:20:34"
3478,239589,"2015-01-01","2100-12-31","2017-02-08 19:20:34","2017-02-08 19:20:34"
3381,239855,"2015-01-01","2100-12-31","2016-12-31 00:05:23","2016-12-31 00:05:23"
3669,239855,"2015-01-01","2100-12-31","2017-05-26 17:31:41","2017-05-26 17:31:41"
2635,240988,"2015-01-01","2100-12-31","2016-08-27 15:03:42","2016-08-27 15:03:42"
3300,240988,"2015-01-01","2100-12-31","2016-12-31 00:06:01","2016-12-31 00:06:01"
3074,241217,"2015-01-01","2100-12-31","2016-12-29 04:33:31","2016-12-29 04:33:31"
3300,241217,"2015-01-01","2100-12-31","2016-12-31 00:06:09","2016-12-31 00:06:09"
2754,242654,"2015-01-01","2100-12-31","2017-10-04 22:19:33","2017-10-04 22:19:33"
3150,242654,"2015-01-01","2100-12-31","2016-12-29 04:34:14","2016-12-29 04:34:14"
2635,242667,"2015-01-01","2100-12-31","2017-05-06 23:19:16","2017-05-06 23:19:16"
3381,242667,"2015-01-01","2100-12-31","2017-02-03 00:53:38","2017-02-03 00:53:38"
2635,242686,"2015-01-01","2100-12-31","2016-10-20 22:44:41","2016-10-20 22:44:41"
2651,242686,"2015-01-01","2100-12-31","2016-08-27 15:04:11","2016-08-27 15:04:11"
2514,244767,"2015-01-01","2100-12-31","2016-08-29 08:01:58","2016-08-29 08:01:58"
2996,244767,"2015-01-01","2100-12-31","2016-12-29 04:35:02","2016-12-29 04:35:02"
3150,244767,"2015-01-01","2100-12-31","2016-12-29 04:35:02","2016-12-29 04:35:02"
2635,246956,"2015-01-01","2100-12-31","2016-08-27 15:05:29","2016-08-27 15:05:29"
2651,246956,"2015-01-01","2100-12-31","2016-08-27 15:05:24","2016-08-27 15:05:24"
3074,246956,"2015-01-01","2100-12-31","2016-12-29 04:35:56","2016-12-29 04:35:56"
3300,246956,"2015-01-01","2100-12-31","2016-12-31 00:08:39","2016-12-31 00:08:39"
3491,246956,"2015-01-01","2100-12-31","2017-02-15 19:31:47","2017-02-15 19:31:47"
1013,247363,"2015-01-01","2100-12-31","2016-11-04 23:25:43","2016-11-04 23:25:43"
2956,247363,"2015-01-01","2100-12-31","2016-11-14 19:16:17","2016-11-14 19:16:17"
3477,247363,"2015-01-01","2100-12-31","2017-02-08 19:20:49","2017-02-08 19:20:49"
3478,247363,"2015-01-01","2100-12-31","2017-02-08 19:20:49","2017-02-08 19:20:49"
2655,248972,"2015-01-01","2100-12-31","2017-06-14 22:53:49","2017-06-14 22:53:49"
2733,248972,"2015-01-01","2100-12-31","2016-08-27 15:05:51","2016-08-27 15:05:51"
2806,248972,"2015-01-01","2100-12-31","2016-08-27 15:05:56","2016-08-27 15:05:56"
3141,248972,"2015-01-01","2100-12-31","2016-12-29 04:37:06","2016-12-29 04:37:06"
2635,249898,"2015-01-01","2100-12-31","2016-10-20 22:45:55","2016-10-20 22:45:55"
2651,249898,"2015-01-01","2100-12-31","2016-08-29 08:04:04","2016-08-29 08:04:04"
3300,249898,"2015-01-01","2100-12-31","2017-05-09 23:39:39","2017-05-09 23:39:39"
3491,249898,"2015-01-01","2100-12-31","2017-02-15 19:31:56","2017-02-15 19:31:56"
1457,250728,"2015-01-01","2100-12-31","2016-08-27 15:06:14","2016-08-27 15:06:14"
2652,250728,"2015-01-01","2100-12-31","2016-08-27 15:06:08","2016-08-27 15:06:08"
3117,250728,"2015-01-01","2100-12-31","2016-12-29 04:37:44","2016-12-29 04:37:44"
3399,250728,"2015-01-01","2100-12-31","2016-12-31 00:10:30","2016-12-31 00:10:30"
2084,250824,"2015-01-01","2100-12-31","2017-10-26 22:52:59","2017-10-26 22:52:59"
2735,250824,"2015-01-01","2100-12-31","2016-08-29 08:04:03","2016-08-29 08:04:03"
2508,251364,"2015-01-01","2100-12-31","2016-08-27 15:06:26","2016-08-27 15:06:26"
2562,251364,"2015-01-01","2100-12-31","2017-01-10 01:59:24","2017-01-10 01:59:24"
2819,251364,"2015-01-01","2100-12-31","2016-08-27 15:06:20","2016-08-27 15:06:20"
3129,251364,"2015-01-01","2100-12-31","2016-12-29 04:37:58","2016-12-29 04:37:58"
2514,252270,"2015-01-01","2100-12-31","2016-08-29 08:04:40","2016-08-29 08:04:40"
3141,252270,"2015-01-01","2100-12-31","2016-12-29 04:38:19","2016-12-29 04:38:19"
2623,252516,"2015-01-01","2100-12-31","2016-08-31 21:42:36","2016-08-31 21:42:36"
2635,252516,"2015-01-01","2100-12-31","2016-08-27 15:06:41","2016-08-27 15:06:41"
3074,252516,"2015-01-01","2100-12-31","2016-12-29 04:38:25","2016-12-29 04:38:25"
2655,252733,"2015-01-01","2100-12-31","2017-10-07 21:39:57","2017-10-07 21:39:57"
2815,252733,"2015-01-01","2100-12-31","2016-08-29 08:04:49","2016-08-29 08:04:49"
2996,253633,"2015-01-01","2100-12-31","2016-12-29 04:38:44","2016-12-29 04:38:44"
2704,254233,"2015-01-01","2100-12-31","2016-08-27 15:06:52","2016-08-27 15:06:52"
2514,254406,"2015-01-01","2100-12-31","2016-08-27 15:06:46","2016-08-27 15:06:46"
2754,254406,"2015-01-01","2100-12-31","2016-10-21 22:50:15","2016-10-21 22:50:15"
2996,254406,"2015-01-01","2100-12-31","2016-12-29 04:38:57","2016-12-29 04:38:57"
3150,254406,"2015-01-01","2100-12-31","2016-12-29 04:38:57","2016-12-29 04:38:57"
2514,255021,"2015-01-01","2100-12-31","2016-08-27 15:06:59","2016-08-27 15:06:59"
2754,255021,"2015-01-01","2100-12-31","2016-08-27 15:06:59","2016-08-27 15:06:59"
2996,255021,"2015-01-01","2100-12-31","2016-12-29 04:39:08","2016-12-29 04:39:08"
3150,255021,"2015-01-01","2100-12-31","2016-12-29 04:39:08","2016-12-29 04:39:08"
2514,255033,"2015-01-01","2100-12-31","2016-08-27 15:07:02","2016-08-27 15:07:02"
2996,255033,"2015-01-01","2100-12-31","2017-10-16 23:09:41","2017-10-16 23:09:41"
3150,255033,"2015-01-01","2100-12-31","2016-12-29 04:39:08","2016-12-29 04:39:08"
2623,256015,"2015-01-01","2100-12-31","2016-08-27 15:07:11","2016-08-27 15:07:11"
2635,256015,"2015-01-01","2100-12-31","2017-04-22 00:17:24","2017-04-22 00:17:24"
3300,256015,"2015-01-01","2100-12-31","2017-07-21 22:35:37","2017-07-21 22:35:37"
3491,256015,"2015-01-01","2100-12-31","2017-02-15 19:32:07","2017-02-15 19:32:07"
3536,256015,"2015-01-01","2100-12-31","2017-04-22 00:17:24","2017-04-22 00:17:24"
2084,256865,"2015-01-01","2100-12-31","2017-10-26 22:54:41","2017-10-26 22:54:41"
2746,256865,"2015-01-01","2100-12-31","2016-08-29 08:05:34","2016-08-29 08:05:34"
2514,256873,"2015-01-01","2100-12-31","2016-08-27 15:07:22","2016-08-27 15:07:22"
2560,256873,"2015-01-01","2100-12-31","2016-08-27 15:07:16","2016-08-27 15:07:16"
2569,256873,"2015-01-01","2100-12-31","2016-08-27 15:07:25","2016-08-27 15:07:25"
2874,256873,"2015-01-01","2100-12-31","2016-08-31 21:43:49","2016-08-31 21:43:49"
3380,256873,"2015-01-01","2100-12-31","2016-12-31 00:12:21","2016-12-31 00:12:21"
2668,257532,"2015-01-01","2100-12-31","2017-10-30 21:10:21","2017-10-30 21:10:21"
2704,257532,"2015-01-01","2100-12-31","2017-10-26 22:54:42","2017-10-26 22:54:42"
2996,257532,"2015-01-01","2100-12-31","2016-12-29 04:39:49","2016-12-29 04:39:49"
3150,257532,"2015-01-01","2100-12-31","2016-12-29 04:39:49","2016-12-29 04:39:49"
2623,257811,"2015-01-01","2100-12-31","2016-08-27 15:07:14","2016-08-27 15:07:14"
2635,257811,"2015-01-01","2100-12-31","2016-08-27 15:07:19","2016-08-27 15:07:19"
3074,257811,"2015-01-01","2100-12-31","2016-12-29 04:39:56","2016-12-29 04:39:56"
2635,257972,"2015-01-01","2100-12-31","2017-05-02 22:13:10","2017-05-02 22:13:10"
3074,257972,"2015-01-01","2100-12-31","2017-11-01 22:22:12","2017-11-01 22:22:12"
3300,257972,"2015-01-01","2100-12-31","2017-07-21 22:36:34","2017-07-21 22:36:34"
2514,258910,"2015-01-01","2100-12-31","2016-08-29 08:05:57","2016-08-29 08:05:57"
2996,258910,"2015-01-01","2100-12-31","2016-12-29 04:40:12","2016-12-29 04:40:12"
3150,258910,"2015-01-01","2100-12-31","2016-12-29 04:40:12","2016-12-29 04:40:12"
2560,260205,"2015-01-01","2100-12-31","2016-08-29 08:06:05","2016-08-29 08:06:05"
2748,260205,"2015-01-01","2100-12-31","2016-08-29 08:06:09","2016-08-29 08:06:09"
2754,260205,"2015-01-01","2100-12-31","2016-08-29 08:05:36","2016-08-29 08:05:36"
2996,260205,"2015-01-01","2100-12-31","2016-12-29 04:40:29","2016-12-29 04:40:29"
3150,260205,"2015-01-01","2100-12-31","2016-12-29 04:40:29","2016-12-29 04:40:29"
2514,260348,"2015-01-01","2100-12-31","2016-08-29 08:06:10","2016-08-29 08:06:10"
2754,260348,"2015-01-01","2100-12-31","2017-05-02 22:13:28","2017-05-02 22:13:28"
2996,260348,"2015-01-01","2100-12-31","2016-12-29 04:40:29","2016-12-29 04:40:29"
2514,260349,"2015-01-01","2100-12-31","2017-05-05 22:12:24","2017-05-05 22:12:24"
2560,260349,"2015-01-01","2100-12-31","2017-05-01 21:45:26","2017-05-01 21:45:26"
2754,260349,"2015-01-01","2100-12-31","2017-10-30 21:10:36","2017-10-30 21:10:36"
2996,260349,"2015-01-01","2100-12-31","2016-12-29 04:40:29","2016-12-29 04:40:29"
2514,261450,"2015-01-01","2100-12-31","2016-08-27 15:07:43","2016-08-27 15:07:43"
2560,261450,"2015-01-01","2100-12-31","2017-05-02 22:13:31","2017-05-02 22:13:31"
2582,261450,"2015-01-01","2100-12-31","2017-05-06 23:21:40","2017-05-06 23:21:40"
2754,261450,"2015-01-01","2100-12-31","2016-10-21 22:51:10","2016-10-21 22:51:10"
2996,261450,"2015-01-01","2100-12-31","2016-12-29 04:40:37","2016-12-29 04:40:37"
3150,261450,"2015-01-01","2100-12-31","2016-12-29 04:40:37","2016-12-29 04:40:37"
2748,262491,"2015-01-01","2100-12-31","2016-11-04 23:29:08","2016-11-04 23:29:08"
2600,262790,"2015-01-01","2100-12-31","2016-08-29 08:05:56","2016-08-29 08:05:56"
3235,262790,"2015-01-01","2100-12-31","2016-12-31 00:13:30","2016-12-31 00:13:30"
2560,262960,"2015-01-01","2100-12-31","2017-10-16 23:10:07","2017-10-16 23:10:07"
2748,262960,"2015-01-01","2100-12-31","2017-10-17 23:27:53","2017-10-17 23:27:53"
3150,262960,"2015-01-01","2100-12-31","2016-12-29 04:40:53","2016-12-29 04:40:53"
2635,264642,"2015-01-01","2100-12-31","2017-09-28 22:35:22","2017-09-28 22:35:22"
2651,264642,"2015-01-01","2100-12-31","2017-09-28 22:35:17","2017-09-28 22:35:17"
3074,264642,"2015-01-01","2100-12-31","2017-05-02 22:13:46","2017-05-02 22:13:46"
3300,264642,"2015-01-01","2100-12-31","2017-03-23 00:33:53","2017-03-23 00:33:53"
2617,265235,"2015-01-01","2100-12-31","2017-10-18 23:29:29","2017-10-18 23:29:29"
2735,265235,"2015-01-01","2100-12-31","2017-10-18 23:29:28","2017-10-18 23:29:28"
3669,265235,"2015-01-01","2100-12-31","2017-05-26 17:31:44","2017-05-26 17:31:44"
2514,265238,"2015-01-01","2100-12-31","2017-04-26 22:26:24","2017-04-26 22:26:24"
2560,265238,"2015-01-01","2100-12-31","2017-05-01 21:45:41","2017-05-01 21:45:41"
2668,265316,"2015-01-01","2100-12-31","2017-10-30 21:10:48","2017-10-30 21:10:48"
2801,265316,"2015-01-01","2100-12-31","2017-05-05 22:12:39","2017-05-05 22:12:39"
2996,284116,"2015-01-01","2100-12-31","2016-12-29 04:34:06","2016-12-29 04:34:06"
2635,284557,"2015-01-01","2100-12-31","2017-02-02 01:33:42","2017-02-02 01:33:42"
3300,284557,"2015-01-01","2100-12-31","2016-12-31 00:13:55","2016-12-31 00:13:55"
3491,284557,"2015-01-01","2100-12-31","2017-04-11 02:01:36","2017-04-11 02:01:36"
3381,287203,"2015-01-01","2100-12-31","2016-12-31 00:08:40","2016-12-31 00:08:40"
3669,287203,"2015-01-01","2100-12-31","2017-05-26 17:31:42","2017-05-26 17:31:42"
2124,287820,"2015-01-01","2100-12-31","2017-05-03 22:09:26","2017-05-03 22:09:26"
2617,287820,"2015-01-01","2100-12-31","2017-10-12 21:58:38","2017-10-12 21:58:38"
2735,287820,"2015-01-01","2100-12-31","2017-05-04 22:31:04","2017-05-04 22:31:04"
2746,287820,"2015-01-01","2100-12-31","2017-10-25 23:20:53","2017-10-25 23:20:53"
3669,287820,"2015-01-01","2100-12-31","2017-05-26 17:31:44","2017-05-26 17:31:44"
2623,299865,"2015-01-01","2100-12-31","2016-10-21 22:50:38","2016-10-21 22:50:38"
2635,299865,"2015-01-01","2100-12-31","2017-10-30 21:10:22","2017-10-30 21:10:22"
3038,303017,"2015-01-01","2100-12-31","2016-12-29 04:16:29","2016-12-29 04:16:29"
2704,308891,"2015-01-01","2100-12-31","2016-11-04 23:28:21","2016-11-04 23:28:21"
3300,308891,"2015-01-01","2100-12-31","2017-05-03 22:09:28","2017-05-03 22:09:28"
2635,310325,"2015-01-01","2100-12-31","2017-09-28 22:36:07","2017-09-28 22:36:07"
2651,310325,"2015-01-01","2100-12-31","2017-09-28 22:36:05","2017-09-28 22:36:05"
3491,310325,"2015-01-01","2100-12-31","2017-05-01 21:45:46","2017-05-01 21:45:46"
2978,321680,"2015-01-01","2100-12-31","2016-12-22 22:59:38","2016-12-22 22:59:38"
3236,332392,"2015-01-01","2100-12-31","2016-12-30 23:46:13","2016-12-30 23:46:13"
1414,334148,"2015-01-01","2100-12-31","2016-12-29 04:15:52","2016-12-29 04:15:52"
1506,334413,"2015-01-01","2100-12-31","2016-12-29 04:16:11","2016-12-29 04:16:11"
3399,334413,"2015-01-01","2100-12-31","2016-12-30 23:48:23","2016-12-30 23:48:23"
1506,334872,"2015-01-01","2100-12-31","2016-12-29 04:16:42","2016-12-29 04:16:42"
3399,334872,"2015-01-01","2100-12-31","2016-12-30 23:48:54","2016-12-30 23:48:54"
1506,335138,"2015-01-01","2100-12-31","2016-12-29 04:17:01","2016-12-29 04:17:01"
3399,335138,"2015-01-01","2100-12-31","2016-12-30 23:49:13","2016-12-30 23:49:13"
3174,335318,"2015-01-01","2100-12-31","2016-12-29 04:17:12","2016-12-29 04:17:12"
3129,335696,"2015-01-01","2100-12-31","2016-12-29 04:17:37","2016-12-29 04:17:37"
1506,336020,"2015-01-01","2100-12-31","2016-12-29 04:18:00","2016-12-29 04:18:00"
3399,336020,"2015-01-01","2100-12-31","2016-12-30 23:50:12","2016-12-30 23:50:12"
3093,337081,"2015-01-01","2100-12-31","2016-12-29 04:19:24","2016-12-29 04:19:24"
3326,337081,"2015-01-01","2100-12-31","2016-12-30 23:51:32","2016-12-30 23:51:32"
3117,337270,"2015-01-01","2100-12-31","2016-12-29 04:19:35","2016-12-29 04:19:35"
3348,337270,"2015-01-01","2100-12-31","2016-12-30 23:51:44","2016-12-30 23:51:44"
1303,338004,"2015-01-01","2100-12-31","2016-12-29 04:20:37","2016-12-29 04:20:37"
3399,338004,"2015-01-01","2100-12-31","2016-12-30 23:52:46","2016-12-30 23:52:46"
3129,338606,"2015-01-01","2100-12-31","2016-12-29 04:21:24","2016-12-29 04:21:24"
3205,338606,"2015-01-01","2100-12-31","2016-12-30 23:53:32","2016-12-30 23:53:32"
1506,338640,"2015-01-01","2100-12-31","2016-12-29 04:21:27","2016-12-29 04:21:27"
3399,338640,"2015-01-01","2100-12-31","2016-12-30 23:53:34","2016-12-30 23:53:34"
2996,338744,"2015-01-01","2100-12-31","2016-12-29 04:21:34","2016-12-29 04:21:34"
2996,341133,"2015-01-01","2100-12-31","2016-12-29 04:24:19","2016-12-29 04:24:19"
3124,341142,"2015-01-01","2100-12-31","2016-12-29 04:24:20","2016-12-29 04:24:20"
3236,341142,"2015-01-01","2100-12-31","2016-12-30 23:56:34","2016-12-30 23:56:34"
1414,343998,"2015-01-01","2100-12-31","2016-12-29 04:27:19","2016-12-29 04:27:19"
3236,344860,"2015-01-01","2100-12-31","2016-12-31 00:00:49","2016-12-31 00:00:49"
1506,345652,"2015-01-01","2100-12-31","2016-12-29 04:29:24","2016-12-29 04:29:24"
3399,345652,"2015-01-01","2100-12-31","2016-12-31 00:01:51","2016-12-31 00:01:51"
3023,346618,"2015-01-01","2100-12-31","2016-12-29 04:30:25","2016-12-29 04:30:25"
3179,346618,"2015-01-01","2100-12-31","2016-12-29 04:30:26","2016-12-29 04:30:26"
1506,347290,"2015-01-01","2100-12-31","2016-12-29 04:31:02","2016-12-29 04:31:02"
3399,347290,"2015-01-01","2100-12-31","2016-12-31 00:03:32","2016-12-31 00:03:32"
3141,348804,"2015-01-01","2100-12-31","2016-12-29 04:32:20","2016-12-29 04:32:20"
2996,349892,"2015-01-01","2100-12-31","2016-12-29 04:33:15","2016-12-29 04:33:15"
3150,349892,"2015-01-01","2100-12-31","2016-12-29 04:33:15","2016-12-29 04:33:15"
1574,352417,"2015-01-01","2100-12-31","2016-12-29 04:34:56","2016-12-29 04:34:56"
3236,352417,"2015-01-01","2100-12-31","2016-12-31 00:07:37","2016-12-31 00:07:37"
3129,353324,"2015-01-01","2100-12-31","2016-12-29 04:35:29","2016-12-29 04:35:29"
3205,353324,"2015-01-01","2100-12-31","2016-12-31 00:08:12","2016-12-31 00:08:12"
2996,354389,"2015-01-01","2100-12-31","2016-12-29 04:36:17","2016-12-29 04:36:17"
3129,357394,"2015-01-01","2100-12-31","2016-12-29 04:38:21","2016-12-29 04:38:21"
3236,357595,"2015-01-01","2100-12-31","2016-12-31 00:11:11","2016-12-31 00:11:11"
3141,360341,"2015-01-01","2100-12-31","2016-12-29 04:39:48","2016-12-29 04:39:48"
3235,360341,"2015-01-01","2100-12-31","2016-12-31 00:12:30","2016-12-31 00:12:30"
2996,361316,"2015-01-01","2100-12-31","2016-12-29 04:40:15","2016-12-29 04:40:15"
3150,361316,"2015-01-01","2100-12-31","2016-12-29 04:40:15","2016-12-29 04:40:15"
2996,363255,"2015-01-01","2100-12-31","2016-12-29 04:41:02","2016-12-29 04:41:02"
3150,363255,"2015-01-01","2100-12-31","2016-12-29 04:41:02","2016-12-29 04:41:02"
3235,364234,"2015-01-01","2100-12-31","2017-10-26 22:03:11","2017-10-26 22:03:11"
3236,364607,"2015-01-01","2100-12-31","2016-12-30 23:43:28","2016-12-30 23:43:28"
3236,365191,"2015-01-01","2100-12-31","2016-12-30 23:43:55","2016-12-30 23:43:55"
3236,365568,"2015-01-01","2100-12-31","2016-12-30 23:44:23","2016-12-30 23:44:23"
3236,365899,"2015-01-01","2100-12-31","2016-12-30 23:44:52","2016-12-30 23:44:52"
3236,367274,"2015-01-01","2100-12-31","2016-12-30 23:46:48","2016-12-30 23:46:48"
3236,367440,"2015-01-01","2100-12-31","2016-12-30 23:47:02","2016-12-30 23:47:02"
3236,369154,"2015-01-01","2100-12-31","2016-12-30 23:49:44","2016-12-30 23:49:44"
3382,369154,"2015-01-01","2100-12-31","2016-12-30 23:49:45","2016-12-30 23:49:45"
3236,370993,"2015-01-01","2100-12-31","2016-12-30 23:53:09","2016-12-30 23:53:09"
3235,371577,"2015-01-01","2100-12-31","2016-12-30 23:54:03","2016-12-30 23:54:03"
3236,371577,"2015-01-01","2100-12-31","2016-12-30 23:54:03","2016-12-30 23:54:03"
3236,371595,"2015-01-01","2100-12-31","2016-12-30 23:54:05","2016-12-30 23:54:05"
3236,372901,"2015-01-01","2100-12-31","2016-12-30 23:56:25","2016-12-30 23:56:25"
3236,372926,"2015-01-01","2100-12-31","2016-12-30 23:56:29","2016-12-30 23:56:29"
3235,372932,"2015-01-01","2100-12-31","2016-12-30 23:56:29","2016-12-30 23:56:29"
3236,372943,"2015-01-01","2100-12-31","2016-12-30 23:56:32","2016-12-30 23:56:32"
3236,373130,"2015-01-01","2100-12-31","2016-12-30 23:56:56","2016-12-30 23:56:56"
3236,373580,"2015-01-01","2100-12-31","2016-12-30 23:57:38","2016-12-30 23:57:38"
3236,373650,"2015-01-01","2100-12-31","2016-12-30 23:57:44","2016-12-30 23:57:44"
3235,374736,"2015-01-01","2100-12-31","2016-12-30 23:59:19","2016-12-30 23:59:19"
3236,375319,"2015-01-01","2100-12-31","2016-12-31 00:00:24","2016-12-31 00:00:24"
3236,375467,"2015-01-01","2100-12-31","2016-12-31 00:00:38","2016-12-31 00:00:38"
3236,375797,"2015-01-01","2100-12-31","2016-12-31 00:01:12","2016-12-31 00:01:12"
3236,376337,"2015-01-01","2100-12-31","2016-12-31 00:02:02","2016-12-31 00:02:02"
3381,377572,"2015-01-01","2100-12-31","2017-02-03 00:52:17","2017-02-03 00:52:17"
3236,378070,"2015-01-01","2100-12-31","2016-12-31 00:04:18","2016-12-31 00:04:18"
3382,378070,"2015-01-01","2100-12-31","2016-12-31 00:04:18","2016-12-31 00:04:18"
3236,378291,"2015-01-01","2100-12-31","2016-12-31 00:04:34","2016-12-31 00:04:34"
3381,378412,"2015-01-01","2100-12-31","2017-02-03 00:52:45","2017-02-03 00:52:45"
3235,378791,"2015-01-01","2100-12-31","2016-12-31 00:05:06","2016-12-31 00:05:06"
3236,378867,"2015-01-01","2100-12-31","2016-12-31 00:05:12","2016-12-31 00:05:12"
3235,379212,"2015-01-01","2100-12-31","2016-12-31 00:05:36","2016-12-31 00:05:36"
3235,379401,"2015-01-01","2100-12-31","2016-12-31 00:05:48","2016-12-31 00:05:48"
3235,380294,"2015-01-01","2100-12-31","2016-12-31 00:06:45","2016-12-31 00:06:45"
3236,380418,"2015-01-01","2100-12-31","2016-12-31 00:06:52","2016-12-31 00:06:52"
3242,380925,"2015-01-01","2100-12-31","2016-12-31 00:07:13","2016-12-31 00:07:13"
3236,383391,"2015-01-01","2100-12-31","2016-12-31 00:09:32","2016-12-31 00:09:32"
3236,383508,"2015-01-01","2100-12-31","2016-12-31 00:09:45","2016-12-31 00:09:45"
3236,383555,"2015-01-01","2100-12-31","2016-12-31 00:09:48","2016-12-31 00:09:48"
3236,383559,"2015-01-01","2100-12-31","2016-12-31 00:09:48","2016-12-31 00:09:48"
3382,383559,"2015-01-01","2100-12-31","2016-12-31 00:09:48","2016-12-31 00:09:48"
3236,384790,"2015-01-01","2100-12-31","2016-12-31 00:10:32","2016-12-31 00:10:32"
3236,386596,"2015-01-01","2100-12-31","2016-12-31 00:11:34","2016-12-31 00:11:34"
3236,386820,"2015-01-01","2100-12-31","2016-12-31 00:11:41","2016-12-31 00:11:41"
3236,391908,"2015-01-01","2100-12-31","2017-11-03 21:49:00","2017-11-03 21:49:00"
3236,391950,"2015-01-01","2100-12-31","2016-12-31 00:13:53","2016-12-31 00:13:53"
2623,437737,"2015-01-01","2100-12-31","2017-10-25 23:21:57","2017-10-25 23:21:57"
2635,437737,"2015-01-01","2100-12-31","2017-09-28 22:35:48","2017-09-28 22:35:48"
2635,439997,"2015-01-01","2100-12-31","2017-09-28 22:29:25","2017-09-28 22:29:25"
3074,439997,"2015-01-01","2100-12-31","2017-11-01 22:20:22","2017-11-01 22:20:22"
3491,442273,"2015-01-01","2100-12-31","2017-08-01 21:37:30","2017-08-01 21:37:30"
3300,449729,"2015-01-01","2100-12-31","2017-04-22 00:18:35","2017-04-22 00:18:35"
3491,449729,"2015-01-01","2100-12-31","2017-05-05 22:12:23","2017-05-05 22:12:23"
