"strategyTargetId","targetsPeriodId","targetingLevelId","facilityId","accountGroupId","accountId","repTeamId","repId","productId","messageTopicId","messageId","interactionTypeId","productInteractionTypeId","target","targetMin","targetMax","visitActionOrderMin","visitActionOrderMax","relativeValue","createdAt","updatedAt"
81826,4,6,NA,NA,1007,1001,NA,1001,NA,NA,4,6,2,NA,NA,NA,NA,NA,"2015-11-18 00:30:12","2015-12-19 13:54:01"
85820,5,5,NA,NA,1007,NA,NA,1001,NA,NA,5,5,6,NA,NA,NA,NA,NA,"2015-11-18 00:30:55","2016-01-13 06:51:30"
101188,5,6,NA,NA,1007,1001,NA,1001,NA,NA,4,6,3,NA,NA,NA,NA,NA,"2016-01-04 18:13:36","2016-01-29 19:05:59"
1413705,7,6,NA,NA,1007,1001,NA,1001,NA,NA,4,6,3,NA,NA,NA,NA,NA,"2016-06-29 14:03:35","2016-06-29 14:03:35"
1493264,6,6,NA,NA,1007,1001,NA,1001,NA,NA,4,6,3,NA,NA,NA,NA,NA,"2016-06-29 14:13:32","2016-06-29 14:13:32"
1542102,7,6,NA,NA,1007,1004,NA,1003,NA,NA,4,6,12,NA,NA,NA,NA,NA,"2016-06-29 14:19:58","2016-06-29 14:19:58"
1633761,6,6,NA,NA,1007,1004,NA,1003,NA,NA,4,6,12,NA,NA,NA,NA,NA,"2016-06-29 14:31:02","2016-06-29 14:31:02"
1756993,6,5,NA,NA,1007,NA,NA,1001,NA,NA,5,5,6,NA,NA,NA,NA,NA,"2016-06-29 14:48:09","2016-06-29 14:48:09"
1781603,7,5,NA,NA,1007,NA,NA,1001,NA,NA,5,5,6,NA,NA,NA,NA,NA,"2016-06-29 17:42:30","2016-10-06 19:48:12"
2123529,8,6,NA,NA,1007,1001,NA,1001,NA,NA,4,6,3,NA,NA,NA,NA,NA,"2016-10-05 23:04:22","2016-10-05 23:04:22"
2244036,8,6,NA,NA,1007,1004,NA,1003,NA,NA,4,6,12,NA,NA,NA,NA,NA,"2016-10-06 02:32:39","2016-10-06 02:32:39"
2285220,8,5,NA,NA,1007,NA,NA,1001,NA,NA,5,5,6,NA,NA,NA,NA,NA,"2016-10-07 00:18:45","2016-10-07 00:18:45"
5602941,9,6,NA,NA,1007,1001,NA,1001,NA,NA,4,6,3,NA,NA,NA,NA,NA,"2017-01-18 23:31:48","2017-01-18 23:31:48"
5719485,9,6,NA,NA,1007,1004,NA,1001,NA,NA,4,6,9,NA,NA,NA,NA,NA,"2017-01-18 23:46:56","2017-01-18 23:46:56"
6145494,9,6,NA,NA,1007,1004,NA,1003,NA,NA,4,6,12,NA,NA,NA,NA,NA,"2017-01-19 01:30:16","2017-01-19 01:30:16"
6679310,9,5,NA,NA,1007,NA,NA,1001,NA,NA,5,5,4,NA,NA,NA,NA,NA,"2017-03-02 18:54:34","2017-03-02 18:54:34"
9878403,10,5,NA,NA,1007,NA,NA,1001,NA,NA,5,5,4,NA,NA,NA,NA,NA,"2017-04-28 19:39:23","2017-04-28 19:39:23"
9934401,10,6,NA,NA,1007,1004,NA,1003,NA,NA,4,6,12,NA,NA,NA,NA,NA,"2017-04-28 19:46:32","2017-04-28 19:46:32"
9934478,10,6,NA,NA,1007,1004,NA,1001,NA,NA,4,6,9,NA,NA,NA,NA,NA,"2017-04-28 19:46:32","2017-04-28 19:46:32"
9936010,10,6,NA,NA,1007,1001,NA,1001,NA,NA,4,6,3,NA,NA,NA,NA,NA,"2017-04-28 19:46:45","2017-04-28 19:46:45"
12260956,11,6,NA,NA,1007,1001,NA,1001,NA,NA,4,6,3,NA,NA,NA,NA,NA,"2017-07-12 14:21:17","2017-07-12 14:21:17"
12294503,11,6,NA,NA,1007,1004,NA,1001,NA,NA,4,6,9,NA,NA,NA,NA,NA,"2017-07-12 14:28:19","2017-07-12 14:28:19"
12738231,11,6,NA,NA,1007,1004,NA,1003,NA,NA,4,6,12,NA,NA,NA,NA,NA,"2017-07-12 15:34:38","2017-07-12 15:34:38"
13309299,11,5,NA,NA,1007,NA,NA,1001,NA,NA,5,5,4,NA,NA,NA,NA,NA,"2017-07-12 17:08:29","2017-07-12 17:08:29"
13498727,11,5,NA,NA,1007,1004,NA,1003,NA,NA,5,5,2,NA,NA,NA,NA,NA,"2017-09-16 02:37:55","2017-09-28 17:21:37"
16240447,12,6,NA,NA,1007,1001,NA,1001,NA,NA,4,6,3,NA,NA,NA,NA,NA,"2017-10-16 17:28:20","2017-10-16 17:28:20"
16405095,12,6,NA,NA,1007,1004,NA,1001,NA,NA,4,6,9,NA,NA,NA,NA,NA,"2017-10-16 17:52:22","2017-10-16 17:52:22"
16849949,12,6,NA,NA,1007,1004,NA,1003,NA,NA,4,6,12,NA,NA,NA,NA,NA,"2017-10-16 19:01:08","2017-10-16 19:01:08"
17417516,12,5,NA,NA,1007,1004,NA,1003,NA,NA,5,5,12,NA,NA,NA,NA,NA,"2017-10-16 20:30:59","2017-10-16 20:30:59"
17443101,12,5,NA,NA,1007,NA,NA,1001,NA,NA,5,5,4,NA,NA,NA,NA,NA,"2017-10-16 20:38:50","2017-10-16 20:38:50"
17534207,14,6,NA,NA,1007,1001,NA,1001,NA,NA,4,6,3,NA,NA,NA,NA,NA,"2018-06-02 00:01:52","2018-06-02 00:01:52"
17698855,14,6,NA,NA,1007,1004,NA,1001,NA,NA,4,6,9,NA,NA,NA,NA,NA,"2018-06-02 00:01:52","2018-06-02 00:01:52"
18143709,14,6,NA,NA,1007,1004,NA,1003,NA,NA,4,6,12,NA,NA,NA,NA,NA,"2018-06-02 00:01:52","2018-06-02 00:01:52"
18711276,14,5,NA,NA,1007,1004,NA,1003,NA,NA,5,5,12,NA,NA,NA,NA,NA,"2018-06-02 00:01:52","2018-06-02 00:01:52"
18736861,14,5,NA,NA,1007,NA,NA,1001,NA,NA,5,5,4,NA,NA,NA,NA,NA,"2018-06-02 00:01:52","2018-06-02 00:01:52"
