"repTeamId","repId","createdAt","updatedAt"
1002,1013,"2015-11-12 18:40:49","2015-11-12 18:40:49"
1004,1094,"2016-06-08 16:28:14","2016-06-08 16:28:14"
1004,2956,"2017-08-02 16:42:48","2017-08-02 16:42:48"
1001,3477,"2017-08-02 16:43:11","2017-08-02 16:43:11"
1001,3478,"2017-08-02 16:43:11","2017-08-02 16:43:11"
1001,1307,"2016-01-27 20:51:02","2016-01-27 20:51:02"
1004,1070,"2016-06-08 16:28:24","2016-06-08 16:28:24"
1001,1928,"2016-01-27 20:51:02","2016-01-27 20:51:02"
1004,2673,"2016-06-08 16:28:21","2016-06-08 16:28:21"
1004,1662,"2016-06-08 16:28:30","2016-06-08 16:28:30"
1004,1532,"2016-01-19 22:28:42","2016-01-19 22:28:42"
1001,1730,"2017-08-02 16:42:52","2017-08-02 16:42:52"
1004,3468,"2017-08-02 16:43:10","2017-08-02 16:43:10"
1001,1007,"2015-11-12 18:40:48","2015-11-12 18:40:48"
1001,1096,"2016-01-27 20:51:02","2016-01-27 20:51:02"
1004,1386,"2016-06-02 22:41:51","2016-06-02 22:41:51"
1002,1621,"2016-01-27 20:51:01","2016-01-27 20:51:01"
1004,1814,"2016-06-02 22:41:59","2016-06-02 22:41:59"
1004,3438,"2017-08-02 16:43:09","2017-08-02 16:43:09"
1004,1968,"2016-01-19 22:28:36","2016-01-19 22:28:36"
1004,1992,"2016-01-19 22:28:37","2016-01-19 22:28:37"
1004,2057,"2016-01-27 20:51:03","2016-01-27 20:51:03"
1002,2078,"2016-01-27 20:51:01","2016-01-27 20:51:01"
1001,3040,"2017-08-02 16:42:51","2017-08-02 16:42:51"
1004,1967,"2016-01-19 22:28:35","2016-01-19 22:28:35"
1004,2011,"2016-01-19 22:28:39","2016-01-19 22:28:39"
1004,1985,"2016-01-19 22:28:37","2016-01-19 22:28:37"
1001,3184,"2017-08-02 16:42:58","2017-08-02 16:42:58"
1001,3261,"2017-08-02 16:43:01","2017-08-02 16:43:01"
1001,3483,"2017-08-02 16:43:11","2017-08-02 16:43:11"
1004,2668,"2016-06-08 16:28:20","2016-06-08 16:28:20"
1001,3300,"2017-08-02 16:43:03","2017-08-02 16:43:03"
1002,3491,"2017-08-02 16:43:11","2017-08-02 16:43:11"
1002,2084,"2016-01-27 20:51:01","2016-01-27 20:51:01"
1004,2617,"2016-06-08 16:28:17","2016-06-08 16:28:17"
1004,2746,"2016-06-08 16:28:28","2016-06-08 16:28:28"
1002,2064,"2016-01-27 20:51:00","2016-01-27 20:51:00"
1004,2357,"2016-06-02 22:41:56","2016-06-02 22:41:56"
1004,2464,"2016-06-02 22:42:03","2016-06-02 22:42:03"
1001,3027,"2017-08-02 16:42:51","2017-08-02 16:42:51"
1004,2635,"2016-06-08 16:28:18","2016-06-08 16:28:18"
1004,2651,"2016-06-08 16:28:19","2016-06-08 16:28:19"
1001,3074,"2017-08-02 16:42:53","2017-08-02 16:42:53"
1001,2206,"2016-01-27 20:51:02","2016-01-27 20:51:02"
1001,2209,"2016-01-27 20:51:03","2016-01-27 20:51:03"
1004,3459,"2017-08-02 16:43:10","2017-08-02 16:43:10"
1004,2735,"2016-06-08 16:28:27","2016-06-08 16:28:27"
1001,3381,"2017-08-02 16:43:07","2017-08-02 16:43:07"
1001,3669,"2017-08-02 16:43:19","2017-08-02 16:43:19"
1004,2652,"2016-06-08 16:28:19","2016-06-08 16:28:19"
1004,2786,"2016-06-08 16:28:30","2016-06-08 16:28:30"
1001,3348,"2017-08-02 16:43:05","2017-08-02 16:43:05"
1004,2801,"2016-06-08 16:28:31","2016-06-08 16:28:31"
1001,1370,"2017-08-02 16:43:02","2017-08-02 16:43:02"
1001,1881,"2017-08-02 16:42:58","2017-08-02 16:42:58"
1002,3489,"2017-08-02 16:43:11","2017-08-02 16:43:11"
1004,1158,"2016-06-08 16:28:18","2016-06-08 16:28:18"
1004,2897,"2017-08-02 16:42:45","2017-08-02 16:42:45"
1001,3250,"2017-08-02 16:43:01","2017-08-02 16:43:01"
1002,2097,"2016-01-27 20:51:01","2016-01-27 20:51:01"
1001,1318,"2016-01-27 20:51:02","2016-01-27 20:51:02"
1004,1438,"2016-06-02 22:42:02","2016-06-02 22:42:02"
1004,1501,"2016-06-02 22:41:54","2016-06-02 22:41:54"
1004,1787,"2016-06-02 22:41:54","2016-06-02 22:41:54"
1004,2623,"2016-06-08 16:28:17","2016-06-08 16:28:17"
1003,1760,"2016-01-27 20:51:03","2016-01-27 20:51:03"
1004,2619,"2016-06-08 16:28:17","2016-06-08 16:28:17"
1004,2723,"2016-06-08 16:28:26","2016-06-08 16:28:26"
1004,2770,"2016-06-08 16:28:29","2016-06-08 16:28:29"
1001,3135,"2017-08-02 16:42:56","2017-08-02 16:42:56"
1001,3365,"2017-08-02 16:43:06","2017-08-02 16:43:06"
1004,1118,"2016-06-08 16:28:12","2016-06-08 16:28:12"
1002,1669,"2016-01-27 20:51:01","2016-01-27 20:51:01"
1004,2902,"2017-08-02 16:42:45","2017-08-02 16:42:45"
1004,2704,"2016-06-08 16:28:24","2016-06-08 16:28:24"
1004,3630,"2017-08-02 16:43:18","2017-08-02 16:43:18"
1004,2840,"2016-06-08 16:28:33","2016-06-08 16:28:33"
1002,2082,"2016-01-27 20:51:00","2016-01-27 20:51:00"
1004,1172,"2016-06-08 16:28:11","2016-06-08 16:28:11"
1002,1478,"2016-01-27 20:51:01","2016-01-27 20:51:01"
1004,1803,"2016-06-08 16:28:30","2016-06-08 16:28:30"
1007,3530,"2017-08-02 16:43:13","2017-08-02 16:43:13"
1001,3696,"2017-08-02 16:43:20","2017-08-02 16:43:20"
1007,3578,"2017-08-02 16:43:15","2017-08-02 16:43:15"
1002,2079,"2016-01-27 20:51:01","2016-01-27 20:51:01"
1004,2365,"2016-06-02 22:41:57","2016-06-02 22:41:57"
1004,2447,"2016-06-02 22:42:02","2016-06-02 22:42:02"
1001,3073,"2017-08-02 16:42:53","2017-08-02 16:42:53"
1001,3298,"2017-08-02 16:43:03","2017-08-02 16:43:03"
1007,3564,"2017-08-02 16:43:14","2017-08-02 16:43:14"
1004,1110,"2016-06-02 22:41:52","2016-06-02 22:41:52"
1001,1002,"2015-11-12 18:40:48","2015-11-12 18:40:48"
1004,2774,"2016-06-08 16:28:29","2016-06-08 16:28:29"
1001,3129,"2017-08-02 16:42:56","2017-08-02 16:42:56"
1002,2124,"2016-01-27 20:51:01","2016-01-27 20:51:01"
1002,1151,"2017-08-02 16:42:29","2017-08-02 16:42:29"
1004,2599,"2016-06-08 16:28:16","2016-06-08 16:28:16"
1002,2085,"2016-01-27 20:51:01","2016-01-27 20:51:01"
1004,2314,"2016-06-02 22:41:53","2016-06-02 22:41:53"
1002,2088,"2016-01-27 20:51:01","2016-01-27 20:51:01"
1001,3332,"2017-08-02 16:43:05","2017-08-02 16:43:05"
1004,1311,"2016-06-08 16:28:20","2016-06-08 16:28:20"
1001,1383,"2016-01-27 20:51:02","2016-01-27 20:51:02"
1001,1620,"2016-01-27 20:51:03","2016-01-27 20:51:03"
1004,2705,"2016-06-08 16:28:24","2016-06-08 16:28:24"
1001,2083,"2017-08-02 16:42:01","2017-08-02 16:42:01"
1004,2643,"2016-06-08 16:28:19","2016-06-08 16:28:19"
1002,2222,"2016-03-01 03:24:58","2016-03-01 03:24:58"
1002,2089,"2016-01-27 20:51:01","2016-01-27 20:51:01"
1004,2776,"2016-06-08 16:28:29","2016-06-08 16:28:29"
1004,2807,"2016-06-08 16:28:31","2016-06-08 16:28:31"
1001,3080,"2017-08-02 16:42:53","2017-08-02 16:42:53"
1001,3410,"2017-08-02 16:43:08","2017-08-02 16:43:08"
1007,3524,"2017-08-02 16:43:13","2017-08-02 16:43:13"
1001,1506,"2017-08-02 16:42:57","2017-08-02 16:42:57"
1001,3399,"2017-08-02 16:43:08","2017-08-02 16:43:08"
1002,2930,"2017-08-02 16:42:47","2017-08-02 16:42:47"
1001,3117,"2017-08-02 16:42:55","2017-08-02 16:42:55"
1004,3645,"2017-08-02 16:43:18","2017-08-02 16:43:18"
1004,1817,"2016-06-08 16:28:15","2016-06-08 16:28:15"
1002,2870,"2016-06-18 10:12:24","2016-06-18 10:12:24"
1004,2041,"2016-01-19 22:28:41","2016-01-19 22:28:41"
1001,3236,"2017-08-02 16:43:00","2017-08-02 16:43:00"
1005,2239,"2016-05-27 18:01:37","2016-05-27 18:01:37"
1001,3394,"2017-08-02 16:43:07","2017-08-02 16:43:07"
1004,2016,"2016-01-19 22:28:39","2016-01-19 22:28:39"
1001,3235,"2017-08-02 16:43:00","2017-08-02 16:43:00"
1004,2888,"2017-08-02 16:42:45","2017-08-02 16:42:45"
1004,2927,"2017-08-02 16:42:46","2017-08-02 16:42:46"
1001,3038,"2017-08-02 16:42:51","2017-08-02 16:42:51"
1001,3189,"2017-08-02 16:42:58","2017-08-02 16:42:58"
1004,2384,"2016-06-02 22:41:58","2016-06-02 22:41:58"
1004,2389,"2016-06-02 22:41:58","2016-06-02 22:41:58"
1001,3279,"2017-08-02 16:43:02","2017-08-02 16:43:02"
1001,3281,"2017-08-02 16:43:02","2017-08-02 16:43:02"
1004,2298,"2016-06-02 22:41:52","2016-06-02 22:41:52"
1004,2300,"2016-06-02 22:41:52","2016-06-02 22:41:52"
1001,3373,"2017-08-02 16:43:06","2017-08-02 16:43:06"
1001,3395,"2017-08-02 16:43:07","2017-08-02 16:43:07"
1004,2290,"2016-06-02 22:41:52","2016-06-02 22:41:52"
1004,2448,"2016-06-02 22:42:02","2016-06-02 22:42:02"
1001,3077,"2017-08-02 16:42:53","2017-08-02 16:42:53"
1004,2514,"2016-06-08 16:28:10","2016-06-08 16:28:10"
1001,2996,"2017-08-02 16:42:49","2017-08-02 16:42:49"
1001,3380,"2017-08-02 16:43:07","2017-08-02 16:43:07"
1007,2582,"2017-08-02 16:42:31","2017-08-02 16:42:31"
1004,2754,"2016-06-08 16:28:28","2016-06-08 16:28:28"
1001,3150,"2017-08-02 16:42:56","2017-08-02 16:42:56"
1004,2733,"2016-06-08 16:28:27","2016-06-08 16:28:27"
1004,2806,"2016-06-08 16:28:31","2016-06-08 16:28:31"
1001,3141,"2017-08-02 16:42:56","2017-08-02 16:42:56"
1004,2529,"2016-06-08 16:28:11","2016-06-08 16:28:11"
1004,2683,"2016-06-08 16:28:22","2016-06-08 16:28:22"
1004,2830,"2016-06-08 16:28:33","2016-06-08 16:28:33"
1001,3137,"2017-08-02 16:42:56","2017-08-02 16:42:56"
1001,3174,"2017-08-02 16:42:57","2017-08-02 16:42:57"
1004,2655,"2016-06-08 16:28:20","2016-06-08 16:28:20"
1004,1457,"2016-06-08 16:28:12","2016-06-08 16:28:12"
1004,2703,"2016-06-08 16:28:24","2016-06-08 16:28:24"
1004,2839,"2016-06-08 16:28:33","2016-06-08 16:28:33"
1001,3124,"2017-08-02 16:42:55","2017-08-02 16:42:55"
1004,2846,"2016-06-08 16:28:34","2016-06-08 16:28:34"
1001,2978,"2017-08-02 16:42:48","2017-08-02 16:42:48"
1001,3097,"2017-08-02 16:42:54","2017-08-02 16:42:54"
1004,2560,"2016-06-08 16:28:13","2016-06-08 16:28:13"
1004,2569,"2016-06-08 16:28:14","2016-06-08 16:28:14"
1004,2874,"2017-08-02 16:42:44","2017-08-02 16:42:44"
1001,3382,"2017-08-02 16:43:07","2017-08-02 16:43:07"
1001,1589,"2017-08-02 16:43:02","2017-08-02 16:43:02"
1004,2838,"2016-06-08 16:28:33","2016-06-08 16:28:33"
1001,3048,"2017-08-02 16:42:52","2017-08-02 16:42:52"
1004,3613,"2017-08-02 16:43:17","2017-08-02 16:43:17"
1004,2645,"2016-06-08 16:28:19","2016-06-08 16:28:19"
1004,2702,"2016-06-08 16:28:24","2016-06-08 16:28:24"
1004,2833,"2016-06-08 16:28:33","2016-06-08 16:28:33"
1001,3370,"2017-08-02 16:43:06","2017-08-02 16:43:06"
1007,3536,"2017-08-02 16:43:13","2017-08-02 16:43:13"
1001,1202,"2016-01-27 20:51:03","2016-01-27 20:51:03"
1004,2748,"2016-06-08 16:28:28","2016-06-08 16:28:28"
1004,2600,"2016-06-08 16:28:16","2016-06-08 16:28:16"
1004,2508,"2016-06-08 16:28:10","2016-06-08 16:28:10"
1004,2562,"2016-06-08 16:28:13","2016-06-08 16:28:13"
1004,2819,"2016-06-08 16:28:32","2016-06-08 16:28:32"
1004,2815,"2016-06-08 16:28:32","2016-06-08 16:28:32"
1001,1414,"2017-08-02 16:42:50","2017-08-02 16:42:50"
1001,3093,"2017-08-02 16:42:54","2017-08-02 16:42:54"
1001,3326,"2017-08-02 16:43:04","2017-08-02 16:43:04"
1001,1303,"2017-08-02 16:42:58","2017-08-02 16:42:58"
1001,3205,"2017-08-02 16:42:59","2017-08-02 16:42:59"
1001,3023,"2017-08-02 16:42:50","2017-08-02 16:42:50"
1001,3179,"2017-08-02 16:42:58","2017-08-02 16:42:58"
1001,1574,"2017-08-02 16:42:57","2017-08-02 16:42:57"
1001,3242,"2017-08-02 16:43:00","2017-08-02 16:43:00"
