Id,OwnerId,IsDeleted,Name,CreatedDate,CreatedById,LastModifiedDate,LastModifiedById,SystemModstamp,MayEdit,IsLocked,LastViewedDate,LastReferencedDate,ConnectionReceivedId,ConnectionSentId,Download_Processed_vod__c,Mobile_ID_vod__c,Successful_Sync_vod__c,Sync_Completed_Datetime_vod__c,Sync_Duration_vod__c,Sync_Start_Datetime_vod__c,Sync_Type_vod__c,Upload_Processed_vod__c,VInsights_Processed_vod__c,Version_vod__c,Media_Processed_vod__c,fOwner_Profile_coe__c,Record_Created_DateTime__c,Discrepancy_Secs__c,Canceled_vod__c,Sync_Discrepancy_Duration_Delta__c,Number_of_Retries_vod__c,Number_of_Upload_Errors_vod__c,Number_of_Uploads_vod__c,Number_of_VTrans_vod__c,BackupCreatedDate,BackupModifiedDate
a1,REP_1,NULL,NULL,2018-02-01 12:00:01,NULL,NULL,NULL,NULL,NULL,NULL,NULL,NULL,NULL,NULL,NULL,NULL,1,2018-02-01 12:00:01,NULL,NULL,User_Full_Sync_vod,NULL,NULL,NULL,NULL,str,NULL,NULL,0,NULL,NULL,NULL,NULL,NULL,NULL,NULL
a2,REP_2,NULL,NULL,2018-02-01 12:00:01,NULL,NULL,NULL,NULL,NULL,NULL,NULL,NULL,NULL,NULL,NULL,NULL,1,2018-02-01 12:00:01,NULL,NULL,User_Full_Sync_vod,NULL,NULL,NULL,NULL,str,NULL,NULL,0,NULL,NULL,NULL,NULL,NULL,NULL,NULL
a3,REP_3,NULL,NULL,2018-02-01 12:00:01,NULL,NULL,NULL,NULL,NULL,NULL,NULL,NULL,NULL,NULL,NULL,NULL,1,2018-02-01 12:00:01,NULL,NULL,User_Full_Sync_vod,NULL,NULL,NULL,NULL,str,NULL,NULL,0,NULL,NULL,NULL,NULL,NULL,NULL,NULL
a4,REP_4,NULL,NULL,2018-02-01 12:00:01,NULL,NULL,NULL,NULL,NULL,NULL,NULL,NULL,NULL,NULL,NULL,NULL,1,2018-02-01 12:00:01,NULL,NULL,User_Full_Sync_vod,NULL,NULL,NULL,NULL,str,NULL,NULL,0,NULL,NULL,NULL,NULL,NULL,NULL,NULL
a5,REP_5,NULL,NULL,2018-02-01 12:00:01,NULL,NULL,NULL,NULL,NULL,NULL,NULL,NULL,NULL,NULL,NULL,NULL,1,2018-02-01 12:00:01,NULL,NULL,User_Full_Sync_vod,NULL,NULL,NULL,NULL,str,NULL,NULL,0,NULL,NULL,NULL,NULL,NULL,NULL,NULL
a6,REP_6,NULL,NULL,2018-02-01 12:00:01,NULL,NULL,NULL,NULL,NULL,NULL,NULL,NULL,NULL,NULL,NULL,NULL,1,2018-02-01 12:00:01,NULL,NULL,User_Full_Sync_vod,NULL,NULL,NULL,NULL,str,NULL,NULL,0,NULL,NULL,NULL,NULL,NULL,NULL,NULL
a7,REP_7,NULL,NULL,2018-02-01 12:00:01,NULL,NULL,NULL,NULL,NULL,NULL,NULL,NULL,NULL,NULL,NULL,NULL,1,2018-02-01 12:00:01,NULL,NULL,User_Full_Sync_vod,NULL,NULL,NULL,NULL,str,NULL,NULL,0,NULL,NULL,NULL,NULL,NULL,NULL,NULL
a8,REP_8,NULL,NULL,2018-02-01 12:00:01,NULL,NULL,NULL,NULL,NULL,NULL,NULL,NULL,NULL,NULL,NULL,NULL,1,2018-02-01 12:00:01,NULL,NULL,User_Full_Sync_vod,NULL,NULL,NULL,NULL,str,NULL,NULL,0,NULL,NULL,NULL,NULL,NULL,NULL,NULL
a9,REP_9,NULL,NULL,2018-02-01 12:00:01,NULL,NULL,NULL,NULL,NULL,NULL,NULL,NULL,NULL,NULL,NULL,NULL,1,2018-02-01 12:00:01,NULL,NULL,User_Full_Sync_vod,NULL,NULL,NULL,NULL,str,NULL,NULL,0,NULL,NULL,NULL,NULL,NULL,NULL,NULL
a10,REP_10,NULL,NULL,2018-02-01 12:00:01,NULL,NULL,NULL,NULL,NULL,NULL,NULL,NULL,NULL,NULL,NULL,NULL,1,2018-02-01 12:00:01,NULL,NULL,User_Full_Sync_vod,NULL,NULL,NULL,NULL,str,NULL,NULL,0,NULL,NULL,NULL,NULL,NULL,NULL,NULL
b1,REP_1,NULL,NULL,2018-02-02 12:00:01,NULL,NULL,NULL,NULL,NULL,NULL,NULL,NULL,NULL,NULL,NULL,NULL,1,2018-02-02 12:00:01,NULL,NULL,User_Full_Sync_vod,NULL,NULL,NULL,NULL,str,NULL,NULL,0,NULL,NULL,NULL,NULL,NULL,NULL,NULL
b2,REP_2,NULL,NULL,2018-02-02 12:00:01,NULL,NULL,NULL,NULL,NULL,NULL,NULL,NULL,NULL,NULL,NULL,NULL,1,2018-02-02 12:00:01,NULL,NULL,User_Full_Sync_vod,NULL,NULL,NULL,NULL,str,NULL,NULL,0,NULL,NULL,NULL,NULL,NULL,NULL,NULL
b3,REP_3,NULL,NULL,2018-02-02 12:00:01,NULL,NULL,NULL,NULL,NULL,NULL,NULL,NULL,NULL,NULL,NULL,NULL,1,2018-02-02 12:00:01,NULL,NULL,User_Full_Sync_vod,NULL,NULL,NULL,NULL,str,NULL,NULL,0,NULL,NULL,NULL,NULL,NULL,NULL,NULL
b4,REP_4,NULL,NULL,2018-02-02 12:00:01,NULL,NULL,NULL,NULL,NULL,NULL,NULL,NULL,NULL,NULL,NULL,NULL,1,2018-02-02 12:00:01,NULL,NULL,User_Full_Sync_vod,NULL,NULL,NULL,NULL,str,NULL,NULL,0,NULL,NULL,NULL,NULL,NULL,NULL,NULL
b5,REP_5,NULL,NULL,2018-02-02 12:00:01,NULL,NULL,NULL,NULL,NULL,NULL,NULL,NULL,NULL,NULL,NULL,NULL,1,2018-02-02 12:00:01,NULL,NULL,User_Full_Sync_vod,NULL,NULL,NULL,NULL,str,NULL,NULL,0,NULL,NULL,NULL,NULL,NULL,NULL,NULL
b6,REP_6,NULL,NULL,2018-02-02 12:00:01,NULL,NULL,NULL,NULL,NULL,NULL,NULL,NULL,NULL,NULL,NULL,NULL,1,2018-02-02 12:00:01,NULL,NULL,User_Full_Sync_vod,NULL,NULL,NULL,NULL,str,NULL,NULL,0,NULL,NULL,NULL,NULL,NULL,NULL,NULL
b7,REP_7,NULL,NULL,2018-02-02 12:00:01,NULL,NULL,NULL,NULL,NULL,NULL,NULL,NULL,NULL,NULL,NULL,NULL,1,2018-02-02 12:00:01,NULL,NULL,User_Full_Sync_vod,NULL,NULL,NULL,NULL,str,NULL,NULL,0,NULL,NULL,NULL,NULL,NULL,NULL,NULL
b8,REP_8,NULL,NULL,2018-02-02 12:00:01,NULL,NULL,NULL,NULL,NULL,NULL,NULL,NULL,NULL,NULL,NULL,NULL,1,2018-02-02 12:00:01,NULL,NULL,User_Full_Sync_vod,NULL,NULL,NULL,NULL,str,NULL,NULL,0,NULL,NULL,NULL,NULL,NULL,NULL,NULL
b9,REP_9,NULL,NULL,2018-02-02 12:00:01,NULL,NULL,NULL,NULL,NULL,NULL,NULL,NULL,NULL,NULL,NULL,NULL,1,2018-02-02 12:00:01,NULL,NULL,User_Full_Sync_vod,NULL,NULL,NULL,NULL,str,NULL,NULL,0,NULL,NULL,NULL,NULL,NULL,NULL,NULL
b10,REP_10,NULL,NULL,2018-02-02 12:00:01,NULL,NULL,NULL,NULL,NULL,NULL,NULL,NULL,NULL,NULL,NULL,NULL,1,2018-02-02 12:00:01,NULL,NULL,User_Full_Sync_vod,NULL,NULL,NULL,NULL,str,NULL,NULL,0,NULL,NULL,NULL,NULL,NULL,NULL,NULL
c1,REP_1,NULL,NULL,2018-02-03 12:00:01,NULL,NULL,NULL,NULL,NULL,NULL,NULL,NULL,NULL,NULL,NULL,NULL,1,2018-02-03 12:00:01,NULL,NULL,User_Full_Sync_vod,NULL,NULL,NULL,NULL,str,NULL,NULL,0,NULL,NULL,NULL,NULL,NULL,NULL,NULL
c2,REP_2,NULL,NULL,2018-02-03 12:00:01,NULL,NULL,NULL,NULL,NULL,NULL,NULL,NULL,NULL,NULL,NULL,NULL,1,2018-02-03 12:00:01,NULL,NULL,User_Full_Sync_vod,NULL,NULL,NULL,NULL,str,NULL,NULL,0,NULL,NULL,NULL,NULL,NULL,NULL,NULL
c3,REP_3,NULL,NULL,2018-02-03 12:00:01,NULL,NULL,NULL,NULL,NULL,NULL,NULL,NULL,NULL,NULL,NULL,NULL,1,2018-02-03 12:00:01,NULL,NULL,User_Full_Sync_vod,NULL,NULL,NULL,NULL,str,NULL,NULL,0,NULL,NULL,NULL,NULL,NULL,NULL,NULL
c4,REP_4,NULL,NULL,2018-02-03 12:00:01,NULL,NULL,NULL,NULL,NULL,NULL,NULL,NULL,NULL,NULL,NULL,NULL,1,2018-02-03 12:00:01,NULL,NULL,User_Full_Sync_vod,NULL,NULL,NULL,NULL,str,NULL,NULL,0,NULL,NULL,NULL,NULL,NULL,NULL,NULL
c5,REP_5,NULL,NULL,2018-02-03 12:00:01,NULL,NULL,NULL,NULL,NULL,NULL,NULL,NULL,NULL,NULL,NULL,NULL,1,2018-02-03 12:00:01,NULL,NULL,User_Full_Sync_vod,NULL,NULL,NULL,NULL,str,NULL,NULL,0,NULL,NULL,NULL,NULL,NULL,NULL,NULL
c6,REP_6,NULL,NULL,2018-02-03 12:00:01,NULL,NULL,NULL,NULL,NULL,NULL,NULL,NULL,NULL,NULL,NULL,NULL,1,2018-02-03 12:00:01,NULL,NULL,User_Full_Sync_vod,NULL,NULL,NULL,NULL,str,NULL,NULL,0,NULL,NULL,NULL,NULL,NULL,NULL,NULL
c7,REP_7,NULL,NULL,2018-02-03 12:00:01,NULL,NULL,NULL,NULL,NULL,NULL,NULL,NULL,NULL,NULL,NULL,NULL,1,2018-02-03 12:00:01,NULL,NULL,User_Full_Sync_vod,NULL,NULL,NULL,NULL,str,NULL,NULL,0,NULL,NULL,NULL,NULL,NULL,NULL,NULL
c8,REP_8,NULL,NULL,2018-02-03 12:00:01,NULL,NULL,NULL,NULL,NULL,NULL,NULL,NULL,NULL,NULL,NULL,NULL,1,2018-02-03 12:00:01,NULL,NULL,User_Full_Sync_vod,NULL,NULL,NULL,NULL,str,NULL,NULL,0,NULL,NULL,NULL,NULL,NULL,NULL,NULL
c9,REP_9,NULL,NULL,2018-02-03 12:00:01,NULL,NULL,NULL,NULL,NULL,NULL,NULL,NULL,NULL,NULL,NULL,NULL,1,2018-02-03 12:00:01,NULL,NULL,User_Full_Sync_vod,NULL,NULL,NULL,NULL,str,NULL,NULL,0,NULL,NULL,NULL,NULL,NULL,NULL,NULL
c10,REP_10,NULL,NULL,2018-02-03 12:00:01,NULL,NULL,NULL,NULL,NULL,NULL,NULL,NULL,NULL,NULL,NULL,NULL,1,2018-02-03 12:00:01,NULL,NULL,User_Full_Sync_vod,NULL,NULL,NULL,NULL,str,NULL,NULL,0,NULL,NULL,NULL,NULL,NULL,NULL,NULL
