{"repId": 1001, "runId": 3, "externalId": "ag", "suggestionLifeCycleId": null, "runUID": 3, "repTeamId": null, "repTeamUID": null, "repTeamName": null, "seConfigId": 1, "seConfigName": "a", "runGroupId": null, "suggestedDate": "2018-02-03", "startDateLocal": "2018-01-15", "repUID": "a", "repName": "Rep1", "repCreatedAt": null, "accountId": null, "accountUID": null, "runRepDateSuggestionId": null, "accountName": null, "detailRepActionTypeId": 3, "detailRepActionTypeUID": null, "detailRepActionName": null, "runRepDateSuggestionDetailId": null, "productId": null, "productUID": null, "productName": null, "messageId": null, "messageUID": null, "messageName": null, "suggestionUID": null, "suggestionReferenceId": "ag1", "lastViewedAt": null, "viewedAt": null, "viewedDuration": null, "actionTaken": "No Action Taken", "actionTaken_dt": null, "isSuggestionCompleted": null, "isSuggestionCompletedDirect": null, "isSuggestionCompletedInfer": null, "isSuggestionDismissed": null, "dismissReasonType": null, "dismissReason": null, "dismissReason_dt": null, "isSuggestionActive": null, "facilityLatitude": null, "facilityLongitude": null, "facilityGeoLocationString": null, "repLatitude": null, "repLongitude": null, "territoryCityName": null, "districtName": null, "territoryId": null, "territoryName": null, "regionName": null, "regionGroup": null, "dismissedAt": null, "dismissCount": null, "lastPublishedAt": null, "createdAt": "2018-02-15T12:00:00.000-08:00", "updatedAt": "2018-02-15T12:00:00.000-08:00", "reportedInteractionUID": null, "inferredInteractionUID": null, "interactionUID": null, "completedAt": null, "inferredAt": null, "isFirstSuggestedDate": null, "isLastSuggestedDate": null, "suggestionDriver": "Target", "timeoffday": null, "isHighestRunidForDay": null, "holiday_weekend_Flag": null, "crmFieldName": null, "reasonText": null, "reasonRank": null, "runRepDateSuggestionReasonId": null, "repRole": null, "repBag": null, "dmUID": null, "dmName": null, "interactionId": null, "isCompleted": 0, "startDateTime": "2018-01-15T12:00:00.000-08:00", "isREMix": null, "isDSESpark": null, "arc_createdAt": "2019-01-01T12:00:01.000-08:00", "arc_updatedAt": "2019-01-01T12:00:01.000-08:00", "StartDateLocalSynched": "2018-02-03", "Times_Synched": 2.0}
{"repId": 1002, "runId": 2, "externalId": "ai", "suggestionLifeCycleId": null, "runUID": 2, "repTeamId": null, "repTeamUID": null, "repTeamName": null, "seConfigId": 1, "seConfigName": "a", "runGroupId": null, "suggestedDate": "2018-02-02", "startDateLocal": "2018-01-15", "repUID": "b", "repName": "Rep2", "repCreatedAt": null, "accountId": null, "accountUID": null, "runRepDateSuggestionId": null, "accountName": null, "detailRepActionTypeId": 3, "detailRepActionTypeUID": null, "detailRepActionName": null, "runRepDateSuggestionDetailId": null, "productId": null, "productUID": null, "productName": null, "messageId": null, "messageUID": null, "messageName": null, "suggestionUID": null, "suggestionReferenceId": "ai1", "lastViewedAt": null, "viewedAt": null, "viewedDuration": null, "actionTaken": "No Action Taken", "actionTaken_dt": null, "isSuggestionCompleted": null, "isSuggestionCompletedDirect": null, "isSuggestionCompletedInfer": null, "isSuggestionDismissed": null, "dismissReasonType": null, "dismissReason": null, "dismissReason_dt": null, "isSuggestionActive": null, "facilityLatitude": null, "facilityLongitude": null, "facilityGeoLocationString": null, "repLatitude": null, "repLongitude": null, "territoryCityName": null, "districtName": null, "territoryId": null, "territoryName": null, "regionName": null, "regionGroup": null, "dismissedAt": null, "dismissCount": null, "lastPublishedAt": null, "createdAt": "2018-02-15T12:00:00.000-08:00", "updatedAt": "2018-02-15T12:00:00.000-08:00", "reportedInteractionUID": null, "inferredInteractionUID": null, "interactionUID": null, "completedAt": null, "inferredAt": null, "isFirstSuggestedDate": null, "isLastSuggestedDate": null, "suggestionDriver": "Target", "timeoffday": null, "isHighestRunidForDay": null, "holiday_weekend_Flag": null, "crmFieldName": null, "reasonText": null, "reasonRank": null, "runRepDateSuggestionReasonId": null, "repRole": null, "repBag": null, "dmUID": null, "dmName": null, "interactionId": null, "isCompleted": 0, "startDateTime": "2018-01-15T12:00:00.000-08:00", "isREMix": null, "isDSESpark": null, "arc_createdAt": "2019-01-01T12:00:01.000-08:00", "arc_updatedAt": "2019-01-01T12:00:01.000-08:00", "StartDateLocalSynched": "2018-02-02", "Times_Synched": 2.0}
{"repId": 1006, "runId": 1, "externalId": "q", "suggestionLifeCycleId": null, "runUID": 1, "repTeamId": null, "repTeamUID": null, "repTeamName": null, "seConfigId": 1, "seConfigName": "a", "runGroupId": null, "suggestedDate": "2018-02-02", "startDateLocal": "2018-01-15", "repUID": "f", "repName": "Rep6", "repCreatedAt": null, "accountId": null, "accountUID": null, "runRepDateSuggestionId": null, "accountName": null, "detailRepActionTypeId": 3, "detailRepActionTypeUID": null, "detailRepActionName": null, "runRepDateSuggestionDetailId": null, "productId": null, "productUID": null, "productName": null, "messageId": null, "messageUID": null, "messageName": null, "suggestionUID": null, "suggestionReferenceId": "q1", "lastViewedAt": null, "viewedAt": null, "viewedDuration": null, "actionTaken": "Suggestions Completed", "actionTaken_dt": null, "isSuggestionCompleted": null, "isSuggestionCompletedDirect": null, "isSuggestionCompletedInfer": null, "isSuggestionDismissed": null, "dismissReasonType": null, "dismissReason": null, "dismissReason_dt": null, "isSuggestionActive": null, "facilityLatitude": null, "facilityLongitude": null, "facilityGeoLocationString": null, "repLatitude": null, "repLongitude": null, "territoryCityName": null, "districtName": null, "territoryId": null, "territoryName": null, "regionName": null, "regionGroup": null, "dismissedAt": null, "dismissCount": null, "lastPublishedAt": null, "createdAt": "2018-02-15T12:00:00.000-08:00", "updatedAt": "2018-02-15T12:00:00.000-08:00", "reportedInteractionUID": null, "inferredInteractionUID": null, "interactionUID": null, "completedAt": null, "inferredAt": null, "isFirstSuggestedDate": null, "isLastSuggestedDate": null, "suggestionDriver": "Target", "timeoffday": null, "isHighestRunidForDay": null, "holiday_weekend_Flag": null, "crmFieldName": null, "reasonText": null, "reasonRank": null, "runRepDateSuggestionReasonId": null, "repRole": null, "repBag": null, "dmUID": null, "dmName": null, "interactionId": null, "isCompleted": 1, "startDateTime": "2018-01-15T12:00:00.000-08:00", "isREMix": null, "isDSESpark": null, "arc_createdAt": "2019-01-01T12:00:01.000-08:00", "arc_updatedAt": "2019-01-01T12:00:01.000-08:00", "StartDateLocalSynched": "2018-02-01", "Times_Synched": 2.0}
{"repId": 1010, "runId": 3, "externalId": "ad", "suggestionLifeCycleId": null, "runUID": 3, "repTeamId": null, "repTeamUID": null, "repTeamName": null, "seConfigId": 1, "seConfigName": "a", "runGroupId": null, "suggestedDate": "2018-02-03", "startDateLocal": "2018-01-15", "repUID": "j", "repName": "Rep10", "repCreatedAt": null, "accountId": null, "accountUID": null, "runRepDateSuggestionId": null, "accountName": null, "detailRepActionTypeId": 3, "detailRepActionTypeUID": null, "detailRepActionName": null, "runRepDateSuggestionDetailId": null, "productId": null, "productUID": null, "productName": null, "messageId": null, "messageUID": null, "messageName": null, "suggestionUID": null, "suggestionReferenceId": "ad1", "lastViewedAt": null, "viewedAt": null, "viewedDuration": null, "actionTaken": "Suggestions Completed", "actionTaken_dt": null, "isSuggestionCompleted": null, "isSuggestionCompletedDirect": null, "isSuggestionCompletedInfer": null, "isSuggestionDismissed": null, "dismissReasonType": null, "dismissReason": null, "dismissReason_dt": null, "isSuggestionActive": null, "facilityLatitude": null, "facilityLongitude": null, "facilityGeoLocationString": null, "repLatitude": null, "repLongitude": null, "territoryCityName": null, "districtName": null, "territoryId": null, "territoryName": null, "regionName": null, "regionGroup": null, "dismissedAt": null, "dismissCount": null, "lastPublishedAt": null, "createdAt": "2018-02-15T12:00:00.000-08:00", "updatedAt": "2018-02-15T12:00:00.000-08:00", "reportedInteractionUID": null, "inferredInteractionUID": null, "interactionUID": null, "completedAt": null, "inferredAt": null, "isFirstSuggestedDate": null, "isLastSuggestedDate": null, "suggestionDriver": "Trigger", "timeoffday": null, "isHighestRunidForDay": null, "holiday_weekend_Flag": null, "crmFieldName": null, "reasonText": null, "reasonRank": null, "runRepDateSuggestionReasonId": null, "repRole": null, "repBag": null, "dmUID": null, "dmName": null, "interactionId": null, "isCompleted": 1, "startDateTime": "2018-01-15T12:00:00.000-08:00", "isREMix": null, "isDSESpark": null, "arc_createdAt": "2019-01-01T12:00:01.000-08:00", "arc_updatedAt": "2019-01-01T12:00:01.000-08:00", "StartDateLocalSynched": "2018-02-03", "Times_Synched": 2.0}
{"repId": 1002, "runId": 3, "externalId": "aj", "suggestionLifeCycleId": null, "runUID": 3, "repTeamId": null, "repTeamUID": null, "repTeamName": null, "seConfigId": 1, "seConfigName": "a", "runGroupId": null, "suggestedDate": "2018-02-03", "startDateLocal": "2018-01-15", "repUID": "b", "repName": "Rep2", "repCreatedAt": null, "accountId": null, "accountUID": null, "runRepDateSuggestionId": null, "accountName": null, "detailRepActionTypeId": 3, "detailRepActionTypeUID": null, "detailRepActionName": null, "runRepDateSuggestionDetailId": null, "productId": null, "productUID": null, "productName": null, "messageId": null, "messageUID": null, "messageName": null, "suggestionUID": null, "suggestionReferenceId": "aj1", "lastViewedAt": null, "viewedAt": null, "viewedDuration": null, "actionTaken": "Suggestions Dismissed", "actionTaken_dt": null, "isSuggestionCompleted": null, "isSuggestionCompletedDirect": null, "isSuggestionCompletedInfer": null, "isSuggestionDismissed": null, "dismissReasonType": null, "dismissReason": null, "dismissReason_dt": null, "isSuggestionActive": null, "facilityLatitude": null, "facilityLongitude": null, "facilityGeoLocationString": null, "repLatitude": null, "repLongitude": null, "territoryCityName": null, "districtName": null, "territoryId": null, "territoryName": null, "regionName": null, "regionGroup": null, "dismissedAt": null, "dismissCount": null, "lastPublishedAt": null, "createdAt": "2018-02-15T12:00:00.000-08:00", "updatedAt": "2018-02-15T12:00:00.000-08:00", "reportedInteractionUID": null, "inferredInteractionUID": null, "interactionUID": null, "completedAt": null, "inferredAt": null, "isFirstSuggestedDate": null, "isLastSuggestedDate": null, "suggestionDriver": "Trigger", "timeoffday": null, "isHighestRunidForDay": null, "holiday_weekend_Flag": null, "crmFieldName": null, "reasonText": null, "reasonRank": null, "runRepDateSuggestionReasonId": null, "repRole": null, "repBag": null, "dmUID": null, "dmName": null, "interactionId": null, "isCompleted": 0, "startDateTime": "2018-01-15T12:00:00.000-08:00", "isREMix": null, "isDSESpark": null, "arc_createdAt": "2019-01-01T12:00:01.000-08:00", "arc_updatedAt": "2019-01-01T12:00:01.000-08:00", "StartDateLocalSynched": "2018-02-03", "Times_Synched": 2.0}
{"repId": 1006, "runId": 3, "externalId": "ar", "suggestionLifeCycleId": null, "runUID": 3, "repTeamId": null, "repTeamUID": null, "repTeamName": null, "seConfigId": 1, "seConfigName": "a", "runGroupId": null, "suggestedDate": "2018-02-01", "startDateLocal": "2018-01-15", "repUID": "f", "repName": "Rep6", "repCreatedAt": null, "accountId": null, "accountUID": null, "runRepDateSuggestionId": null, "accountName": null, "detailRepActionTypeId": 3, "detailRepActionTypeUID": null, "detailRepActionName": null, "runRepDateSuggestionDetailId": null, "productId": null, "productUID": null, "productName": null, "messageId": null, "messageUID": null, "messageName": null, "suggestionUID": null, "suggestionReferenceId": "ar1", "lastViewedAt": null, "viewedAt": null, "viewedDuration": null, "actionTaken": "Suggestions Dismissed", "actionTaken_dt": null, "isSuggestionCompleted": null, "isSuggestionCompletedDirect": null, "isSuggestionCompletedInfer": null, "isSuggestionDismissed": null, "dismissReasonType": null, "dismissReason": null, "dismissReason_dt": null, "isSuggestionActive": null, "facilityLatitude": null, "facilityLongitude": null, "facilityGeoLocationString": null, "repLatitude": null, "repLongitude": null, "territoryCityName": null, "districtName": null, "territoryId": null, "territoryName": null, "regionName": null, "regionGroup": null, "dismissedAt": null, "dismissCount": null, "lastPublishedAt": null, "createdAt": "2018-02-15T12:00:00.000-08:00", "updatedAt": "2018-02-15T12:00:00.000-08:00", "reportedInteractionUID": null, "inferredInteractionUID": null, "interactionUID": null, "completedAt": null, "inferredAt": null, "isFirstSuggestedDate": null, "isLastSuggestedDate": null, "suggestionDriver": "Trigger", "timeoffday": null, "isHighestRunidForDay": null, "holiday_weekend_Flag": null, "crmFieldName": null, "reasonText": null, "reasonRank": null, "runRepDateSuggestionReasonId": null, "repRole": null, "repBag": null, "dmUID": null, "dmName": null, "interactionId": null, "isCompleted": 0, "startDateTime": "2018-01-15T12:00:00.000-08:00", "isREMix": null, "isDSESpark": null, "arc_createdAt": "2019-01-01T12:00:01.000-08:00", "arc_updatedAt": "2019-01-01T12:00:01.000-08:00", "StartDateLocalSynched": "2018-02-03", "Times_Synched": 2.0}
{"repId": 1003, "runId": 2, "externalId": "al", "suggestionLifeCycleId": null, "runUID": 2, "repTeamId": null, "repTeamUID": null, "repTeamName": null, "seConfigId": 1, "seConfigName": "a", "runGroupId": null, "suggestedDate": "2018-02-02", "startDateLocal": "2018-01-15", "repUID": "c", "repName": "Rep3", "repCreatedAt": null, "accountId": null, "accountUID": null, "runRepDateSuggestionId": null, "accountName": null, "detailRepActionTypeId": 3, "detailRepActionTypeUID": null, "detailRepActionName": null, "runRepDateSuggestionDetailId": null, "productId": null, "productUID": null, "productName": null, "messageId": null, "messageUID": null, "messageName": null, "suggestionUID": null, "suggestionReferenceId": "al1", "lastViewedAt": null, "viewedAt": null, "viewedDuration": null, "actionTaken": "Suggestions Dismissed", "actionTaken_dt": null, "isSuggestionCompleted": null, "isSuggestionCompletedDirect": null, "isSuggestionCompletedInfer": null, "isSuggestionDismissed": null, "dismissReasonType": null, "dismissReason": null, "dismissReason_dt": null, "isSuggestionActive": null, "facilityLatitude": null, "facilityLongitude": null, "facilityGeoLocationString": null, "repLatitude": null, "repLongitude": null, "territoryCityName": null, "districtName": null, "territoryId": null, "territoryName": null, "regionName": null, "regionGroup": null, "dismissedAt": null, "dismissCount": null, "lastPublishedAt": null, "createdAt": "2018-02-15T12:00:00.000-08:00", "updatedAt": "2018-02-15T12:00:00.000-08:00", "reportedInteractionUID": null, "inferredInteractionUID": null, "interactionUID": null, "completedAt": null, "inferredAt": null, "isFirstSuggestedDate": null, "isLastSuggestedDate": null, "suggestionDriver": "Trigger", "timeoffday": null, "isHighestRunidForDay": null, "holiday_weekend_Flag": null, "crmFieldName": null, "reasonText": null, "reasonRank": null, "runRepDateSuggestionReasonId": null, "repRole": null, "repBag": null, "dmUID": null, "dmName": null, "interactionId": null, "isCompleted": 0, "startDateTime": "2018-01-15T12:00:00.000-08:00", "isREMix": null, "isDSESpark": null, "arc_createdAt": "2019-01-01T12:00:01.000-08:00", "arc_updatedAt": "2019-01-01T12:00:01.000-08:00", "StartDateLocalSynched": "2018-02-02", "Times_Synched": 2.0}
{"repId": 1005, "runId": 2, "externalId": "ap", "suggestionLifeCycleId": null, "runUID": 2, "repTeamId": null, "repTeamUID": null, "repTeamName": null, "seConfigId": 1, "seConfigName": "a", "runGroupId": null, "suggestedDate": "2018-02-01", "startDateLocal": "2018-01-15", "repUID": "e", "repName": "Rep5", "repCreatedAt": null, "accountId": null, "accountUID": null, "runRepDateSuggestionId": null, "accountName": null, "detailRepActionTypeId": 3, "detailRepActionTypeUID": null, "detailRepActionName": null, "runRepDateSuggestionDetailId": null, "productId": null, "productUID": null, "productName": null, "messageId": null, "messageUID": null, "messageName": null, "suggestionUID": null, "suggestionReferenceId": "ap1", "lastViewedAt": null, "viewedAt": null, "viewedDuration": null, "actionTaken": "Suggestions Dismissed", "actionTaken_dt": null, "isSuggestionCompleted": null, "isSuggestionCompletedDirect": null, "isSuggestionCompletedInfer": null, "isSuggestionDismissed": null, "dismissReasonType": null, "dismissReason": null, "dismissReason_dt": null, "isSuggestionActive": null, "facilityLatitude": null, "facilityLongitude": null, "facilityGeoLocationString": null, "repLatitude": null, "repLongitude": null, "territoryCityName": null, "districtName": null, "territoryId": null, "territoryName": null, "regionName": null, "regionGroup": null, "dismissedAt": null, "dismissCount": null, "lastPublishedAt": null, "createdAt": "2018-02-15T12:00:00.000-08:00", "updatedAt": "2018-02-15T12:00:00.000-08:00", "reportedInteractionUID": null, "inferredInteractionUID": null, "interactionUID": null, "completedAt": null, "inferredAt": null, "isFirstSuggestedDate": null, "isLastSuggestedDate": null, "suggestionDriver": "Target", "timeoffday": null, "isHighestRunidForDay": null, "holiday_weekend_Flag": null, "crmFieldName": null, "reasonText": null, "reasonRank": null, "runRepDateSuggestionReasonId": null, "repRole": null, "repBag": null, "dmUID": null, "dmName": null, "interactionId": null, "isCompleted": 0, "startDateTime": "2018-01-15T12:00:00.000-08:00", "isREMix": null, "isDSESpark": null, "arc_createdAt": "2019-01-01T12:00:01.000-08:00", "arc_updatedAt": "2019-01-01T12:00:01.000-08:00", "StartDateLocalSynched": "2018-02-02", "Times_Synched": 2.0}
{"repId": 1001, "runId": 1, "externalId": "ae", "suggestionLifeCycleId": null, "runUID": 1, "repTeamId": null, "repTeamUID": null, "repTeamName": null, "seConfigId": 1, "seConfigName": "a", "runGroupId": null, "suggestedDate": "2018-02-01", "startDateLocal": "2018-01-15", "repUID": "a", "repName": "Rep1", "repCreatedAt": null, "accountId": null, "accountUID": null, "runRepDateSuggestionId": null, "accountName": null, "detailRepActionTypeId": 3, "detailRepActionTypeUID": null, "detailRepActionName": null, "runRepDateSuggestionDetailId": null, "productId": null, "productUID": null, "productName": null, "messageId": null, "messageUID": null, "messageName": null, "suggestionUID": null, "suggestionReferenceId": "ae", "lastViewedAt": null, "viewedAt": null, "viewedDuration": null, "actionTaken": "No Action Taken", "actionTaken_dt": null, "isSuggestionCompleted": null, "isSuggestionCompletedDirect": null, "isSuggestionCompletedInfer": null, "isSuggestionDismissed": null, "dismissReasonType": null, "dismissReason": null, "dismissReason_dt": null, "isSuggestionActive": null, "facilityLatitude": null, "facilityLongitude": null, "facilityGeoLocationString": null, "repLatitude": null, "repLongitude": null, "territoryCityName": null, "districtName": null, "territoryId": null, "territoryName": null, "regionName": null, "regionGroup": null, "dismissedAt": null, "dismissCount": null, "lastPublishedAt": null, "createdAt": "2018-02-15T12:00:00.000-08:00", "updatedAt": "2018-02-15T12:00:00.000-08:00", "reportedInteractionUID": null, "inferredInteractionUID": null, "interactionUID": null, "completedAt": null, "inferredAt": null, "isFirstSuggestedDate": null, "isLastSuggestedDate": null, "suggestionDriver": "Target", "timeoffday": null, "isHighestRunidForDay": null, "holiday_weekend_Flag": null, "crmFieldName": null, "reasonText": null, "reasonRank": null, "runRepDateSuggestionReasonId": null, "repRole": null, "repBag": null, "dmUID": null, "dmName": null, "interactionId": null, "isCompleted": 0, "startDateTime": "2018-01-15T12:00:00.000-08:00", "isREMix": null, "isDSESpark": null, "arc_createdAt": "2019-01-01T12:00:01.000-08:00", "arc_updatedAt": "2019-01-01T12:00:01.000-08:00", "StartDateLocalSynched": "2018-02-01", "Times_Synched": 2.0}
{"repId": 1008, "runId": 1, "externalId": "v", "suggestionLifeCycleId": null, "runUID": 1, "repTeamId": null, "repTeamUID": null, "repTeamName": null, "seConfigId": 1, "seConfigName": "a", "runGroupId": null, "suggestedDate": "2018-02-01", "startDateLocal": "2018-01-15", "repUID": "h", "repName": "Rep8", "repCreatedAt": null, "accountId": null, "accountUID": null, "runRepDateSuggestionId": null, "accountName": null, "detailRepActionTypeId": 3, "detailRepActionTypeUID": null, "detailRepActionName": null, "runRepDateSuggestionDetailId": null, "productId": null, "productUID": null, "productName": null, "messageId": null, "messageUID": null, "messageName": null, "suggestionUID": null, "suggestionReferenceId": "v1", "lastViewedAt": null, "viewedAt": null, "viewedDuration": null, "actionTaken": "Suggestions Completed", "actionTaken_dt": null, "isSuggestionCompleted": null, "isSuggestionCompletedDirect": null, "isSuggestionCompletedInfer": null, "isSuggestionDismissed": null, "dismissReasonType": null, "dismissReason": null, "dismissReason_dt": null, "isSuggestionActive": null, "facilityLatitude": null, "facilityLongitude": null, "facilityGeoLocationString": null, "repLatitude": null, "repLongitude": null, "territoryCityName": null, "districtName": null, "territoryId": null, "territoryName": null, "regionName": null, "regionGroup": null, "dismissedAt": null, "dismissCount": null, "lastPublishedAt": null, "createdAt": "2018-02-15T12:00:00.000-08:00", "updatedAt": "2018-02-15T12:00:00.000-08:00", "reportedInteractionUID": null, "inferredInteractionUID": null, "interactionUID": null, "completedAt": null, "inferredAt": null, "isFirstSuggestedDate": null, "isLastSuggestedDate": null, "suggestionDriver": "Trigger", "timeoffday": null, "isHighestRunidForDay": null, "holiday_weekend_Flag": null, "crmFieldName": null, "reasonText": null, "reasonRank": null, "runRepDateSuggestionReasonId": null, "repRole": null, "repBag": null, "dmUID": null, "dmName": null, "interactionId": null, "isCompleted": 1, "startDateTime": "2018-01-15T12:00:00.000-08:00", "isREMix": null, "isDSESpark": null, "arc_createdAt": "2019-01-01T12:00:01.000-08:00", "arc_updatedAt": "2019-01-01T12:00:01.000-08:00", "StartDateLocalSynched": "2018-02-01", "Times_Synched": 2.0}
{"repId": 1009, "runId": 1, "externalId": "y", "suggestionLifeCycleId": null, "runUID": 1, "repTeamId": null, "repTeamUID": null, "repTeamName": null, "seConfigId": 1, "seConfigName": "a", "runGroupId": null, "suggestedDate": "2018-02-02", "startDateLocal": "2018-01-15", "repUID": "i", "repName": "Rep9", "repCreatedAt": null, "accountId": null, "accountUID": null, "runRepDateSuggestionId": null, "accountName": null, "detailRepActionTypeId": 3, "detailRepActionTypeUID": null, "detailRepActionName": null, "runRepDateSuggestionDetailId": null, "productId": null, "productUID": null, "productName": null, "messageId": null, "messageUID": null, "messageName": null, "suggestionUID": null, "suggestionReferenceId": "y1", "lastViewedAt": null, "viewedAt": null, "viewedDuration": null, "actionTaken": "Suggestions Completed", "actionTaken_dt": null, "isSuggestionCompleted": null, "isSuggestionCompletedDirect": null, "isSuggestionCompletedInfer": null, "isSuggestionDismissed": null, "dismissReasonType": null, "dismissReason": null, "dismissReason_dt": null, "isSuggestionActive": null, "facilityLatitude": null, "facilityLongitude": null, "facilityGeoLocationString": null, "repLatitude": null, "repLongitude": null, "territoryCityName": null, "districtName": null, "territoryId": null, "territoryName": null, "regionName": null, "regionGroup": null, "dismissedAt": null, "dismissCount": null, "lastPublishedAt": null, "createdAt": "2018-02-15T12:00:00.000-08:00", "updatedAt": "2018-02-15T12:00:00.000-08:00", "reportedInteractionUID": null, "inferredInteractionUID": null, "interactionUID": null, "completedAt": null, "inferredAt": null, "isFirstSuggestedDate": null, "isLastSuggestedDate": null, "suggestionDriver": "Trigger", "timeoffday": null, "isHighestRunidForDay": null, "holiday_weekend_Flag": null, "crmFieldName": null, "reasonText": null, "reasonRank": null, "runRepDateSuggestionReasonId": null, "repRole": null, "repBag": null, "dmUID": null, "dmName": null, "interactionId": null, "isCompleted": 1, "startDateTime": "2018-01-15T12:00:00.000-08:00", "isREMix": null, "isDSESpark": null, "arc_createdAt": "2019-01-01T12:00:01.000-08:00", "arc_updatedAt": "2019-01-01T12:00:01.000-08:00", "StartDateLocalSynched": "2018-02-01", "Times_Synched": 2.0}
{"repId": 1008, "runId": 2, "externalId": "w", "suggestionLifeCycleId": null, "runUID": 2, "repTeamId": null, "repTeamUID": null, "repTeamName": null, "seConfigId": 1, "seConfigName": "a", "runGroupId": null, "suggestedDate": "2018-02-02", "startDateLocal": "2018-01-15", "repUID": "h", "repName": "Rep8", "repCreatedAt": null, "accountId": null, "accountUID": null, "runRepDateSuggestionId": null, "accountName": null, "detailRepActionTypeId": 3, "detailRepActionTypeUID": null, "detailRepActionName": null, "runRepDateSuggestionDetailId": null, "productId": null, "productUID": null, "productName": null, "messageId": null, "messageUID": null, "messageName": null, "suggestionUID": null, "suggestionReferenceId": "w1", "lastViewedAt": null, "viewedAt": null, "viewedDuration": null, "actionTaken": "Suggestions Completed", "actionTaken_dt": null, "isSuggestionCompleted": null, "isSuggestionCompletedDirect": null, "isSuggestionCompletedInfer": null, "isSuggestionDismissed": null, "dismissReasonType": null, "dismissReason": null, "dismissReason_dt": null, "isSuggestionActive": null, "facilityLatitude": null, "facilityLongitude": null, "facilityGeoLocationString": null, "repLatitude": null, "repLongitude": null, "territoryCityName": null, "districtName": null, "territoryId": null, "territoryName": null, "regionName": null, "regionGroup": null, "dismissedAt": null, "dismissCount": null, "lastPublishedAt": null, "createdAt": "2018-02-15T12:00:00.000-08:00", "updatedAt": "2018-02-15T12:00:00.000-08:00", "reportedInteractionUID": null, "inferredInteractionUID": null, "interactionUID": null, "completedAt": null, "inferredAt": null, "isFirstSuggestedDate": null, "isLastSuggestedDate": null, "suggestionDriver": "Target", "timeoffday": null, "isHighestRunidForDay": null, "holiday_weekend_Flag": null, "crmFieldName": null, "reasonText": null, "reasonRank": null, "runRepDateSuggestionReasonId": null, "repRole": null, "repBag": null, "dmUID": null, "dmName": null, "interactionId": null, "isCompleted": 1, "startDateTime": "2018-01-15T12:00:00.000-08:00", "isREMix": null, "isDSESpark": null, "arc_createdAt": "2019-01-01T12:00:01.000-08:00", "arc_updatedAt": "2019-01-01T12:00:01.000-08:00", "StartDateLocalSynched": "2018-02-02", "Times_Synched": 2.0}
{"repId": 1007, "runId": 2, "externalId": "u", "suggestionLifeCycleId": null, "runUID": 2, "repTeamId": null, "repTeamUID": null, "repTeamName": null, "seConfigId": 1, "seConfigName": "a", "runGroupId": null, "suggestedDate": "2018-02-03", "startDateLocal": "2018-01-15", "repUID": "g", "repName": "Rep7", "repCreatedAt": null, "accountId": null, "accountUID": null, "runRepDateSuggestionId": null, "accountName": null, "detailRepActionTypeId": 3, "detailRepActionTypeUID": null, "detailRepActionName": null, "runRepDateSuggestionDetailId": null, "productId": null, "productUID": null, "productName": null, "messageId": null, "messageUID": null, "messageName": null, "suggestionUID": null, "suggestionReferenceId": "u1", "lastViewedAt": null, "viewedAt": null, "viewedDuration": null, "actionTaken": "Suggestions Completed", "actionTaken_dt": null, "isSuggestionCompleted": null, "isSuggestionCompletedDirect": null, "isSuggestionCompletedInfer": null, "isSuggestionDismissed": null, "dismissReasonType": null, "dismissReason": null, "dismissReason_dt": null, "isSuggestionActive": null, "facilityLatitude": null, "facilityLongitude": null, "facilityGeoLocationString": null, "repLatitude": null, "repLongitude": null, "territoryCityName": null, "districtName": null, "territoryId": null, "territoryName": null, "regionName": null, "regionGroup": null, "dismissedAt": null, "dismissCount": null, "lastPublishedAt": null, "createdAt": "2018-02-15T12:00:00.000-08:00", "updatedAt": "2018-02-15T12:00:00.000-08:00", "reportedInteractionUID": null, "inferredInteractionUID": null, "interactionUID": null, "completedAt": null, "inferredAt": null, "isFirstSuggestedDate": null, "isLastSuggestedDate": null, "suggestionDriver": "Target", "timeoffday": null, "isHighestRunidForDay": null, "holiday_weekend_Flag": null, "crmFieldName": null, "reasonText": null, "reasonRank": null, "runRepDateSuggestionReasonId": null, "repRole": null, "repBag": null, "dmUID": null, "dmName": null, "interactionId": null, "isCompleted": 1, "startDateTime": "2018-01-15T12:00:00.000-08:00", "isREMix": null, "isDSESpark": null, "arc_createdAt": "2019-01-01T12:00:01.000-08:00", "arc_updatedAt": "2019-01-01T12:00:01.000-08:00", "StartDateLocalSynched": "2018-02-02", "Times_Synched": 2.0}
{"repId": 1001, "runId": 2, "externalId": "af", "suggestionLifeCycleId": null, "runUID": 2, "repTeamId": null, "repTeamUID": null, "repTeamName": null, "seConfigId": 1, "seConfigName": "a", "runGroupId": null, "suggestedDate": "2018-02-02", "startDateLocal": "2018-01-15", "repUID": "a", "repName": "Rep1", "repCreatedAt": null, "accountId": null, "accountUID": null, "runRepDateSuggestionId": null, "accountName": null, "detailRepActionTypeId": 3, "detailRepActionTypeUID": null, "detailRepActionName": null, "runRepDateSuggestionDetailId": null, "productId": null, "productUID": null, "productName": null, "messageId": null, "messageUID": null, "messageName": null, "suggestionUID": null, "suggestionReferenceId": "af1", "lastViewedAt": null, "viewedAt": null, "viewedDuration": null, "actionTaken": "Suggestions Dismissed", "actionTaken_dt": null, "isSuggestionCompleted": null, "isSuggestionCompletedDirect": null, "isSuggestionCompletedInfer": null, "isSuggestionDismissed": null, "dismissReasonType": null, "dismissReason": null, "dismissReason_dt": null, "isSuggestionActive": null, "facilityLatitude": null, "facilityLongitude": null, "facilityGeoLocationString": null, "repLatitude": null, "repLongitude": null, "territoryCityName": null, "districtName": null, "territoryId": null, "territoryName": null, "regionName": null, "regionGroup": null, "dismissedAt": null, "dismissCount": null, "lastPublishedAt": null, "createdAt": "2018-02-15T12:00:00.000-08:00", "updatedAt": "2018-02-15T12:00:00.000-08:00", "reportedInteractionUID": null, "inferredInteractionUID": null, "interactionUID": null, "completedAt": null, "inferredAt": null, "isFirstSuggestedDate": null, "isLastSuggestedDate": null, "suggestionDriver": "Trigger", "timeoffday": null, "isHighestRunidForDay": null, "holiday_weekend_Flag": null, "crmFieldName": null, "reasonText": null, "reasonRank": null, "runRepDateSuggestionReasonId": null, "repRole": null, "repBag": null, "dmUID": null, "dmName": null, "interactionId": null, "isCompleted": 0, "startDateTime": "2018-01-15T12:00:00.000-08:00", "isREMix": null, "isDSESpark": null, "arc_createdAt": "2019-01-01T12:00:01.000-08:00", "arc_updatedAt": "2019-01-01T12:00:01.000-08:00", "StartDateLocalSynched": "2018-02-02", "Times_Synched": 2.0}
{"repId": 1004, "runId": 1, "externalId": "l", "suggestionLifeCycleId": null, "runUID": 1, "repTeamId": null, "repTeamUID": null, "repTeamName": null, "seConfigId": 1, "seConfigName": "a", "runGroupId": null, "suggestedDate": "2018-02-03", "startDateLocal": "2018-01-15", "repUID": "d", "repName": "Rep4", "repCreatedAt": null, "accountId": null, "accountUID": null, "runRepDateSuggestionId": null, "accountName": null, "detailRepActionTypeId": 3, "detailRepActionTypeUID": null, "detailRepActionName": null, "runRepDateSuggestionDetailId": null, "productId": null, "productUID": null, "productName": null, "messageId": null, "messageUID": null, "messageName": null, "suggestionUID": null, "suggestionReferenceId": "l1", "lastViewedAt": null, "viewedAt": null, "viewedDuration": null, "actionTaken": "Suggestions Completed", "actionTaken_dt": null, "isSuggestionCompleted": null, "isSuggestionCompletedDirect": null, "isSuggestionCompletedInfer": null, "isSuggestionDismissed": null, "dismissReasonType": null, "dismissReason": null, "dismissReason_dt": null, "isSuggestionActive": null, "facilityLatitude": null, "facilityLongitude": null, "facilityGeoLocationString": null, "repLatitude": null, "repLongitude": null, "territoryCityName": null, "districtName": null, "territoryId": null, "territoryName": null, "regionName": null, "regionGroup": null, "dismissedAt": null, "dismissCount": null, "lastPublishedAt": null, "createdAt": "2018-02-15T12:00:00.000-08:00", "updatedAt": "2018-02-15T12:00:00.000-08:00", "reportedInteractionUID": null, "inferredInteractionUID": null, "interactionUID": null, "completedAt": null, "inferredAt": null, "isFirstSuggestedDate": null, "isLastSuggestedDate": null, "suggestionDriver": "Trigger", "timeoffday": null, "isHighestRunidForDay": null, "holiday_weekend_Flag": null, "crmFieldName": null, "reasonText": null, "reasonRank": null, "runRepDateSuggestionReasonId": null, "repRole": null, "repBag": null, "dmUID": null, "dmName": null, "interactionId": null, "isCompleted": 1, "startDateTime": "2018-01-15T12:00:00.000-08:00", "isREMix": null, "isDSESpark": null, "arc_createdAt": "2019-01-01T12:00:01.000-08:00", "arc_updatedAt": "2019-01-01T12:00:01.000-08:00", "StartDateLocalSynched": "2018-02-01", "Times_Synched": 2.0}
{"repId": 1007, "runId": 3, "externalId": "as", "suggestionLifeCycleId": null, "runUID": 3, "repTeamId": null, "repTeamUID": null, "repTeamName": null, "seConfigId": 1, "seConfigName": "a", "runGroupId": null, "suggestedDate": "2018-02-01", "startDateLocal": "2018-01-15", "repUID": "g", "repName": "Rep7", "repCreatedAt": null, "accountId": null, "accountUID": null, "runRepDateSuggestionId": null, "accountName": null, "detailRepActionTypeId": 3, "detailRepActionTypeUID": null, "detailRepActionName": null, "runRepDateSuggestionDetailId": null, "productId": null, "productUID": null, "productName": null, "messageId": null, "messageUID": null, "messageName": null, "suggestionUID": null, "suggestionReferenceId": "as1", "lastViewedAt": null, "viewedAt": null, "viewedDuration": null, "actionTaken": "No Action Taken", "actionTaken_dt": null, "isSuggestionCompleted": null, "isSuggestionCompletedDirect": null, "isSuggestionCompletedInfer": null, "isSuggestionDismissed": null, "dismissReasonType": null, "dismissReason": null, "dismissReason_dt": null, "isSuggestionActive": null, "facilityLatitude": null, "facilityLongitude": null, "facilityGeoLocationString": null, "repLatitude": null, "repLongitude": null, "territoryCityName": null, "districtName": null, "territoryId": null, "territoryName": null, "regionName": null, "regionGroup": null, "dismissedAt": null, "dismissCount": null, "lastPublishedAt": null, "createdAt": "2018-02-15T12:00:00.000-08:00", "updatedAt": "2018-02-15T12:00:00.000-08:00", "reportedInteractionUID": null, "inferredInteractionUID": null, "interactionUID": null, "completedAt": null, "inferredAt": null, "isFirstSuggestedDate": null, "isLastSuggestedDate": null, "suggestionDriver": "Target", "timeoffday": null, "isHighestRunidForDay": null, "holiday_weekend_Flag": null, "crmFieldName": null, "reasonText": null, "reasonRank": null, "runRepDateSuggestionReasonId": null, "repRole": null, "repBag": null, "dmUID": null, "dmName": null, "interactionId": null, "isCompleted": 0, "startDateTime": "2018-01-15T12:00:00.000-08:00", "isREMix": null, "isDSESpark": null, "arc_createdAt": "2019-01-01T12:00:01.000-08:00", "arc_updatedAt": "2019-01-01T12:00:01.000-08:00", "StartDateLocalSynched": "2018-02-03", "Times_Synched": 2.0}
{"repId": 1006, "runId": 2, "externalId": "r", "suggestionLifeCycleId": null, "runUID": 2, "repTeamId": null, "repTeamUID": null, "repTeamName": null, "seConfigId": 1, "seConfigName": "a", "runGroupId": null, "suggestedDate": "2018-02-03", "startDateLocal": "2018-01-15", "repUID": "f", "repName": "Rep6", "repCreatedAt": null, "accountId": null, "accountUID": null, "runRepDateSuggestionId": null, "accountName": null, "detailRepActionTypeId": 3, "detailRepActionTypeUID": null, "detailRepActionName": null, "runRepDateSuggestionDetailId": null, "productId": null, "productUID": null, "productName": null, "messageId": null, "messageUID": null, "messageName": null, "suggestionUID": null, "suggestionReferenceId": "r1", "lastViewedAt": null, "viewedAt": null, "viewedDuration": null, "actionTaken": "Suggestions Completed", "actionTaken_dt": null, "isSuggestionCompleted": null, "isSuggestionCompletedDirect": null, "isSuggestionCompletedInfer": null, "isSuggestionDismissed": null, "dismissReasonType": null, "dismissReason": null, "dismissReason_dt": null, "isSuggestionActive": null, "facilityLatitude": null, "facilityLongitude": null, "facilityGeoLocationString": null, "repLatitude": null, "repLongitude": null, "territoryCityName": null, "districtName": null, "territoryId": null, "territoryName": null, "regionName": null, "regionGroup": null, "dismissedAt": null, "dismissCount": null, "lastPublishedAt": null, "createdAt": "2018-02-15T12:00:00.000-08:00", "updatedAt": "2018-02-15T12:00:00.000-08:00", "reportedInteractionUID": null, "inferredInteractionUID": null, "interactionUID": null, "completedAt": null, "inferredAt": null, "isFirstSuggestedDate": null, "isLastSuggestedDate": null, "suggestionDriver": "Trigger", "timeoffday": null, "isHighestRunidForDay": null, "holiday_weekend_Flag": null, "crmFieldName": null, "reasonText": null, "reasonRank": null, "runRepDateSuggestionReasonId": null, "repRole": null, "repBag": null, "dmUID": null, "dmName": null, "interactionId": null, "isCompleted": 1, "startDateTime": "2018-01-15T12:00:00.000-08:00", "isREMix": null, "isDSESpark": null, "arc_createdAt": "2019-01-01T12:00:01.000-08:00", "arc_updatedAt": "2019-01-01T12:00:01.000-08:00", "StartDateLocalSynched": "2018-02-02", "Times_Synched": 2.0}
{"repId": 1004, "runId": 2, "externalId": "an", "suggestionLifeCycleId": null, "runUID": 2, "repTeamId": null, "repTeamUID": null, "repTeamName": null, "seConfigId": 1, "seConfigName": "a", "runGroupId": null, "suggestedDate": "2018-02-01", "startDateLocal": "2018-01-15", "repUID": "d", "repName": "Rep4", "repCreatedAt": null, "accountId": null, "accountUID": null, "runRepDateSuggestionId": null, "accountName": null, "detailRepActionTypeId": 3, "detailRepActionTypeUID": null, "detailRepActionName": null, "runRepDateSuggestionDetailId": null, "productId": null, "productUID": null, "productName": null, "messageId": null, "messageUID": null, "messageName": null, "suggestionUID": null, "suggestionReferenceId": "an1", "lastViewedAt": null, "viewedAt": null, "viewedDuration": null, "actionTaken": "Suggestions Dismissed", "actionTaken_dt": null, "isSuggestionCompleted": null, "isSuggestionCompletedDirect": null, "isSuggestionCompletedInfer": null, "isSuggestionDismissed": null, "dismissReasonType": null, "dismissReason": null, "dismissReason_dt": null, "isSuggestionActive": null, "facilityLatitude": null, "facilityLongitude": null, "facilityGeoLocationString": null, "repLatitude": null, "repLongitude": null, "territoryCityName": null, "districtName": null, "territoryId": null, "territoryName": null, "regionName": null, "regionGroup": null, "dismissedAt": null, "dismissCount": null, "lastPublishedAt": null, "createdAt": "2018-02-15T12:00:00.000-08:00", "updatedAt": "2018-02-15T12:00:00.000-08:00", "reportedInteractionUID": null, "inferredInteractionUID": null, "interactionUID": null, "completedAt": null, "inferredAt": null, "isFirstSuggestedDate": null, "isLastSuggestedDate": null, "suggestionDriver": "Trigger", "timeoffday": null, "isHighestRunidForDay": null, "holiday_weekend_Flag": null, "crmFieldName": null, "reasonText": null, "reasonRank": null, "runRepDateSuggestionReasonId": null, "repRole": null, "repBag": null, "dmUID": null, "dmName": null, "interactionId": null, "isCompleted": 0, "startDateTime": "2018-01-15T12:00:00.000-08:00", "isREMix": null, "isDSESpark": null, "arc_createdAt": "2019-01-01T12:00:01.000-08:00", "arc_updatedAt": "2019-01-01T12:00:01.000-08:00", "StartDateLocalSynched": "2018-02-02", "Times_Synched": 2.0}
{"repId": 1009, "runId": 3, "externalId": "aa", "suggestionLifeCycleId": null, "runUID": 3, "repTeamId": null, "repTeamUID": null, "repTeamName": null, "seConfigId": 1, "seConfigName": "a", "runGroupId": null, "suggestedDate": "2018-02-01", "startDateLocal": "2018-01-15", "repUID": "i", "repName": "Rep9", "repCreatedAt": null, "accountId": null, "accountUID": null, "runRepDateSuggestionId": null, "accountName": null, "detailRepActionTypeId": 3, "detailRepActionTypeUID": null, "detailRepActionName": null, "runRepDateSuggestionDetailId": null, "productId": null, "productUID": null, "productName": null, "messageId": null, "messageUID": null, "messageName": null, "suggestionUID": null, "suggestionReferenceId": "aa1", "lastViewedAt": null, "viewedAt": null, "viewedDuration": null, "actionTaken": "Suggestions Completed", "actionTaken_dt": null, "isSuggestionCompleted": null, "isSuggestionCompletedDirect": null, "isSuggestionCompletedInfer": null, "isSuggestionDismissed": null, "dismissReasonType": null, "dismissReason": null, "dismissReason_dt": null, "isSuggestionActive": null, "facilityLatitude": null, "facilityLongitude": null, "facilityGeoLocationString": null, "repLatitude": null, "repLongitude": null, "territoryCityName": null, "districtName": null, "territoryId": null, "territoryName": null, "regionName": null, "regionGroup": null, "dismissedAt": null, "dismissCount": null, "lastPublishedAt": null, "createdAt": "2018-02-15T12:00:00.000-08:00", "updatedAt": "2018-02-15T12:00:00.000-08:00", "reportedInteractionUID": null, "inferredInteractionUID": null, "interactionUID": null, "completedAt": null, "inferredAt": null, "isFirstSuggestedDate": null, "isLastSuggestedDate": null, "suggestionDriver": "Target", "timeoffday": null, "isHighestRunidForDay": null, "holiday_weekend_Flag": null, "crmFieldName": null, "reasonText": null, "reasonRank": null, "runRepDateSuggestionReasonId": null, "repRole": null, "repBag": null, "dmUID": null, "dmName": null, "interactionId": null, "isCompleted": 1, "startDateTime": "2018-01-15T12:00:00.000-08:00", "isREMix": null, "isDSESpark": null, "arc_createdAt": "2019-01-01T12:00:01.000-08:00", "arc_updatedAt": "2019-01-01T12:00:01.000-08:00", "StartDateLocalSynched": "2018-02-03", "Times_Synched": 2.0}
{"repId": 1010, "runId": 1, "externalId": "ab", "suggestionLifeCycleId": null, "runUID": 1, "repTeamId": null, "repTeamUID": null, "repTeamName": null, "seConfigId": 1, "seConfigName": "a", "runGroupId": null, "suggestedDate": "2018-02-01", "startDateLocal": "2018-01-15", "repUID": "j", "repName": "Rep10", "repCreatedAt": null, "accountId": null, "accountUID": null, "runRepDateSuggestionId": null, "accountName": null, "detailRepActionTypeId": 3, "detailRepActionTypeUID": null, "detailRepActionName": null, "runRepDateSuggestionDetailId": null, "productId": null, "productUID": null, "productName": null, "messageId": null, "messageUID": null, "messageName": null, "suggestionUID": null, "suggestionReferenceId": "ab1", "lastViewedAt": null, "viewedAt": null, "viewedDuration": null, "actionTaken": "Suggestions Completed", "actionTaken_dt": null, "isSuggestionCompleted": null, "isSuggestionCompletedDirect": null, "isSuggestionCompletedInfer": null, "isSuggestionDismissed": null, "dismissReasonType": null, "dismissReason": null, "dismissReason_dt": null, "isSuggestionActive": null, "facilityLatitude": null, "facilityLongitude": null, "facilityGeoLocationString": null, "repLatitude": null, "repLongitude": null, "territoryCityName": null, "districtName": null, "territoryId": null, "territoryName": null, "regionName": null, "regionGroup": null, "dismissedAt": null, "dismissCount": null, "lastPublishedAt": null, "createdAt": "2018-02-15T12:00:00.000-08:00", "updatedAt": "2018-02-15T12:00:00.000-08:00", "reportedInteractionUID": null, "inferredInteractionUID": null, "interactionUID": null, "completedAt": null, "inferredAt": null, "isFirstSuggestedDate": null, "isLastSuggestedDate": null, "suggestionDriver": "Trigger", "timeoffday": null, "isHighestRunidForDay": null, "holiday_weekend_Flag": null, "crmFieldName": null, "reasonText": null, "reasonRank": null, "runRepDateSuggestionReasonId": null, "repRole": null, "repBag": null, "dmUID": null, "dmName": null, "interactionId": null, "isCompleted": 1, "startDateTime": "2018-01-15T12:00:00.000-08:00", "isREMix": null, "isDSESpark": null, "arc_createdAt": "2019-01-01T12:00:01.000-08:00", "arc_updatedAt": "2019-01-01T12:00:01.000-08:00", "StartDateLocalSynched": "2018-02-01", "Times_Synched": 2.0}
{"repId": 1005, "runId": 1, "externalId": "o", "suggestionLifeCycleId": null, "runUID": 1, "repTeamId": null, "repTeamUID": null, "repTeamName": null, "seConfigId": 1, "seConfigName": "a", "runGroupId": null, "suggestedDate": "2018-02-03", "startDateLocal": "2018-01-15", "repUID": "e", "repName": "Rep5", "repCreatedAt": null, "accountId": null, "accountUID": null, "runRepDateSuggestionId": null, "accountName": null, "detailRepActionTypeId": 3, "detailRepActionTypeUID": null, "detailRepActionName": null, "runRepDateSuggestionDetailId": null, "productId": null, "productUID": null, "productName": null, "messageId": null, "messageUID": null, "messageName": null, "suggestionUID": null, "suggestionReferenceId": "o1", "lastViewedAt": null, "viewedAt": null, "viewedDuration": null, "actionTaken": "Suggestions Completed", "actionTaken_dt": null, "isSuggestionCompleted": null, "isSuggestionCompletedDirect": null, "isSuggestionCompletedInfer": null, "isSuggestionDismissed": null, "dismissReasonType": null, "dismissReason": null, "dismissReason_dt": null, "isSuggestionActive": null, "facilityLatitude": null, "facilityLongitude": null, "facilityGeoLocationString": null, "repLatitude": null, "repLongitude": null, "territoryCityName": null, "districtName": null, "territoryId": null, "territoryName": null, "regionName": null, "regionGroup": null, "dismissedAt": null, "dismissCount": null, "lastPublishedAt": null, "createdAt": "2018-02-15T12:00:00.000-08:00", "updatedAt": "2018-02-15T12:00:00.000-08:00", "reportedInteractionUID": null, "inferredInteractionUID": null, "interactionUID": null, "completedAt": null, "inferredAt": null, "isFirstSuggestedDate": null, "isLastSuggestedDate": null, "suggestionDriver": "Target", "timeoffday": null, "isHighestRunidForDay": null, "holiday_weekend_Flag": null, "crmFieldName": null, "reasonText": null, "reasonRank": null, "runRepDateSuggestionReasonId": null, "repRole": null, "repBag": null, "dmUID": null, "dmName": null, "interactionId": null, "isCompleted": 1, "startDateTime": "2018-01-15T12:00:00.000-08:00", "isREMix": null, "isDSESpark": null, "arc_createdAt": "2019-01-01T12:00:01.000-08:00", "arc_updatedAt": "2019-01-01T12:00:01.000-08:00", "StartDateLocalSynched": "2018-02-01", "Times_Synched": 2.0}
{"repId": 1007, "runId": 1, "externalId": "t", "suggestionLifeCycleId": null, "runUID": 1, "repTeamId": null, "repTeamUID": null, "repTeamName": null, "seConfigId": 1, "seConfigName": "a", "runGroupId": null, "suggestedDate": "2018-02-02", "startDateLocal": "2018-01-15", "repUID": "g", "repName": "Rep7", "repCreatedAt": null, "accountId": null, "accountUID": null, "runRepDateSuggestionId": null, "accountName": null, "detailRepActionTypeId": 3, "detailRepActionTypeUID": null, "detailRepActionName": null, "runRepDateSuggestionDetailId": null, "productId": null, "productUID": null, "productName": null, "messageId": null, "messageUID": null, "messageName": null, "suggestionUID": null, "suggestionReferenceId": "t1", "lastViewedAt": null, "viewedAt": null, "viewedDuration": null, "actionTaken": "Suggestions Completed", "actionTaken_dt": null, "isSuggestionCompleted": null, "isSuggestionCompletedDirect": null, "isSuggestionCompletedInfer": null, "isSuggestionDismissed": null, "dismissReasonType": null, "dismissReason": null, "dismissReason_dt": null, "isSuggestionActive": null, "facilityLatitude": null, "facilityLongitude": null, "facilityGeoLocationString": null, "repLatitude": null, "repLongitude": null, "territoryCityName": null, "districtName": null, "territoryId": null, "territoryName": null, "regionName": null, "regionGroup": null, "dismissedAt": null, "dismissCount": null, "lastPublishedAt": null, "createdAt": "2018-02-15T12:00:00.000-08:00", "updatedAt": "2018-02-15T12:00:00.000-08:00", "reportedInteractionUID": null, "inferredInteractionUID": null, "interactionUID": null, "completedAt": null, "inferredAt": null, "isFirstSuggestedDate": null, "isLastSuggestedDate": null, "suggestionDriver": "Trigger", "timeoffday": null, "isHighestRunidForDay": null, "holiday_weekend_Flag": null, "crmFieldName": null, "reasonText": null, "reasonRank": null, "runRepDateSuggestionReasonId": null, "repRole": null, "repBag": null, "dmUID": null, "dmName": null, "interactionId": null, "isCompleted": 1, "startDateTime": "2018-01-15T12:00:00.000-08:00", "isREMix": null, "isDSESpark": null, "arc_createdAt": "2019-01-01T12:00:01.000-08:00", "arc_updatedAt": "2019-01-01T12:00:01.000-08:00", "StartDateLocalSynched": "2018-02-01", "Times_Synched": 2.0}
{"repId": 1005, "runId": 3, "externalId": "aq", "suggestionLifeCycleId": null, "runUID": 3, "repTeamId": null, "repTeamUID": null, "repTeamName": null, "seConfigId": 1, "seConfigName": "a", "runGroupId": null, "suggestedDate": "2018-02-02", "startDateLocal": "2018-01-15", "repUID": "e", "repName": "Rep5", "repCreatedAt": null, "accountId": null, "accountUID": null, "runRepDateSuggestionId": null, "accountName": null, "detailRepActionTypeId": 3, "detailRepActionTypeUID": null, "detailRepActionName": null, "runRepDateSuggestionDetailId": null, "productId": null, "productUID": null, "productName": null, "messageId": null, "messageUID": null, "messageName": null, "suggestionUID": null, "suggestionReferenceId": "aq1", "lastViewedAt": null, "viewedAt": null, "viewedDuration": null, "actionTaken": "No Action Taken", "actionTaken_dt": null, "isSuggestionCompleted": null, "isSuggestionCompletedDirect": null, "isSuggestionCompletedInfer": null, "isSuggestionDismissed": null, "dismissReasonType": null, "dismissReason": null, "dismissReason_dt": null, "isSuggestionActive": null, "facilityLatitude": null, "facilityLongitude": null, "facilityGeoLocationString": null, "repLatitude": null, "repLongitude": null, "territoryCityName": null, "districtName": null, "territoryId": null, "territoryName": null, "regionName": null, "regionGroup": null, "dismissedAt": null, "dismissCount": null, "lastPublishedAt": null, "createdAt": "2018-02-15T12:00:00.000-08:00", "updatedAt": "2018-02-15T12:00:00.000-08:00", "reportedInteractionUID": null, "inferredInteractionUID": null, "interactionUID": null, "completedAt": null, "inferredAt": null, "isFirstSuggestedDate": null, "isLastSuggestedDate": null, "suggestionDriver": "Trigger", "timeoffday": null, "isHighestRunidForDay": null, "holiday_weekend_Flag": null, "crmFieldName": null, "reasonText": null, "reasonRank": null, "runRepDateSuggestionReasonId": null, "repRole": null, "repBag": null, "dmUID": null, "dmName": null, "interactionId": null, "isCompleted": 0, "startDateTime": "2018-01-15T12:00:00.000-08:00", "isREMix": null, "isDSESpark": null, "arc_createdAt": "2019-01-01T12:00:01.000-08:00", "arc_updatedAt": "2019-01-01T12:00:01.000-08:00", "StartDateLocalSynched": "2018-02-03", "Times_Synched": 2.0}
{"repId": 1003, "runId": 1, "externalId": "ak", "suggestionLifeCycleId": null, "runUID": 1, "repTeamId": null, "repTeamUID": null, "repTeamName": null, "seConfigId": 1, "seConfigName": "a", "runGroupId": null, "suggestedDate": "2018-02-01", "startDateLocal": "2018-01-15", "repUID": "c", "repName": "Rep3", "repCreatedAt": null, "accountId": null, "accountUID": null, "runRepDateSuggestionId": null, "accountName": null, "detailRepActionTypeId": 3, "detailRepActionTypeUID": null, "detailRepActionName": null, "runRepDateSuggestionDetailId": null, "productId": null, "productUID": null, "productName": null, "messageId": null, "messageUID": null, "messageName": null, "suggestionUID": null, "suggestionReferenceId": "ak1", "lastViewedAt": null, "viewedAt": null, "viewedDuration": null, "actionTaken": "No Action Taken", "actionTaken_dt": null, "isSuggestionCompleted": null, "isSuggestionCompletedDirect": null, "isSuggestionCompletedInfer": null, "isSuggestionDismissed": null, "dismissReasonType": null, "dismissReason": null, "dismissReason_dt": null, "isSuggestionActive": null, "facilityLatitude": null, "facilityLongitude": null, "facilityGeoLocationString": null, "repLatitude": null, "repLongitude": null, "territoryCityName": null, "districtName": null, "territoryId": null, "territoryName": null, "regionName": null, "regionGroup": null, "dismissedAt": null, "dismissCount": null, "lastPublishedAt": null, "createdAt": "2018-02-15T12:00:00.000-08:00", "updatedAt": "2018-02-15T12:00:00.000-08:00", "reportedInteractionUID": null, "inferredInteractionUID": null, "interactionUID": null, "completedAt": null, "inferredAt": null, "isFirstSuggestedDate": null, "isLastSuggestedDate": null, "suggestionDriver": "Target", "timeoffday": null, "isHighestRunidForDay": null, "holiday_weekend_Flag": null, "crmFieldName": null, "reasonText": null, "reasonRank": null, "runRepDateSuggestionReasonId": null, "repRole": null, "repBag": null, "dmUID": null, "dmName": null, "interactionId": null, "isCompleted": 0, "startDateTime": "2018-01-15T12:00:00.000-08:00", "isREMix": null, "isDSESpark": null, "arc_createdAt": "2019-01-01T12:00:01.000-08:00", "arc_updatedAt": "2019-01-01T12:00:01.000-08:00", "StartDateLocalSynched": "2018-02-01", "Times_Synched": 2.0}
{"repId": 1009, "runId": 2, "externalId": "z", "suggestionLifeCycleId": null, "runUID": 2, "repTeamId": null, "repTeamUID": null, "repTeamName": null, "seConfigId": 1, "seConfigName": "a", "runGroupId": null, "suggestedDate": "2018-02-03", "startDateLocal": "2018-01-15", "repUID": "i", "repName": "Rep9", "repCreatedAt": null, "accountId": null, "accountUID": null, "runRepDateSuggestionId": null, "accountName": null, "detailRepActionTypeId": 3, "detailRepActionTypeUID": null, "detailRepActionName": null, "runRepDateSuggestionDetailId": null, "productId": null, "productUID": null, "productName": null, "messageId": null, "messageUID": null, "messageName": null, "suggestionUID": null, "suggestionReferenceId": "z1", "lastViewedAt": null, "viewedAt": null, "viewedDuration": null, "actionTaken": "Suggestions Completed", "actionTaken_dt": null, "isSuggestionCompleted": null, "isSuggestionCompletedDirect": null, "isSuggestionCompletedInfer": null, "isSuggestionDismissed": null, "dismissReasonType": null, "dismissReason": null, "dismissReason_dt": null, "isSuggestionActive": null, "facilityLatitude": null, "facilityLongitude": null, "facilityGeoLocationString": null, "repLatitude": null, "repLongitude": null, "territoryCityName": null, "districtName": null, "territoryId": null, "territoryName": null, "regionName": null, "regionGroup": null, "dismissedAt": null, "dismissCount": null, "lastPublishedAt": null, "createdAt": "2018-02-15T12:00:00.000-08:00", "updatedAt": "2018-02-15T12:00:00.000-08:00", "reportedInteractionUID": null, "inferredInteractionUID": null, "interactionUID": null, "completedAt": null, "inferredAt": null, "isFirstSuggestedDate": null, "isLastSuggestedDate": null, "suggestionDriver": "Target", "timeoffday": null, "isHighestRunidForDay": null, "holiday_weekend_Flag": null, "crmFieldName": null, "reasonText": null, "reasonRank": null, "runRepDateSuggestionReasonId": null, "repRole": null, "repBag": null, "dmUID": null, "dmName": null, "interactionId": null, "isCompleted": 1, "startDateTime": "2018-01-15T12:00:00.000-08:00", "isREMix": null, "isDSESpark": null, "arc_createdAt": "2019-01-01T12:00:01.000-08:00", "arc_updatedAt": "2019-01-01T12:00:01.000-08:00", "StartDateLocalSynched": "2018-02-02", "Times_Synched": 2.0}
{"repId": 1008, "runId": 3, "externalId": "x", "suggestionLifeCycleId": null, "runUID": 3, "repTeamId": null, "repTeamUID": null, "repTeamName": null, "seConfigId": 1, "seConfigName": "a", "runGroupId": null, "suggestedDate": "2018-02-03", "startDateLocal": "2018-01-15", "repUID": "h", "repName": "Rep8", "repCreatedAt": null, "accountId": null, "accountUID": null, "runRepDateSuggestionId": null, "accountName": null, "detailRepActionTypeId": 3, "detailRepActionTypeUID": null, "detailRepActionName": null, "runRepDateSuggestionDetailId": null, "productId": null, "productUID": null, "productName": null, "messageId": null, "messageUID": null, "messageName": null, "suggestionUID": null, "suggestionReferenceId": "x1", "lastViewedAt": null, "viewedAt": null, "viewedDuration": null, "actionTaken": "Suggestions Completed", "actionTaken_dt": null, "isSuggestionCompleted": null, "isSuggestionCompletedDirect": null, "isSuggestionCompletedInfer": null, "isSuggestionDismissed": null, "dismissReasonType": null, "dismissReason": null, "dismissReason_dt": null, "isSuggestionActive": null, "facilityLatitude": null, "facilityLongitude": null, "facilityGeoLocationString": null, "repLatitude": null, "repLongitude": null, "territoryCityName": null, "districtName": null, "territoryId": null, "territoryName": null, "regionName": null, "regionGroup": null, "dismissedAt": null, "dismissCount": null, "lastPublishedAt": null, "createdAt": "2018-02-15T12:00:00.000-08:00", "updatedAt": "2018-02-15T12:00:00.000-08:00", "reportedInteractionUID": null, "inferredInteractionUID": null, "interactionUID": null, "completedAt": null, "inferredAt": null, "isFirstSuggestedDate": null, "isLastSuggestedDate": null, "suggestionDriver": "Trigger", "timeoffday": null, "isHighestRunidForDay": null, "holiday_weekend_Flag": null, "crmFieldName": null, "reasonText": null, "reasonRank": null, "runRepDateSuggestionReasonId": null, "repRole": null, "repBag": null, "dmUID": null, "dmName": null, "interactionId": null, "isCompleted": 1, "startDateTime": "2018-01-15T12:00:00.000-08:00", "isREMix": null, "isDSESpark": null, "arc_createdAt": "2019-01-01T12:00:01.000-08:00", "arc_updatedAt": "2019-01-01T12:00:01.000-08:00", "StartDateLocalSynched": "2018-02-03", "Times_Synched": 2.0}
{"repId": 1004, "runId": 3, "externalId": "ao", "suggestionLifeCycleId": null, "runUID": 3, "repTeamId": null, "repTeamUID": null, "repTeamName": null, "seConfigId": 1, "seConfigName": "a", "runGroupId": null, "suggestedDate": "2018-02-02", "startDateLocal": "2018-01-15", "repUID": "d", "repName": "Rep4", "repCreatedAt": null, "accountId": null, "accountUID": null, "runRepDateSuggestionId": null, "accountName": null, "detailRepActionTypeId": 3, "detailRepActionTypeUID": null, "detailRepActionName": null, "runRepDateSuggestionDetailId": null, "productId": null, "productUID": null, "productName": null, "messageId": null, "messageUID": null, "messageName": null, "suggestionUID": null, "suggestionReferenceId": "ao1", "lastViewedAt": null, "viewedAt": null, "viewedDuration": null, "actionTaken": "No Action Taken", "actionTaken_dt": null, "isSuggestionCompleted": null, "isSuggestionCompletedDirect": null, "isSuggestionCompletedInfer": null, "isSuggestionDismissed": null, "dismissReasonType": null, "dismissReason": null, "dismissReason_dt": null, "isSuggestionActive": null, "facilityLatitude": null, "facilityLongitude": null, "facilityGeoLocationString": null, "repLatitude": null, "repLongitude": null, "territoryCityName": null, "districtName": null, "territoryId": null, "territoryName": null, "regionName": null, "regionGroup": null, "dismissedAt": null, "dismissCount": null, "lastPublishedAt": null, "createdAt": "2018-02-15T12:00:00.000-08:00", "updatedAt": "2018-02-15T12:00:00.000-08:00", "reportedInteractionUID": null, "inferredInteractionUID": null, "interactionUID": null, "completedAt": null, "inferredAt": null, "isFirstSuggestedDate": null, "isLastSuggestedDate": null, "suggestionDriver": "Target", "timeoffday": null, "isHighestRunidForDay": null, "holiday_weekend_Flag": null, "crmFieldName": null, "reasonText": null, "reasonRank": null, "runRepDateSuggestionReasonId": null, "repRole": null, "repBag": null, "dmUID": null, "dmName": null, "interactionId": null, "isCompleted": 0, "startDateTime": "2018-01-15T12:00:00.000-08:00", "isREMix": null, "isDSESpark": null, "arc_createdAt": "2019-01-01T12:00:01.000-08:00", "arc_updatedAt": "2019-01-01T12:00:01.000-08:00", "StartDateLocalSynched": "2018-02-03", "Times_Synched": 2.0}
{"repId": 1010, "runId": 2, "externalId": "ac", "suggestionLifeCycleId": null, "runUID": 2, "repTeamId": null, "repTeamUID": null, "repTeamName": null, "seConfigId": 1, "seConfigName": "a", "runGroupId": null, "suggestedDate": "2018-02-02", "startDateLocal": "2018-01-15", "repUID": "j", "repName": "Rep10", "repCreatedAt": null, "accountId": null, "accountUID": null, "runRepDateSuggestionId": null, "accountName": null, "detailRepActionTypeId": 3, "detailRepActionTypeUID": null, "detailRepActionName": null, "runRepDateSuggestionDetailId": null, "productId": null, "productUID": null, "productName": null, "messageId": null, "messageUID": null, "messageName": null, "suggestionUID": null, "suggestionReferenceId": "ac1", "lastViewedAt": null, "viewedAt": null, "viewedDuration": null, "actionTaken": "Suggestions Completed", "actionTaken_dt": null, "isSuggestionCompleted": null, "isSuggestionCompletedDirect": null, "isSuggestionCompletedInfer": null, "isSuggestionDismissed": null, "dismissReasonType": null, "dismissReason": null, "dismissReason_dt": null, "isSuggestionActive": null, "facilityLatitude": null, "facilityLongitude": null, "facilityGeoLocationString": null, "repLatitude": null, "repLongitude": null, "territoryCityName": null, "districtName": null, "territoryId": null, "territoryName": null, "regionName": null, "regionGroup": null, "dismissedAt": null, "dismissCount": null, "lastPublishedAt": null, "createdAt": "2018-02-15T12:00:00.000-08:00", "updatedAt": "2018-02-15T12:00:00.000-08:00", "reportedInteractionUID": null, "inferredInteractionUID": null, "interactionUID": null, "completedAt": null, "inferredAt": null, "isFirstSuggestedDate": null, "isLastSuggestedDate": null, "suggestionDriver": "Target", "timeoffday": null, "isHighestRunidForDay": null, "holiday_weekend_Flag": null, "crmFieldName": null, "reasonText": null, "reasonRank": null, "runRepDateSuggestionReasonId": null, "repRole": null, "repBag": null, "dmUID": null, "dmName": null, "interactionId": null, "isCompleted": 1, "startDateTime": "2018-01-15T12:00:00.000-08:00", "isREMix": null, "isDSESpark": null, "arc_createdAt": "2019-01-01T12:00:01.000-08:00", "arc_updatedAt": "2019-01-01T12:00:01.000-08:00", "StartDateLocalSynched": "2018-02-02", "Times_Synched": 2.0}
{"repId": 1003, "runId": 3, "externalId": "am", "suggestionLifeCycleId": null, "runUID": 3, "repTeamId": null, "repTeamUID": null, "repTeamName": null, "seConfigId": 1, "seConfigName": "a", "runGroupId": null, "suggestedDate": "2018-02-03", "startDateLocal": "2018-01-15", "repUID": "c", "repName": "Rep3", "repCreatedAt": null, "accountId": null, "accountUID": null, "runRepDateSuggestionId": null, "accountName": null, "detailRepActionTypeId": 3, "detailRepActionTypeUID": null, "detailRepActionName": null, "runRepDateSuggestionDetailId": null, "productId": null, "productUID": null, "productName": null, "messageId": null, "messageUID": null, "messageName": null, "suggestionUID": null, "suggestionReferenceId": "am1", "lastViewedAt": null, "viewedAt": null, "viewedDuration": null, "actionTaken": "No Action Taken", "actionTaken_dt": null, "isSuggestionCompleted": null, "isSuggestionCompletedDirect": null, "isSuggestionCompletedInfer": null, "isSuggestionDismissed": null, "dismissReasonType": null, "dismissReason": null, "dismissReason_dt": null, "isSuggestionActive": null, "facilityLatitude": null, "facilityLongitude": null, "facilityGeoLocationString": null, "repLatitude": null, "repLongitude": null, "territoryCityName": null, "districtName": null, "territoryId": null, "territoryName": null, "regionName": null, "regionGroup": null, "dismissedAt": null, "dismissCount": null, "lastPublishedAt": null, "createdAt": "2018-02-15T12:00:00.000-08:00", "updatedAt": "2018-02-15T12:00:00.000-08:00", "reportedInteractionUID": null, "inferredInteractionUID": null, "interactionUID": null, "completedAt": null, "inferredAt": null, "isFirstSuggestedDate": null, "isLastSuggestedDate": null, "suggestionDriver": "Target", "timeoffday": null, "isHighestRunidForDay": null, "holiday_weekend_Flag": null, "crmFieldName": null, "reasonText": null, "reasonRank": null, "runRepDateSuggestionReasonId": null, "repRole": null, "repBag": null, "dmUID": null, "dmName": null, "interactionId": null, "isCompleted": 0, "startDateTime": "2018-01-15T12:00:00.000-08:00", "isREMix": null, "isDSESpark": null, "arc_createdAt": "2019-01-01T12:00:01.000-08:00", "arc_updatedAt": "2019-01-01T12:00:01.000-08:00", "StartDateLocalSynched": "2018-02-03", "Times_Synched": 2.0}
{"repId": 1002, "runId": 1, "externalId": "ah", "suggestionLifeCycleId": null, "runUID": 1, "repTeamId": null, "repTeamUID": null, "repTeamName": null, "seConfigId": 1, "seConfigName": "a", "runGroupId": null, "suggestedDate": "2018-02-01", "startDateLocal": "2018-01-15", "repUID": "b", "repName": "Rep2", "repCreatedAt": null, "accountId": null, "accountUID": null, "runRepDateSuggestionId": null, "accountName": null, "detailRepActionTypeId": 3, "detailRepActionTypeUID": null, "detailRepActionName": null, "runRepDateSuggestionDetailId": null, "productId": null, "productUID": null, "productName": null, "messageId": null, "messageUID": null, "messageName": null, "suggestionUID": null, "suggestionReferenceId": "ah1", "lastViewedAt": null, "viewedAt": null, "viewedDuration": null, "actionTaken": "Suggestions Dismissed", "actionTaken_dt": null, "isSuggestionCompleted": null, "isSuggestionCompletedDirect": null, "isSuggestionCompletedInfer": null, "isSuggestionDismissed": null, "dismissReasonType": null, "dismissReason": null, "dismissReason_dt": null, "isSuggestionActive": null, "facilityLatitude": null, "facilityLongitude": null, "facilityGeoLocationString": null, "repLatitude": null, "repLongitude": null, "territoryCityName": null, "districtName": null, "territoryId": null, "territoryName": null, "regionName": null, "regionGroup": null, "dismissedAt": null, "dismissCount": null, "lastPublishedAt": null, "createdAt": "2018-02-15T12:00:00.000-08:00", "updatedAt": "2018-02-15T12:00:00.000-08:00", "reportedInteractionUID": null, "inferredInteractionUID": null, "interactionUID": null, "completedAt": null, "inferredAt": null, "isFirstSuggestedDate": null, "isLastSuggestedDate": null, "suggestionDriver": "Trigger", "timeoffday": null, "isHighestRunidForDay": null, "holiday_weekend_Flag": null, "crmFieldName": null, "reasonText": null, "reasonRank": null, "runRepDateSuggestionReasonId": null, "repRole": null, "repBag": null, "dmUID": null, "dmName": null, "interactionId": null, "isCompleted": 0, "startDateTime": "2018-01-15T12:00:00.000-08:00", "isREMix": null, "isDSESpark": null, "arc_createdAt": "2019-01-01T12:00:01.000-08:00", "arc_updatedAt": "2019-01-01T12:00:01.000-08:00", "StartDateLocalSynched": "2018-02-01", "Times_Synched": 2.0}
