startDateLocal, repUID, repName, cluster, seConfigId, seConfigName, suggestionDriver, suggestionReferenceId, territoryId, territoryName, suggestedDate, actionTaken, date field, day_of_week, calendar_year, calendar_quarter, quarter_value, month_of_year, day_of_month, week_label, week_value, month_value, month_value_full, month_label, is_holiday, is_weekend, is_last_day_of_month, year, month, repTeamUID, repTeamName, suggestionType
2018-01-15,a,Rep1,a,1,a,Trigger,af1,1,territoryA,2018-02-02,Suggestions Dismissed,2018-01-15,2,2018,1,2018Q1,1,15,2018-01-19,2018-01-19,2018-01,2018-01-01,"January 1, 2018",1,0,0
2018-01-15,a,Rep1,a,1,a,Target,ae,1,territoryA,2018-02-01,No Action Taken,2018-01-15,2,2018,1,2018Q1,1,15,2018-01-19,2018-01-19,2018-01,2018-01-01,"January 1, 2018",1,0,0
2018-01-15,a,Rep1,a,1,a,Target,ag1,1,territoryA,2018-02-03,No Action Taken,2018-01-15,2,2018,1,2018Q1,1,15,2018-01-19,2018-01-19,2018-01,2018-01-01,"January 1, 2018",1,0,0
2018-01-15,b,Rep2,a,1,a,Trigger,ah1,1,territoryA,2018-02-01,Suggestions Dismissed,2018-01-15,2,2018,1,2018Q1,1,15,2018-01-19,2018-01-19,2018-01,2018-01-01,"January 1, 2018",1,0,0
2018-01-15,b,Rep2,a,1,a,Trigger,aj1,1,territoryA,2018-02-03,Suggestions Dismissed,2018-01-15,2,2018,1,2018Q1,1,15,2018-01-19,2018-01-19,2018-01,2018-01-01,"January 1, 2018",1,0,0
2018-01-15,b,Rep2,a,1,a,Target,ai1,1,territoryA,2018-02-02,No Action Taken,2018-01-15,2,2018,1,2018Q1,1,15,2018-01-19,2018-01-19,2018-01,2018-01-01,"January 1, 2018",1,0,0
2018-01-15,c,Rep3,a,1,a,Target,am1,1,territoryA,2018-02-03,No Action Taken,2018-01-15,2,2018,1,2018Q1,1,15,2018-01-19,2018-01-19,2018-01,2018-01-01,"January 1, 2018",1,0,0
2018-01-15,c,Rep3,a,1,a,Target,ak1,1,territoryA,2018-02-01,No Action Taken,2018-01-15,2,2018,1,2018Q1,1,15,2018-01-19,2018-01-19,2018-01,2018-01-01,"January 1, 2018",1,0,0
2018-01-15,c,Rep3,a,1,a,Trigger,al1,1,territoryA,2018-02-02,Suggestions Dismissed,2018-01-15,2,2018,1,2018Q1,1,15,2018-01-19,2018-01-19,2018-01,2018-01-01,"January 1, 2018",1,0,0
2018-01-15,d,Rep4,a,1,a,Target,ao1,1,territoryA,2018-02-02,No Action Taken,2018-01-15,2,2018,1,2018Q1,1,15,2018-01-19,2018-01-19,2018-01,2018-01-01,"January 1, 2018",1,0,0
2018-01-15,d,Rep4,a,1,a,Trigger,an1,1,territoryA,2018-02-01,Suggestions Dismissed,2018-01-15,2,2018,1,2018Q1,1,15,2018-01-19,2018-01-19,2018-01,2018-01-01,"January 1, 2018",1,0,0
2018-01-15,d,Rep4,a,1,a,Trigger,l1,1,territoryA,2018-02-03,Suggestions Completed,2018-01-15,2,2018,1,2018Q1,1,15,2018-01-19,2018-01-19,2018-01,2018-01-01,"January 1, 2018",1,0,0
2018-01-15,e,Rep5,a,1,a,Trigger,aq1,1,territoryA,2018-02-02,No Action Taken,2018-01-15,2,2018,1,2018Q1,1,15,2018-01-19,2018-01-19,2018-01,2018-01-01,"January 1, 2018",1,0,0
2018-01-15,e,Rep5,a,1,a,Target,o1,1,territoryA,2018-02-03,Suggestions Completed,2018-01-15,2,2018,1,2018Q1,1,15,2018-01-19,2018-01-19,2018-01,2018-01-01,"January 1, 2018",1,0,0
2018-01-15,e,Rep5,a,1,a,Target,ap1,1,territoryA,2018-02-01,Suggestions Dismissed,2018-01-15,2,2018,1,2018Q1,1,15,2018-01-19,2018-01-19,2018-01,2018-01-01,"January 1, 2018",1,0,0
2018-01-15,f,Rep6,a,1,a,Trigger,r1,1,territoryA,2018-02-03,Suggestions Completed,2018-01-15,2,2018,1,2018Q1,1,15,2018-01-19,2018-01-19,2018-01,2018-01-01,"January 1, 2018",1,0,0
2018-01-15,f,Rep6,a,1,a,Trigger,ar1,1,territoryA,2018-02-01,Suggestions Dismissed,2018-01-15,2,2018,1,2018Q1,1,15,2018-01-19,2018-01-19,2018-01,2018-01-01,"January 1, 2018",1,0,0
2018-01-15,f,Rep6,a,1,a,Target,q1,1,territoryA,2018-02-02,Suggestions Completed,2018-01-15,2,2018,1,2018Q1,1,15,2018-01-19,2018-01-19,2018-01,2018-01-01,"January 1, 2018",1,0,0
2018-01-15,g,Rep7,a,1,a,Trigger,t1,1,territoryA,2018-02-02,Suggestions Completed,2018-01-15,2,2018,1,2018Q1,1,15,2018-01-19,2018-01-19,2018-01,2018-01-01,"January 1, 2018",1,0,0
2018-01-15,g,Rep7,a,1,a,Target,as1,1,territoryA,2018-02-01,No Action Taken,2018-01-15,2,2018,1,2018Q1,1,15,2018-01-19,2018-01-19,2018-01,2018-01-01,"January 1, 2018",1,0,0
2018-01-15,g,Rep7,a,1,a,Target,u1,1,territoryA,2018-02-03,Suggestions Completed,2018-01-15,2,2018,1,2018Q1,1,15,2018-01-19,2018-01-19,2018-01,2018-01-01,"January 1, 2018",1,0,0
2018-01-15,h,Rep8,a,1,a,Trigger,x1,1,territoryA,2018-02-03,Suggestions Completed,2018-01-15,2,2018,1,2018Q1,1,15,2018-01-19,2018-01-19,2018-01,2018-01-01,"January 1, 2018",1,0,0
2018-01-15,h,Rep8,a,1,a,Target,w1,1,territoryA,2018-02-02,Suggestions Completed,2018-01-15,2,2018,1,2018Q1,1,15,2018-01-19,2018-01-19,2018-01,2018-01-01,"January 1, 2018",1,0,0
2018-01-15,h,Rep8,a,1,a,Trigger,v1,1,territoryA,2018-02-01,Suggestions Completed,2018-01-15,2,2018,1,2018Q1,1,15,2018-01-19,2018-01-19,2018-01,2018-01-01,"January 1, 2018",1,0,0
2018-01-15,i,Rep9,a,1,a,Target,z1,1,territoryA,2018-02-03,Suggestions Completed,2018-01-15,2,2018,1,2018Q1,1,15,2018-01-19,2018-01-19,2018-01,2018-01-01,"January 1, 2018",1,0,0
2018-01-15,i,Rep9,a,1,a,Target,aa1,1,territoryA,2018-02-01,Suggestions Completed,2018-01-15,2,2018,1,2018Q1,1,15,2018-01-19,2018-01-19,2018-01,2018-01-01,"January 1, 2018",1,0,0
2018-01-15,i,Rep9,a,1,a,Trigger,y1,1,territoryA,2018-02-02,Suggestions Completed,2018-01-15,2,2018,1,2018Q1,1,15,2018-01-19,2018-01-19,2018-01,2018-01-01,"January 1, 2018",1,0,0
2018-01-15,j,Rep10,a,1,a,Target,ac1,1,territoryA,2018-02-02,Suggestions Completed,2018-01-15,2,2018,1,2018Q1,1,15,2018-01-19,2018-01-19,2018-01,2018-01-01,"January 1, 2018",1,0,0
2018-01-15,j,Rep10,a,1,a,Trigger,ab1,1,territoryA,2018-02-01,Suggestions Completed,2018-01-15,2,2018,1,2018Q1,1,15,2018-01-19,2018-01-19,2018-01,2018-01-01,"January 1, 2018",1,0,0
2018-01-15,j,Rep10,a,1,a,Trigger,ad1,1,territoryA,2018-02-03,Suggestions Completed,2018-01-15,2,2018,1,2018Q1,1,15,2018-01-19,2018-01-19,2018-01,2018-01-01,"January 1, 2018",1,0,0
